<?xml version="1.0" encoding="UTF-8" standalone="no"?>
<!DOCTYPE svg PUBLIC "-//W3C//DTD SVG 1.1//EN"
 "http://www.w3.org/Graphics/SVG/1.1/DTD/svg11.dtd">
<!-- Generated by graphviz version 2.40.1 (20161225.0304)
 -->
<!-- Title: DCT_Set_Model_SubDom Pages: 1 -->
<svg width="384pt" height="66pt"
 viewBox="0.00 0.00 384.00 66.00" xmlns="http://www.w3.org/2000/svg" xmlns:xlink="http://www.w3.org/1999/xlink">
<g id="graph0" class="graph" transform="scale(1 1) rotate(0) translate(4 62)">
<title>DCT_Set_Model_SubDom</title>
<polygon fill="#ffffff" stroke="transparent" points="-4,4 -4,-62 380,-62 380,4 -4,4"/>
<!-- Node15 -->
<g id="node1" class="node">
<title>Node15</title>
<polygon fill="#bfbfbf" stroke="#000000" points="0,-19.5 0,-38.5 105,-38.5 105,-19.5 0,-19.5"/>
<text text-anchor="middle" x="52.5" y="-26.5" font-family="Helvetica,sans-Serif" font-size="10.00" fill="#000000">DCT_Set_Model_SubDom</text>
</g>
<!-- Node16 -->
<g id="node2" class="node">
<title>Node16</title>
<g id="a_node2"><a xlink:href="../../d4/dd3/dctsys_8h.html#ae080a87b94ebaf65f33c1e2aba183fca" target="_top" xlink:title="DCT_SubDom_ListOrder">
<polygon fill="#ffffff" stroke="#000000" points="141,-38.5 141,-57.5 241,-57.5 241,-38.5 141,-38.5"/>
<text text-anchor="middle" x="191" y="-45.5" font-family="Helvetica,sans-Serif" font-size="10.00" fill="#000000">DCT_SubDom_ListOrder</text>
</a>
</g>
</g>
<!-- Node15&#45;&gt;Node16 -->
<g id="edge1" class="edge">
<title>Node15&#45;&gt;Node16</title>
<path fill="none" stroke="#191970" d="M105.256,-36.2373C113.5169,-37.3705 122.1103,-38.5494 130.5278,-39.7042"/>
<polygon fill="#191970" stroke="#191970" points="130.291,-43.2044 140.6739,-41.0961 131.2424,-36.2693 130.291,-43.2044"/>
</g>
<!-- Node18 -->
<g id="node4" class="node">
<title>Node18</title>
<g id="a_node4"><a xlink:href="../../d4/dd3/dctsys_8h.html#a559607734173d97c8f4c65a803aa3309" target="_top" xlink:title="DCT_Check_Intersec">
<polygon fill="#ffffff" stroke="#000000" points="147,-.5 147,-19.5 235,-19.5 235,-.5 147,-.5"/>
<text text-anchor="middle" x="191" y="-7.5" font-family="Helvetica,sans-Serif" font-size="10.00" fill="#000000">DCT_Check_Intersec</text>
</a>
</g>
</g>
<!-- Node15&#45;&gt;Node18 -->
<g id="edge3" class="edge">
<title>Node15&#45;&gt;Node18</title>
<path fill="none" stroke="#191970" d="M105.256,-21.7627C115.5761,-20.347 126.4152,-18.86 136.782,-17.4378"/>
<polygon fill="#191970" stroke="#191970" points="137.5232,-20.869 146.9547,-16.0423 136.5718,-13.934 137.5232,-20.869"/>
</g>
<!-- Node17 -->
<g id="node3" class="node">
<title>Node17</title>
<g id="a_node3"><a xlink:href="../../da/df2/dct__data__utils_8c.html#a654eccb004482b8a816ff3b93d39073e" target="_top" xlink:title="DCT_Comp_SubDomain">
<polygon fill="#ffffff" stroke="#000000" points="277,-38.5 277,-57.5 376,-57.5 376,-38.5 277,-38.5"/>
<text text-anchor="middle" x="326.5" y="-45.5" font-family="Helvetica,sans-Serif" font-size="10.00" fill="#000000">DCT_Comp_SubDomain</text>
</a>
</g>
</g>
<!-- Node16&#45;&gt;Node17 -->
<g id="edge2" class="edge">
<title>Node16&#45;&gt;Node17</title>
<path fill="none" stroke="#191970" d="M241.0702,-48C249.3241,-48 257.9544,-48 266.4226,-48"/>
<polygon fill="#191970" stroke="#191970" points="266.6356,-51.5001 276.6356,-48 266.6355,-44.5001 266.6356,-51.5001"/>
</g>
</g>
</svg>
