<?xml version="1.0" encoding="UTF-8" standalone="no"?>
<!DOCTYPE svg PUBLIC "-//W3C//DTD SVG 1.1//EN"
 "http://www.w3.org/Graphics/SVG/1.1/DTD/svg11.dtd">
<!-- Generated by graphviz version 2.40.1 (20161225.0304)
 -->
<!-- Title: DCT_Set_Model_Var Pages: 1 -->
<svg width="263pt" height="66pt"
 viewBox="0.00 0.00 263.00 66.00" xmlns="http://www.w3.org/2000/svg" xmlns:xlink="http://www.w3.org/1999/xlink">
<g id="graph0" class="graph" transform="scale(1 1) rotate(0) translate(4 62)">
<title>DCT_Set_Model_Var</title>
<polygon fill="#ffffff" stroke="transparent" points="-4,4 -4,-62 259,-62 259,4 -4,4"/>
<!-- Node46 -->
<g id="node1" class="node">
<title>Node46</title>
<polygon fill="#bfbfbf" stroke="#000000" points="0,-19.5 0,-38.5 88,-38.5 88,-19.5 0,-19.5"/>
<text text-anchor="middle" x="44" y="-26.5" font-family="Helvetica,sans-Serif" font-size="10.00" fill="#000000">DCT_Set_Model_Var</text>
</g>
<!-- Node47 -->
<g id="node2" class="node">
<title>Node47</title>
<g id="a_node2"><a xlink:href="../../d4/dd3/dctsys_8h.html#aa8d40db151943e31810915f0cf1a06d1" target="_top" xlink:title="DCT_Model_And_Var_DomCheck">
<polygon fill="#ffffff" stroke="#000000" points="124,-38.5 124,-57.5 255,-57.5 255,-38.5 124,-38.5"/>
<text text-anchor="middle" x="189.5" y="-45.5" font-family="Helvetica,sans-Serif" font-size="10.00" fill="#000000">DCT_Model_And_Var_DomCheck</text>
</a>
</g>
</g>
<!-- Node46&#45;&gt;Node47 -->
<g id="edge1" class="edge">
<title>Node46&#45;&gt;Node47</title>
<path fill="none" stroke="#191970" d="M88.0496,-34.7522C96.2537,-35.8235 105.0377,-36.9706 113.8783,-38.125"/>
<polygon fill="#191970" stroke="#191970" points="113.4867,-41.6035 123.8558,-39.4279 114.3932,-34.6624 113.4867,-41.6035"/>
</g>
<!-- Node48 -->
<g id="node3" class="node">
<title>Node48</title>
<g id="a_node3"><a xlink:href="../../d4/dd3/dctsys_8h.html#ac51c389433eda729c03f0edf1818f4da" target="_top" xlink:title="DCT_List_Add">
<polygon fill="#ffffff" stroke="#000000" points="157,-.5 157,-19.5 222,-19.5 222,-.5 157,-.5"/>
<text text-anchor="middle" x="189.5" y="-7.5" font-family="Helvetica,sans-Serif" font-size="10.00" fill="#000000">DCT_List_Add</text>
</a>
</g>
</g>
<!-- Node46&#45;&gt;Node48 -->
<g id="edge2" class="edge">
<title>Node46&#45;&gt;Node48</title>
<path fill="none" stroke="#191970" d="M88.0496,-23.2478C106.5945,-20.8261 128.1026,-18.0175 146.5298,-15.6112"/>
<polygon fill="#191970" stroke="#191970" points="147.2313,-19.0494 156.6939,-14.284 146.3249,-12.1084 147.2313,-19.0494"/>
</g>
</g>
</svg>
