<?xml version="1.0" encoding="UTF-8" standalone="no"?>
<!DOCTYPE svg PUBLIC "-//W3C//DTD SVG 1.1//EN"
 "http://www.w3.org/Graphics/SVG/1.1/DTD/svg11.dtd">
<!-- Generated by graphviz version 2.40.1 (20161225.0304)
 -->
<!-- Title: DCT_3d_Var Pages: 1 -->
<svg width="242pt" height="711pt"
 viewBox="0.00 0.00 241.50 711.00" xmlns="http://www.w3.org/2000/svg" xmlns:xlink="http://www.w3.org/1999/xlink">
<g id="graph0" class="graph" transform="scale(1 1) rotate(0) translate(4 707)">
<title>DCT_3d_Var</title>
<polygon fill="#ffffff" stroke="transparent" points="-4,4 -4,-707 237.5,-707 237.5,4 -4,4"/>
<!-- Node1 -->
<g id="node1" class="node">
<title>Node1</title>
<polygon fill="#bfbfbf" stroke="#000000" points="56,-.5 56,-167.5 147,-167.5 147,-.5 56,-.5"/>
<text text-anchor="middle" x="101.5" y="-155.5" font-family="Helvetica,sans-Serif" font-size="10.00" fill="#000000">DCT_3d_Var</text>
<polyline fill="none" stroke="#000000" points="56,-148.5 147,-148.5 "/>
<text text-anchor="start" x="64" y="-136.5" font-family="Helvetica,sans-Serif" font-size="10.00" fill="#000000">+ VarName</text>
<text text-anchor="start" x="64" y="-125.5" font-family="Helvetica,sans-Serif" font-size="10.00" fill="#000000">+ VarDescription</text>
<text text-anchor="start" x="64" y="-114.5" font-family="Helvetica,sans-Serif" font-size="10.00" fill="#000000">+ VarCommit</text>
<text text-anchor="start" x="64" y="-103.5" font-family="Helvetica,sans-Serif" font-size="10.00" fill="#000000">+ VarTag</text>
<text text-anchor="start" x="64" y="-92.5" font-family="Helvetica,sans-Serif" font-size="10.00" fill="#000000">+ VarDim</text>
<text text-anchor="start" x="64" y="-81.5" font-family="Helvetica,sans-Serif" font-size="10.00" fill="#000000">+ VarDomType</text>
<text text-anchor="start" x="64" y="-70.5" font-family="Helvetica,sans-Serif" font-size="10.00" fill="#000000">+ VarLabels</text>
<text text-anchor="start" x="64" y="-59.5" font-family="Helvetica,sans-Serif" font-size="10.00" fill="#000000">+ VarDataLoc</text>
<text text-anchor="start" x="64" y="-48.5" font-family="Helvetica,sans-Serif" font-size="10.00" fill="#000000">+ VarStride</text>
<text text-anchor="start" x="64" y="-37.5" font-family="Helvetica,sans-Serif" font-size="10.00" fill="#000000">+ VarDistType</text>
<text text-anchor="start" x="64" y="-26.5" font-family="Helvetica,sans-Serif" font-size="10.00" fill="#000000">and 15 more...</text>
<polyline fill="none" stroke="#000000" points="56,-19.5 147,-19.5 "/>
<text text-anchor="middle" x="101.5" y="-7.5" font-family="Helvetica,sans-Serif" font-size="10.00" fill="#000000"> </text>
</g>
<!-- Node2 -->
<g id="node2" class="node">
<title>Node2</title>
<g id="a_node2"><a xlink:href="$db/d28/structDCT__Model.html" xlink:title="Data structure used by DCT to represent a computational model. ">
<polygon fill="#ffffff" stroke="#000000" points="40,-215.5 40,-404.5 163,-404.5 163,-215.5 40,-215.5"/>
<text text-anchor="middle" x="101.5" y="-392.5" font-family="Helvetica,sans-Serif" font-size="10.00" fill="#000000">DCT_Model</text>
<polyline fill="none" stroke="#000000" points="40,-385.5 163,-385.5 "/>
<text text-anchor="start" x="48" y="-373.5" font-family="Helvetica,sans-Serif" font-size="10.00" fill="#000000">+ ModName</text>
<text text-anchor="start" x="48" y="-362.5" font-family="Helvetica,sans-Serif" font-size="10.00" fill="#000000">+ ModDescription</text>
<text text-anchor="start" x="48" y="-351.5" font-family="Helvetica,sans-Serif" font-size="10.00" fill="#000000">+ ModCommit</text>
<text text-anchor="start" x="48" y="-340.5" font-family="Helvetica,sans-Serif" font-size="10.00" fill="#000000">+ ModTag</text>
<text text-anchor="start" x="48" y="-329.5" font-family="Helvetica,sans-Serif" font-size="10.00" fill="#000000">+ ModNumProcs</text>
<text text-anchor="start" x="48" y="-318.5" font-family="Helvetica,sans-Serif" font-size="10.00" fill="#000000">+ ModTimeIni</text>
<text text-anchor="start" x="48" y="-307.5" font-family="Helvetica,sans-Serif" font-size="10.00" fill="#000000">+ ModTime</text>
<text text-anchor="start" x="48" y="-296.5" font-family="Helvetica,sans-Serif" font-size="10.00" fill="#000000">+ ModCurrentTime</text>
<text text-anchor="start" x="48" y="-285.5" font-family="Helvetica,sans-Serif" font-size="10.00" fill="#000000">+ ModTimeUnits</text>
<text text-anchor="start" x="48" y="-274.5" font-family="Helvetica,sans-Serif" font-size="10.00" fill="#000000">+ ModTotVarConsumed</text>
<text text-anchor="start" x="48" y="-263.5" font-family="Helvetica,sans-Serif" font-size="10.00" fill="#000000">+ ModTotVarProduced</text>
<text text-anchor="start" x="48" y="-252.5" font-family="Helvetica,sans-Serif" font-size="10.00" fill="#000000">+ ModLeadRank</text>
<text text-anchor="start" x="48" y="-241.5" font-family="Helvetica,sans-Serif" font-size="10.00" fill="#000000">+ ModGroupComm</text>
<polyline fill="none" stroke="#000000" points="40,-234.5 163,-234.5 "/>
<text text-anchor="middle" x="101.5" y="-222.5" font-family="Helvetica,sans-Serif" font-size="10.00" fill="#000000"> </text>
</a>
</g>
</g>
<!-- Node2&#45;&gt;Node1 -->
<g id="edge1" class="edge">
<title>Node2&#45;&gt;Node1</title>
<path fill="none" stroke="#404040" d="M101.5,-215.4651C101.5,-203.7049 101.5,-191.6705 101.5,-179.89"/>
<polygon fill="none" stroke="#404040" points="101.5001,-179.7276 97.5,-173.7276 101.5,-167.7276 105.5,-173.7275 101.5001,-179.7276"/>
<text text-anchor="middle" x="127.5" y="-189" font-family="Helvetica,sans-Serif" font-size="10.00" fill="#000000"> +VarModel</text>
</g>
<!-- Node3 -->
<g id="node3" class="node">
<title>Node3</title>
<g id="a_node3"><a xlink:href="$df/de8/structDCT__List.html" xlink:title="General structure to represent list for DCT. ">
<polygon fill="#ffffff" stroke="#000000" points="0,-480 0,-559 83,-559 83,-480 0,-480"/>
<text text-anchor="middle" x="41.5" y="-547" font-family="Helvetica,sans-Serif" font-size="10.00" fill="#000000">DCT_List</text>
<polyline fill="none" stroke="#000000" points="0,-540 83,-540 "/>
<text text-anchor="start" x="8" y="-528" font-family="Helvetica,sans-Serif" font-size="10.00" fill="#000000">+ AddressData</text>
<text text-anchor="start" x="8" y="-517" font-family="Helvetica,sans-Serif" font-size="10.00" fill="#000000">+ NextData</text>
<text text-anchor="start" x="8" y="-506" font-family="Helvetica,sans-Serif" font-size="10.00" fill="#000000">+ DataType</text>
<polyline fill="none" stroke="#000000" points="0,-499 83,-499 "/>
<text text-anchor="middle" x="41.5" y="-487" font-family="Helvetica,sans-Serif" font-size="10.00" fill="#000000"> </text>
</a>
</g>
</g>
<!-- Node3&#45;&gt;Node2 -->
<g id="edge2" class="edge">
<title>Node3&#45;&gt;Node2</title>
<path fill="none" stroke="#404040" d="M40.5643,-479.9935C41.0073,-462.3132 42.7348,-441.3597 47.5,-423 48.094,-420.7113 48.735,-418.4131 49.418,-416.1104"/>
<polygon fill="none" stroke="#404040" points="49.455,-415.9961 47.502,-409.0545 53.1584,-404.5819 55.1115,-411.5235 49.455,-415.9961"/>
<text text-anchor="middle" x="93.5" y="-437" font-family="Helvetica,sans-Serif" font-size="10.00" fill="#000000"> +ModConsumeVars</text>
<text text-anchor="middle" x="93.5" y="-426" font-family="Helvetica,sans-Serif" font-size="10.00" fill="#000000">+ModProduceVars</text>
</g>
<!-- Node4 -->
<g id="node4" class="node">
<title>Node4</title>
<g id="a_node4"><a xlink:href="$db/da4/structDCT__Model__Dom.html" xlink:title="Data structure to represent the computational model domain in DCT_Model. ">
<polygon fill="#ffffff" stroke="#000000" points="101,-463.5 101,-575.5 232,-575.5 232,-463.5 101,-463.5"/>
<text text-anchor="middle" x="166.5" y="-563.5" font-family="Helvetica,sans-Serif" font-size="10.00" fill="#000000">DCT_Model_Dom</text>
<polyline fill="none" stroke="#000000" points="101,-556.5 232,-556.5 "/>
<text text-anchor="start" x="109" y="-544.5" font-family="Helvetica,sans-Serif" font-size="10.00" fill="#000000">+ ModDomDim</text>
<text text-anchor="start" x="109" y="-533.5" font-family="Helvetica,sans-Serif" font-size="10.00" fill="#000000">+ ModDomType</text>
<text text-anchor="start" x="109" y="-522.5" font-family="Helvetica,sans-Serif" font-size="10.00" fill="#000000">+ ModNumPts</text>
<text text-anchor="start" x="109" y="-511.5" font-family="Helvetica,sans-Serif" font-size="10.00" fill="#000000">+ ModValues</text>
<text text-anchor="start" x="109" y="-500.5" font-family="Helvetica,sans-Serif" font-size="10.00" fill="#000000">+ ModSubDomParLayout</text>
<text text-anchor="start" x="109" y="-489.5" font-family="Helvetica,sans-Serif" font-size="10.00" fill="#000000">+ ModSubDomLayoutDim</text>
<polyline fill="none" stroke="#000000" points="101,-482.5 232,-482.5 "/>
<text text-anchor="middle" x="166.5" y="-470.5" font-family="Helvetica,sans-Serif" font-size="10.00" fill="#000000"> </text>
</a>
</g>
</g>
<!-- Node4&#45;&gt;Node2 -->
<g id="edge3" class="edge">
<title>Node4&#45;&gt;Node2</title>
<path fill="none" stroke="#404040" d="M151.3537,-463.4809C147.6101,-450.1735 143.5176,-436.0522 139.5,-423 138.8036,-420.7375 138.0935,-418.4516 137.3724,-416.1488"/>
<polygon fill="none" stroke="#404040" points="137.3142,-415.9649 131.6878,-411.4544 133.6874,-404.5261 139.3137,-409.0365 137.3142,-415.9649"/>
<text text-anchor="middle" x="177" y="-431.5" font-family="Helvetica,sans-Serif" font-size="10.00" fill="#000000"> +ModDomain</text>
</g>
<!-- Node5 -->
<g id="node5" class="node">
<title>Node5</title>
<g id="a_node5"><a xlink:href="$db/d34/structDCT__Data__SubDom.html" xlink:title="The data type used to represent a model subdomain. ">
<polygon fill="#ffffff" stroke="#000000" points="112.5,-623.5 112.5,-702.5 220.5,-702.5 220.5,-623.5 112.5,-623.5"/>
<text text-anchor="middle" x="166.5" y="-690.5" font-family="Helvetica,sans-Serif" font-size="10.00" fill="#000000">DCT_Data_SubDom</text>
<polyline fill="none" stroke="#000000" points="112.5,-683.5 220.5,-683.5 "/>
<text text-anchor="start" x="120.5" y="-671.5" font-family="Helvetica,sans-Serif" font-size="10.00" fill="#000000">+ IniPos</text>
<text text-anchor="start" x="120.5" y="-660.5" font-family="Helvetica,sans-Serif" font-size="10.00" fill="#000000">+ EndPos</text>
<text text-anchor="start" x="120.5" y="-649.5" font-family="Helvetica,sans-Serif" font-size="10.00" fill="#000000">+ RankProc</text>
<polyline fill="none" stroke="#000000" points="112.5,-642.5 220.5,-642.5 "/>
<text text-anchor="middle" x="166.5" y="-630.5" font-family="Helvetica,sans-Serif" font-size="10.00" fill="#000000"> </text>
</a>
</g>
</g>
<!-- Node5&#45;&gt;Node4 -->
<g id="edge4" class="edge">
<title>Node5&#45;&gt;Node4</title>
<path fill="none" stroke="#404040" d="M166.5,-623.4081C166.5,-612.3331 166.5,-599.9691 166.5,-587.7414"/>
<polygon fill="none" stroke="#404040" points="166.5001,-587.6118 162.5,-581.6119 166.5,-575.6118 170.5,-581.6118 166.5001,-587.6118"/>
<text text-anchor="middle" x="200" y="-597" font-family="Helvetica,sans-Serif" font-size="10.00" fill="#000000"> +ModSubDom</text>
</g>
</g>
</svg>
