<?xml version="1.0" encoding="UTF-8" standalone="no"?>
<!DOCTYPE svg PUBLIC "-//W3C//DTD SVG 1.1//EN"
 "http://www.w3.org/Graphics/SVG/1.1/DTD/svg11.dtd">
<!-- Generated by graphviz version 2.40.1 (20161225.0304)
 -->
<!-- Title: /Users/dcecchis/DCT_Project/DCT/SRC/dct_comm_data.c Pages: 1 -->
<svg width="467pt" height="218pt"
 viewBox="0.00 0.00 466.50 218.00" xmlns="http://www.w3.org/2000/svg" xmlns:xlink="http://www.w3.org/1999/xlink">
<g id="graph0" class="graph" transform="scale(1 1) rotate(0) translate(4 214)">
<title>/Users/dcecchis/DCT_Project/DCT/SRC/dct_comm_data.c</title>
<polygon fill="#ffffff" stroke="transparent" points="-4,4 -4,-214 462.5,-214 462.5,4 -4,4"/>
<!-- Node0 -->
<g id="node1" class="node">
<title>Node0</title>
<polygon fill="#bfbfbf" stroke="#000000" points="253.5,-168.5 253.5,-209.5 370.5,-209.5 370.5,-168.5 253.5,-168.5"/>
<text text-anchor="start" x="261.5" y="-197.5" font-family="Helvetica,sans-Serif" font-size="10.00" fill="#000000">/Users/dcecchis/DCT</text>
<text text-anchor="start" x="261.5" y="-186.5" font-family="Helvetica,sans-Serif" font-size="10.00" fill="#000000">_Project/DCT/SRC/dct</text>
<text text-anchor="middle" x="312" y="-175.5" font-family="Helvetica,sans-Serif" font-size="10.00" fill="#000000">_comm_data.c</text>
</g>
<!-- Node1 -->
<g id="node2" class="node">
<title>Node1</title>
<polygon fill="#ffffff" stroke="#bfbfbf" points="0,-.5 0,-19.5 46,-19.5 46,-.5 0,-.5"/>
<text text-anchor="middle" x="23" y="-7.5" font-family="Helvetica,sans-Serif" font-size="10.00" fill="#000000">stdio.h</text>
</g>
<!-- Node0&#45;&gt;Node1 -->
<g id="edge1" class="edge">
<title>Node0&#45;&gt;Node1</title>
<path fill="none" stroke="#191970" d="M253.4192,-181.1656C190.3123,-169.5331 91.6207,-141.5137 37,-76 26.3466,-63.222 23.205,-44.307 22.5193,-29.998"/>
<polygon fill="#191970" stroke="#191970" points="26.0158,-29.6736 22.3992,-19.7152 19.0163,-29.7554 26.0158,-29.6736"/>
</g>
<!-- Node2 -->
<g id="node3" class="node">
<title>Node2</title>
<polygon fill="#ffffff" stroke="#bfbfbf" points="264.5,-.5 264.5,-19.5 313.5,-19.5 313.5,-.5 264.5,-.5"/>
<text text-anchor="middle" x="289" y="-7.5" font-family="Helvetica,sans-Serif" font-size="10.00" fill="#000000">string.h</text>
</g>
<!-- Node0&#45;&gt;Node2 -->
<g id="edge2" class="edge">
<title>Node0&#45;&gt;Node2</title>
<path fill="none" stroke="#191970" d="M309.3616,-168.4664C304.9091,-133.8145 295.9598,-64.1656 291.5604,-29.927"/>
<polygon fill="#191970" stroke="#191970" points="295.002,-29.2472 290.256,-19.7749 288.0591,-30.1394 295.002,-29.2472"/>
</g>
<!-- Node3 -->
<g id="node4" class="node">
<title>Node3</title>
<polygon fill="#ffffff" stroke="#bfbfbf" points="340.5,-112.5 340.5,-131.5 387.5,-131.5 387.5,-112.5 340.5,-112.5"/>
<text text-anchor="middle" x="364" y="-119.5" font-family="Helvetica,sans-Serif" font-size="10.00" fill="#000000">math.h</text>
</g>
<!-- Node0&#45;&gt;Node3 -->
<g id="edge3" class="edge">
<title>Node0&#45;&gt;Node3</title>
<path fill="none" stroke="#191970" d="M328.1681,-168.168C335.234,-159.0639 343.436,-148.4959 350.2084,-139.7699"/>
<polygon fill="#191970" stroke="#191970" points="353.0429,-141.8263 356.4092,-131.7805 347.5129,-137.5344 353.0429,-141.8263"/>
</g>
<!-- Node4 -->
<g id="node5" class="node">
<title>Node4</title>
<g id="a_node5"><a xlink:href="$df/d15/dct_8h.html" xlink:title="Header file containing the DCT definitions of data structures and functions available for the user...">
<polygon fill="#ffffff" stroke="#000000" points="198,-112.5 198,-131.5 236,-131.5 236,-112.5 198,-112.5"/>
<text text-anchor="middle" x="217" y="-119.5" font-family="Helvetica,sans-Serif" font-size="10.00" fill="#000000">dct.h</text>
</a>
</g>
</g>
<!-- Node0&#45;&gt;Node4 -->
<g id="edge4" class="edge">
<title>Node0&#45;&gt;Node4</title>
<path fill="none" stroke="#191970" d="M282.7217,-168.3511C268.6356,-158.4167 252.0296,-146.7051 239.0341,-137.5398"/>
<polygon fill="#191970" stroke="#191970" points="240.8787,-134.5579 230.6894,-131.6546 236.8443,-140.2784 240.8787,-134.5579"/>
</g>
<!-- Node10 -->
<g id="node11" class="node">
<title>Node10</title>
<g id="a_node11"><a xlink:href="$d4/dd3/dctsys_8h.html" xlink:title="Contains all the DCT definitions that are not available for a DCT user (private to DCT)...">
<polygon fill="#ffffff" stroke="#000000" points="405.5,-112.5 405.5,-131.5 458.5,-131.5 458.5,-112.5 405.5,-112.5"/>
<text text-anchor="middle" x="432" y="-119.5" font-family="Helvetica,sans-Serif" font-size="10.00" fill="#000000">dctsys.h</text>
</a>
</g>
</g>
<!-- Node0&#45;&gt;Node10 -->
<g id="edge14" class="edge">
<title>Node0&#45;&gt;Node10</title>
<path fill="none" stroke="#191970" d="M348.9831,-168.3511C367.2894,-158.1301 388.9649,-146.0279 405.5764,-136.7532"/>
<polygon fill="#191970" stroke="#191970" points="407.6831,-139.5856 414.7081,-131.6546 404.2706,-133.4737 407.6831,-139.5856"/>
</g>
<!-- Node4&#45;&gt;Node2 -->
<g id="edge6" class="edge">
<title>Node4&#45;&gt;Node2</title>
<path fill="none" stroke="#191970" d="M226.1075,-112.2536C234.2496,-103.258 246.2168,-89.3166 255,-76 264.9532,-60.9095 274.2055,-42.5443 280.5374,-29.0219"/>
<polygon fill="#191970" stroke="#191970" points="283.7972,-30.3094 284.7735,-19.7596 277.4314,-27.3979 283.7972,-30.3094"/>
</g>
<!-- Node5 -->
<g id="node6" class="node">
<title>Node5</title>
<polygon fill="#ffffff" stroke="#bfbfbf" points="132,-.5 132,-19.5 180,-19.5 180,-.5 132,-.5"/>
<text text-anchor="middle" x="156" y="-7.5" font-family="Helvetica,sans-Serif" font-size="10.00" fill="#000000">stdlib.h</text>
</g>
<!-- Node4&#45;&gt;Node5 -->
<g id="edge5" class="edge">
<title>Node4&#45;&gt;Node5</title>
<path fill="none" stroke="#191970" d="M207.1064,-112.1856C198.6739,-103.3637 186.726,-89.7192 179,-76 170.7312,-61.3169 164.6651,-43.1416 160.8454,-29.584"/>
<polygon fill="#191970" stroke="#191970" points="164.2118,-28.624 158.2644,-19.856 157.4459,-30.4191 164.2118,-28.624"/>
</g>
<!-- Node6 -->
<g id="node7" class="node">
<title>Node6</title>
<g id="a_node7"><a xlink:href="$de/d3c/macros_8h.html" xlink:title="the header file contains all the DCT utility macros. ">
<polygon fill="#ffffff" stroke="#000000" points="188,-56.5 188,-75.5 246,-75.5 246,-56.5 188,-56.5"/>
<text text-anchor="middle" x="217" y="-63.5" font-family="Helvetica,sans-Serif" font-size="10.00" fill="#000000">macros.h</text>
</a>
</g>
</g>
<!-- Node4&#45;&gt;Node6 -->
<g id="edge7" class="edge">
<title>Node4&#45;&gt;Node6</title>
<path fill="none" stroke="#191970" d="M217,-112.2455C217,-104.9382 217,-94.6944 217,-85.7046"/>
<polygon fill="#191970" stroke="#191970" points="220.5001,-85.6426 217,-75.6427 213.5001,-85.6427 220.5001,-85.6426"/>
</g>
<!-- Node8 -->
<g id="node9" class="node">
<title>Node8</title>
<g id="a_node9"><a xlink:href="$df/d42/dct__commdat_8h.html" xlink:title="Contains constants and data type definitions related with the communication library. ">
<polygon fill="#ffffff" stroke="#000000" points="46.5,-56.5 46.5,-75.5 131.5,-75.5 131.5,-56.5 46.5,-56.5"/>
<text text-anchor="middle" x="89" y="-63.5" font-family="Helvetica,sans-Serif" font-size="10.00" fill="#000000">dct_commdat.h</text>
</a>
</g>
</g>
<!-- Node4&#45;&gt;Node8 -->
<g id="edge12" class="edge">
<title>Node4&#45;&gt;Node8</title>
<path fill="none" stroke="#191970" d="M197.8371,-113.6162C177.3641,-104.6593 144.5895,-90.3204 120.3497,-79.7155"/>
<polygon fill="#191970" stroke="#191970" points="121.4355,-76.3703 110.871,-75.5686 118.6297,-82.7834 121.4355,-76.3703"/>
</g>
<!-- Node6&#45;&gt;Node1 -->
<g id="edge9" class="edge">
<title>Node6&#45;&gt;Node1</title>
<path fill="none" stroke="#191970" d="M187.9562,-57.6162C152.5939,-47.4086 93.0163,-30.2109 55.9664,-19.5161"/>
<polygon fill="#191970" stroke="#191970" points="56.7311,-16.094 46.1527,-16.6832 54.7897,-22.8194 56.7311,-16.094"/>
</g>
<!-- Node6&#45;&gt;Node2 -->
<g id="edge10" class="edge">
<title>Node6&#45;&gt;Node2</title>
<path fill="none" stroke="#191970" d="M229.5414,-56.2455C240.2787,-47.8943 255.9473,-35.7076 268.5047,-25.9408"/>
<polygon fill="#191970" stroke="#191970" points="270.8575,-28.5449 276.6023,-19.6427 266.5599,-23.0194 270.8575,-28.5449"/>
</g>
<!-- Node6&#45;&gt;Node5 -->
<g id="edge8" class="edge">
<title>Node6&#45;&gt;Node5</title>
<path fill="none" stroke="#191970" d="M206.3746,-56.2455C197.4527,-48.0549 184.512,-36.1749 173.9808,-26.5069"/>
<polygon fill="#191970" stroke="#191970" points="176.2371,-23.8271 166.5036,-19.6427 171.5032,-28.9837 176.2371,-23.8271"/>
</g>
<!-- Node7 -->
<g id="node8" class="node">
<title>Node7</title>
<polygon fill="#ffffff" stroke="#bfbfbf" points="198,-.5 198,-19.5 246,-19.5 246,-.5 198,-.5"/>
<text text-anchor="middle" x="222" y="-7.5" font-family="Helvetica,sans-Serif" font-size="10.00" fill="#000000">errno.h</text>
</g>
<!-- Node6&#45;&gt;Node7 -->
<g id="edge11" class="edge">
<title>Node6&#45;&gt;Node7</title>
<path fill="none" stroke="#191970" d="M217.8709,-56.2455C218.5234,-48.9382 219.438,-38.6944 220.2407,-29.7046"/>
<polygon fill="#191970" stroke="#191970" points="223.7358,-29.9143 221.139,-19.6427 216.7635,-29.2918 223.7358,-29.9143"/>
</g>
<!-- Node9 -->
<g id="node10" class="node">
<title>Node9</title>
<polygon fill="#ffffff" stroke="#bfbfbf" points="68.5,-.5 68.5,-19.5 109.5,-19.5 109.5,-.5 68.5,-.5"/>
<text text-anchor="middle" x="89" y="-7.5" font-family="Helvetica,sans-Serif" font-size="10.00" fill="#000000">mpi.h</text>
</g>
<!-- Node8&#45;&gt;Node9 -->
<g id="edge13" class="edge">
<title>Node8&#45;&gt;Node9</title>
<path fill="none" stroke="#191970" d="M89,-56.2455C89,-48.9382 89,-38.6944 89,-29.7046"/>
<polygon fill="#191970" stroke="#191970" points="92.5001,-29.6426 89,-19.6427 85.5001,-29.6427 92.5001,-29.6426"/>
</g>
</g>
</svg>
