<?xml version="1.0" encoding="UTF-8" standalone="no"?>
<!DOCTYPE svg PUBLIC "-//W3C//DTD SVG 1.1//EN"
 "http://www.w3.org/Graphics/SVG/1.1/DTD/svg11.dtd">
<!-- Generated by graphviz version 2.40.1 (20161225.0304)
 -->
<!-- Title: DCT_List_Clear Pages: 1 -->
<svg width="204pt" height="28pt"
 viewBox="0.00 0.00 204.00 28.00" xmlns="http://www.w3.org/2000/svg" xmlns:xlink="http://www.w3.org/1999/xlink">
<g id="graph0" class="graph" transform="scale(1 1) rotate(0) translate(4 24)">
<title>DCT_List_Clear</title>
<polygon fill="#ffffff" stroke="transparent" points="-4,4 -4,-24 200,-24 200,4 -4,4"/>
<!-- Node251 -->
<g id="node1" class="node">
<title>Node251</title>
<polygon fill="#bfbfbf" stroke="#000000" points="0,-.5 0,-19.5 70,-19.5 70,-.5 0,-.5"/>
<text text-anchor="middle" x="35" y="-7.5" font-family="Helvetica,sans-Serif" font-size="10.00" fill="#000000">DCT_List_Clear</text>
</g>
<!-- Node252 -->
<g id="node2" class="node">
<title>Node252</title>
<g id="a_node2"><a xlink:href="../../d4/df6/dct__coupler_8c.html#a57929b7c3c5882b88c7ace8b0d3d7e89" target="_top" xlink:title="DCT_Destroy_Couple">
<polygon fill="#ffffff" stroke="#000000" points="106,-.5 106,-19.5 196,-19.5 196,-.5 106,-.5"/>
<text text-anchor="middle" x="151" y="-7.5" font-family="Helvetica,sans-Serif" font-size="10.00" fill="#000000">DCT_Destroy_Couple</text>
</a>
</g>
</g>
<!-- Node251&#45;&gt;Node252 -->
<g id="edge1" class="edge">
<title>Node251&#45;&gt;Node252</title>
<path fill="none" stroke="#191970" d="M80.1229,-10C88.5203,-10 97.297,-10 105.6997,-10"/>
<polygon fill="#191970" stroke="#191970" points="80.1187,-6.5001 70.1186,-10 80.1186,-13.5001 80.1187,-6.5001"/>
</g>
</g>
</svg>
