<?xml version="1.0" encoding="UTF-8" standalone="no"?>
<!DOCTYPE svg PUBLIC "-//W3C//DTD SVG 1.1//EN"
 "http://www.w3.org/Graphics/SVG/1.1/DTD/svg11.dtd">
<!-- Generated by graphviz version 2.40.1 (20161225.0304)
 -->
<!-- Title: DCT_Data_Allocate Pages: 1 -->
<!--zoomable 167 -->
<svg id="main" version="1.1" xmlns="http://www.w3.org/2000/svg" xmlns:xlink="http://www.w3.org/1999/xlink" xml:space="preserve" onload="init(evt)">
<style type="text/css"><![CDATA[
.edge:hover path { stroke: red; }
.edge:hover polygon { stroke: red; fill: red; }
]]></style>
<script type="text/javascript"><![CDATA[
var edges = document.getElementsByTagName('g');
if (edges && edges.length) {
  for (var i=0;i<edges.length;i++) {
    if (edges[i].id.substr(0,4)=='edge') {
      edges[i].setAttribute('class','edge');
    }
  }
}
]]></script>
        <defs>
                <circle id="rim" cx="0" cy="0" r="7"/>
                <circle id="rim2" cx="0" cy="0" r="3.5"/>
                <g id="zoomPlus">
                        <use xlink:href="#rim" fill="#404040">
                                <set attributeName="fill" to="#808080" begin="zoomplus.mouseover" end="zoomplus.mouseout"/>
                        </use>
                        <path d="M-4,0h8M0,-4v8" fill="none" stroke="white" stroke-width="1.5" pointer-events="none"/>
                </g>
                <g id="zoomMin">
                        <use xlink:href="#rim" fill="#404040">
                                <set attributeName="fill" to="#808080" begin="zoomminus.mouseover" end="zoomminus.mouseout"/>
                        </use>
                        <path d="M-4,0h8" fill="none" stroke="white" stroke-width="1.5" pointer-events="none"/>
                </g>
                <g id="dirArrow">
                        <path fill="none" stroke="white" stroke-width="1.5" d="M0,-3.0v7 M-2.5,-0.5L0,-3.0L2.5,-0.5"/>
                </g>
               <g id="resetDef">
                       <use xlink:href="#rim2" fill="#404040">
                               <set attributeName="fill" to="#808080" begin="reset.mouseover" end="reset.mouseout"/>
                       </use>
               </g>
        </defs>

<script type="text/javascript">
var viewWidth = 629;
var viewHeight = 167;
var sectionId = 'dynsection-36';
</script>
<script xlink:href="../../svgpan.js"/>
<svg id="graph" class="graph">
<g id="viewport">
<title>DCT_Data_Allocate</title>
<polygon fill="#ffffff" stroke="transparent" points="-4,4 -4,-163.4151 625,-163.4151 625,4 -4,4"/>
<!-- Node154 -->
<g id="node1" class="node">
<title>Node154</title>
<polygon fill="#bfbfbf" stroke="#000000" points="0,-63.9151 0,-82.9151 83,-82.9151 83,-63.9151 0,-63.9151"/>
<text text-anchor="middle" x="41.5" y="-70.9151" font-family="Helvetica,sans-Serif" font-size="10.00" fill="#000000">DCT_Data_Allocate</text>
</g>
<!-- Node155 -->
<g id="node2" class="node">
<title>Node155</title>
<g id="a_node2"><a xlink:href="../../da/df2/dct__data__utils_8c.html#a2b0b2abde55ce9d8c5e813723596d91a" target="_top" xlink:title="DCT_Bilinear_Weight">
<polygon fill="#ffffff" stroke="#000000" points="128.5,-139.9151 128.5,-158.9151 217.5,-158.9151 217.5,-139.9151 128.5,-139.9151"/>
<text text-anchor="middle" x="173" y="-146.9151" font-family="Helvetica,sans-Serif" font-size="10.00" fill="#000000">DCT_Bilinear_Weight</text>
</a>
</g>
</g>
<!-- Node154&#45;&gt;Node155 -->
<g id="edge1" class="edge">
<title>Node154&#45;&gt;Node155</title>
<path fill="none" stroke="#191970" d="M62.4428,-88.9123C77.6933,-99.8339 99.081,-114.4141 119,-125.4151 128.6092,-130.7222 139.6194,-135.7857 149.1808,-139.882"/>
<polygon fill="#191970" stroke="#191970" points="64.3811,-85.9944 54.2303,-82.9592 60.2727,-91.6621 64.3811,-85.9944"/>
</g>
<!-- Node156 -->
<g id="node3" class="node">
<title>Node156</title>
<g id="a_node3"><a xlink:href="../../da/df2/dct__data__utils_8c.html#a62974f43597e565a070d28c33b84837e" target="_top" xlink:title="DCT_Calculate_Weight">
<polygon fill="#ffffff" stroke="#000000" points="263,-63.9151 263,-82.9151 358,-82.9151 358,-63.9151 263,-63.9151"/>
<text text-anchor="middle" x="310.5" y="-70.9151" font-family="Helvetica,sans-Serif" font-size="10.00" fill="#000000">DCT_Calculate_Weight</text>
</a>
</g>
</g>
<!-- Node154&#45;&gt;Node156 -->
<g id="edge9" class="edge">
<title>Node154&#45;&gt;Node156</title>
<path fill="none" stroke="#191970" d="M82.7385,-85.471C94.3614,-88.3354 107.0862,-90.976 119,-92.4151 166.6536,-98.1713 179.3,-97.7736 227,-92.4151 243.5471,-90.5563 261.5979,-86.6872 276.6694,-82.9227"/>
<polygon fill="#191970" stroke="#191970" points="83.4136,-82.0307 72.8563,-82.9209 81.6645,-88.8086 83.4136,-82.0307"/>
</g>
<!-- Node157 -->
<g id="node4" class="node">
<title>Node157</title>
<g id="a_node4"><a xlink:href="../../dc/d6c/dct__mpi__comm_8c.html#a8d32decd1b87fc67e847e8aa64b05f4e" target="_top" xlink:title="DCT_ConsumeVar_Comm">
<polygon fill="#ffffff" stroke="#000000" points="394,-25.9151 394,-44.9151 500,-44.9151 500,-25.9151 394,-25.9151"/>
<text text-anchor="middle" x="447" y="-32.9151" font-family="Helvetica,sans-Serif" font-size="10.00" fill="#000000">DCT_ConsumeVar_Comm</text>
</a>
</g>
</g>
<!-- Node154&#45;&gt;Node157 -->
<g id="edge10" class="edge">
<title>Node154&#45;&gt;Node157</title>
<path fill="none" stroke="#191970" d="M57.5721,-56.7218C72.1168,-42.9105 94.8981,-24.324 119,-16.4151 222.5155,17.5529 354.1496,-9.7422 414.3216,-25.7929"/>
<polygon fill="#191970" stroke="#191970" points="55.0497,-54.2936 50.383,-63.8053 59.9627,-59.2798 55.0497,-54.2936"/>
</g>
<!-- Node159 -->
<g id="node6" class="node">
<title>Node159</title>
<g id="a_node6"><a xlink:href="../../da/df2/dct__data__utils_8c.html#a2b2c1523518da2a77764c4de64bc7c6f" target="_top" xlink:title="DCT_Trilinear_Weight">
<polygon fill="#ffffff" stroke="#000000" points="127.5,-63.9151 127.5,-82.9151 218.5,-82.9151 218.5,-63.9151 127.5,-63.9151"/>
<text text-anchor="middle" x="173" y="-70.9151" font-family="Helvetica,sans-Serif" font-size="10.00" fill="#000000">DCT_Trilinear_Weight</text>
</a>
</g>
</g>
<!-- Node154&#45;&gt;Node159 -->
<g id="edge5" class="edge">
<title>Node154&#45;&gt;Node159</title>
<path fill="none" stroke="#191970" d="M93.1877,-73.4151C104.3818,-73.4151 116.1464,-73.4151 127.1,-73.4151"/>
<polygon fill="#191970" stroke="#191970" points="93.1075,-69.9152 83.1074,-73.4151 93.1074,-76.9152 93.1075,-69.9152"/>
</g>
<!-- Node160 -->
<g id="node7" class="node">
<title>Node160</title>
<g id="a_node7"><a xlink:href="../../da/df2/dct__data__utils_8c.html#a48eab8c20b93ee47365d90df0a49c73b" target="_top" xlink:title="DCT_CheckNoInterpolation">
<polygon fill="#ffffff" stroke="#000000" points="119,-25.9151 119,-44.9151 227,-44.9151 227,-25.9151 119,-25.9151"/>
<text text-anchor="middle" x="173" y="-32.9151" font-family="Helvetica,sans-Serif" font-size="10.00" fill="#000000">DCT_CheckNoInterpolation</text>
</a>
</g>
</g>
<!-- Node154&#45;&gt;Node160 -->
<g id="edge7" class="edge">
<title>Node154&#45;&gt;Node160</title>
<path fill="none" stroke="#191970" d="M84.3778,-61.0246C102.3862,-55.8206 123.0096,-49.861 139.8276,-45.0011"/>
<polygon fill="#191970" stroke="#191970" points="83.3183,-57.6875 74.683,-63.8261 85.2616,-64.4123 83.3183,-57.6875"/>
</g>
<!-- Node155&#45;&gt;Node156 -->
<g id="edge2" class="edge">
<title>Node155&#45;&gt;Node156</title>
<path fill="none" stroke="#191970" d="M205.831,-135.6974C212.9017,-132.5016 220.2703,-128.984 227,-125.4151 252.1961,-112.0533 280.0528,-93.9958 296.3766,-83.0551"/>
<polygon fill="#191970" stroke="#191970" points="204.1983,-132.5921 196.4617,-139.8305 207.0236,-138.9967 204.1983,-132.5921"/>
</g>
<!-- Node156&#45;&gt;Node157 -->
<g id="edge3" class="edge">
<title>Node156&#45;&gt;Node157</title>
<path fill="none" stroke="#191970" d="M354.7487,-61.0968C373.503,-55.8759 395.028,-49.8835 412.5663,-45.0011"/>
<polygon fill="#191970" stroke="#191970" points="353.6397,-57.7724 344.9447,-63.8261 355.5171,-64.5159 353.6397,-57.7724"/>
</g>
<!-- Node158 -->
<g id="node5" class="node">
<title>Node158</title>
<g id="a_node5"><a xlink:href="../../d8/d17/dct__broker_8c.html#aa8e0aa98031488e106f16272b3b4fcdd" target="_top" xlink:title="DCT_VarComm_Set">
<polygon fill="#ffffff" stroke="#000000" points="536,-25.9151 536,-44.9151 621,-44.9151 621,-25.9151 536,-25.9151"/>
<text text-anchor="middle" x="578.5" y="-32.9151" font-family="Helvetica,sans-Serif" font-size="10.00" fill="#000000">DCT_VarComm_Set</text>
</a>
</g>
</g>
<!-- Node157&#45;&gt;Node158 -->
<g id="edge4" class="edge">
<title>Node157&#45;&gt;Node158</title>
<path fill="none" stroke="#191970" d="M510.1898,-35.4151C518.8324,-35.4151 527.5341,-35.4151 535.6964,-35.4151"/>
<polygon fill="#191970" stroke="#191970" points="510.1071,-31.9152 500.107,-35.4151 510.107,-38.9152 510.1071,-31.9152"/>
</g>
<!-- Node159&#45;&gt;Node156 -->
<g id="edge6" class="edge">
<title>Node159&#45;&gt;Node156</title>
<path fill="none" stroke="#191970" d="M228.8761,-73.4151C240.0462,-73.4151 251.6865,-73.4151 262.56,-73.4151"/>
<polygon fill="#191970" stroke="#191970" points="228.7855,-69.9152 218.7855,-73.4151 228.7855,-76.9152 228.7855,-69.9152"/>
</g>
<!-- Node160&#45;&gt;Node156 -->
<g id="edge8" class="edge">
<title>Node160&#45;&gt;Node156</title>
<path fill="none" stroke="#191970" d="M217.5729,-47.7335C236.4645,-52.9544 258.1472,-58.9467 275.814,-63.8292"/>
<polygon fill="#191970" stroke="#191970" points="218.2681,-44.2945 207.6971,-45.0041 216.4034,-51.0415 218.2681,-44.2945"/>
</g>
</g>
</svg>
        <g id="navigator" transform="translate(0 0)" fill="#404254">
                <rect fill="#f2f5e9" fill-opacity="0.5" stroke="#606060" stroke-width=".5" x="0" y="0" width="60" height="60"/>
                <use id="zoomplus" xlink:href="#zoomPlus" x="17" y="9" onmousedown="handleZoom(evt,'in')"/>
                <use id="zoomminus" xlink:href="#zoomMin" x="42" y="9" onmousedown="handleZoom(evt,'out')"/>
                <use id="reset" xlink:href="#resetDef" x="30" y="36" onmousedown="handleReset()"/>
                <g id="arrowUp" xlink:href="#dirArrow" transform="translate(30 24)" onmousedown="handlePan(0,-1)">
                  <use xlink:href="#rim" fill="#404040">
                        <set attributeName="fill" to="#808080" begin="arrowUp.mouseover" end="arrowUp.mouseout"/>
                  </use>
                  <path fill="none" stroke="white" stroke-width="1.5" d="M0,-3.0v7 M-2.5,-0.5L0,-3.0L2.5,-0.5"/>
                </g>
                <g id="arrowRight" xlink:href="#dirArrow" transform="rotate(90) translate(36 -43)" onmousedown="handlePan(1,0)">
                  <use xlink:href="#rim" fill="#404040">
                        <set attributeName="fill" to="#808080" begin="arrowRight.mouseover" end="arrowRight.mouseout"/>
                  </use>
                  <path fill="none" stroke="white" stroke-width="1.5" d="M0,-3.0v7 M-2.5,-0.5L0,-3.0L2.5,-0.5"/>
                </g>
                <g id="arrowDown" xlink:href="#dirArrow" transform="rotate(180) translate(-30 -48)" onmousedown="handlePan(0,1)">
                  <use xlink:href="#rim" fill="#404040">
                        <set attributeName="fill" to="#808080" begin="arrowDown.mouseover" end="arrowDown.mouseout"/>
                  </use>
                  <path fill="none" stroke="white" stroke-width="1.5" d="M0,-3.0v7 M-2.5,-0.5L0,-3.0L2.5,-0.5"/>
                </g>
                <g id="arrowLeft" xlink:href="#dirArrow" transform="rotate(270) translate(-36 17)" onmousedown="handlePan(-1,0)">
                  <use xlink:href="#rim" fill="#404040">
                        <set attributeName="fill" to="#808080" begin="arrowLeft.mouseover" end="arrowLeft.mouseout"/>
                  </use>
                  <path fill="none" stroke="white" stroke-width="1.5" d="M0,-3.0v7 M-2.5,-0.5L0,-3.0L2.5,-0.5"/>
                </g>
        </g>
        <svg viewBox="0 0 15 15" width="100%" height="30px" preserveAspectRatio="xMaxYMin meet">
         <g id="arrow_out" transform="scale(0.3 0.3)">
          <a xlink:href="dctsys_8h_ade4c33b70f7e6f306cac573a786f2922_icgraph_org.svg" target="_base">
           <rect id="button" ry="5" rx="5" y="6" x="6" height="38" width="38"
                fill="#f2f5e9" fill-opacity="0.5" stroke="#606060" stroke-width="1.0"/>
           <path id="arrow"
             d="M 11.500037,31.436501 C 11.940474,20.09759 22.043105,11.32322 32.158766,21.979434 L 37.068811,17.246167 C 37.068811,17.246167 37.088388,32 37.088388,32 L 22.160133,31.978069 C 22.160133,31.978069 26.997745,27.140456 26.997745,27.140456 C 18.528582,18.264221 13.291696,25.230495 11.500037,31.436501 z"
             style="fill:#404040;"/>
          </a>
         </g>
        </svg>
</svg>
