<?xml version="1.0" encoding="UTF-8" standalone="no"?>
<!DOCTYPE svg PUBLIC "-//W3C//DTD SVG 1.1//EN"
 "http://www.w3.org/Graphics/SVG/1.1/DTD/svg11.dtd">
<!-- Generated by graphviz version 2.40.1 (20161225.0304)
 -->
<!-- Title: DCT_BuildMsgTag Pages: 1 -->
<svg width="187pt" height="28pt"
 viewBox="0.00 0.00 187.00 28.00" xmlns="http://www.w3.org/2000/svg" xmlns:xlink="http://www.w3.org/1999/xlink">
<g id="graph0" class="graph" transform="scale(1 1) rotate(0) translate(4 24)">
<title>DCT_BuildMsgTag</title>
<polygon fill="#ffffff" stroke="transparent" points="-4,4 -4,-24 183,-24 183,4 -4,4"/>
<!-- Node128 -->
<g id="node1" class="node">
<title>Node128</title>
<polygon fill="#bfbfbf" stroke="#000000" points="0,-.5 0,-19.5 80,-19.5 80,-.5 0,-.5"/>
<text text-anchor="middle" x="40" y="-7.5" font-family="Helvetica,sans-Serif" font-size="10.00" fill="#000000">DCT_BuildMsgTag</text>
</g>
<!-- Node129 -->
<g id="node2" class="node">
<title>Node129</title>
<g id="a_node2"><a xlink:href="../../da/df2/dct__data__utils_8c.html#aa6b5ecdf3c19bc8a08e74a407dfda835" target="_top" xlink:title="DCT_List_Ext">
<polygon fill="#ffffff" stroke="#000000" points="116,-.5 116,-19.5 179,-19.5 179,-.5 116,-.5"/>
<text text-anchor="middle" x="147.5" y="-7.5" font-family="Helvetica,sans-Serif" font-size="10.00" fill="#000000">DCT_List_Ext</text>
</a>
</g>
</g>
<!-- Node128&#45;&gt;Node129 -->
<g id="edge1" class="edge">
<title>Node128&#45;&gt;Node129</title>
<path fill="none" stroke="#191970" d="M80.029,-10C88.432,-10 97.3145,-10 105.7776,-10"/>
<polygon fill="#191970" stroke="#191970" points="105.8325,-13.5001 115.8324,-10 105.8324,-6.5001 105.8325,-13.5001"/>
</g>
</g>
</svg>
