<?xml version="1.0" encoding="UTF-8" standalone="no"?>
<!DOCTYPE svg PUBLIC "-//W3C//DTD SVG 1.1//EN"
 "http://www.w3.org/Graphics/SVG/1.1/DTD/svg11.dtd">
<!-- Generated by graphviz version 2.40.1 (20161225.0304)
 -->
<!-- Title: DCT_Return_SDBoundaryVals Pages: 1 -->
<svg width="399pt" height="66pt"
 viewBox="0.00 0.00 399.00 66.00" xmlns="http://www.w3.org/2000/svg" xmlns:xlink="http://www.w3.org/1999/xlink">
<g id="graph0" class="graph" transform="scale(1 1) rotate(0) translate(4 62)">
<title>DCT_Return_SDBoundaryVals</title>
<polygon fill="#ffffff" stroke="transparent" points="-4,4 -4,-62 395,-62 395,4 -4,4"/>
<!-- Node70 -->
<g id="node1" class="node">
<title>Node70</title>
<polygon fill="#bfbfbf" stroke="#000000" points="0,-19.5 0,-38.5 120,-38.5 120,-19.5 0,-19.5"/>
<text text-anchor="middle" x="60" y="-26.5" font-family="Helvetica,sans-Serif" font-size="10.00" fill="#000000">DCT_Return_SDBoundaryVals</text>
</g>
<!-- Node71 -->
<g id="node2" class="node">
<title>Node71</title>
<g id="a_node2"><a xlink:href="../../d8/d17/dct__broker_8c.html#adbf4b4b0d5ea6eaf8da49f85a748ea1e" target="_top" xlink:title="DCT_BrokerArrange">
<polygon fill="#ffffff" stroke="#000000" points="156,-38.5 156,-57.5 241,-57.5 241,-38.5 156,-38.5"/>
<text text-anchor="middle" x="198.5" y="-45.5" font-family="Helvetica,sans-Serif" font-size="10.00" fill="#000000">DCT_BrokerArrange</text>
</a>
</g>
</g>
<!-- Node70&#45;&gt;Node71 -->
<g id="edge1" class="edge">
<title>Node70&#45;&gt;Node71</title>
<path fill="none" stroke="#191970" d="M130.4853,-38.6695C139.1406,-39.8568 147.7702,-41.0407 155.833,-42.1468"/>
<polygon fill="#191970" stroke="#191970" points="130.7281,-35.1701 120.3452,-37.2784 129.7767,-42.1051 130.7281,-35.1701"/>
</g>
<!-- Node72 -->
<g id="node3" class="node">
<title>Node72</title>
<g id="a_node3"><a xlink:href="../../d8/d17/dct__broker_8c.html#abc90a33dd91cef71984221752e65d4c5" target="_top" xlink:title="DCT_Arrange_SD">
<polygon fill="#ffffff" stroke="#000000" points="160,-.5 160,-19.5 237,-19.5 237,-.5 160,-.5"/>
<text text-anchor="middle" x="198.5" y="-7.5" font-family="Helvetica,sans-Serif" font-size="10.00" fill="#000000">DCT_Arrange_SD</text>
</a>
</g>
</g>
<!-- Node70&#45;&gt;Node72 -->
<g id="edge2" class="edge">
<title>Node70&#45;&gt;Node72</title>
<path fill="none" stroke="#191970" d="M130.4577,-19.3343C140.5909,-17.9442 150.6896,-16.5588 159.8855,-15.2973"/>
<polygon fill="#191970" stroke="#191970" points="129.7767,-15.8949 120.3452,-20.7216 130.7281,-22.8299 129.7767,-15.8949"/>
</g>
<!-- Node73 -->
<g id="node4" class="node">
<title>Node73</title>
<g id="a_node4"><a xlink:href="../../d8/d17/dct__broker_8c.html#a4cb3cbef9b24f5897238441888219e33" target="_top" xlink:title="DCT_Local_SubDom_Comm">
<polygon fill="#ffffff" stroke="#000000" points="277,-.5 277,-19.5 391,-19.5 391,-.5 277,-.5"/>
<text text-anchor="middle" x="334" y="-7.5" font-family="Helvetica,sans-Serif" font-size="10.00" fill="#000000">DCT_Local_SubDom_Comm</text>
</a>
</g>
</g>
<!-- Node72&#45;&gt;Node73 -->
<g id="edge3" class="edge">
<title>Node72&#45;&gt;Node73</title>
<path fill="none" stroke="#191970" d="M247.4692,-10C257.0481,-10 267.1709,-10 276.9853,-10"/>
<polygon fill="#191970" stroke="#191970" points="247.3289,-6.5001 237.3289,-10 247.3288,-13.5001 247.3289,-6.5001"/>
</g>
</g>
</svg>
