<?xml version="1.0" encoding="UTF-8" standalone="no"?>
<!DOCTYPE svg PUBLIC "-//W3C//DTD SVG 1.1//EN"
 "http://www.w3.org/Graphics/SVG/1.1/DTD/svg11.dtd">
<!-- Generated by graphviz version 2.40.1 (20161225.0304)
 -->
<!-- Title: DCT_List_ExtVar Pages: 1 -->
<svg width="206pt" height="28pt"
 viewBox="0.00 0.00 206.00 28.00" xmlns="http://www.w3.org/2000/svg" xmlns:xlink="http://www.w3.org/1999/xlink">
<g id="graph0" class="graph" transform="scale(1 1) rotate(0) translate(4 24)">
<title>DCT_List_ExtVar</title>
<polygon fill="#ffffff" stroke="transparent" points="-4,4 -4,-24 202,-24 202,4 -4,4"/>
<!-- Node229 -->
<g id="node1" class="node">
<title>Node229</title>
<polygon fill="#bfbfbf" stroke="#000000" points="0,-.5 0,-19.5 74,-19.5 74,-.5 0,-.5"/>
<text text-anchor="middle" x="37" y="-7.5" font-family="Helvetica,sans-Serif" font-size="10.00" fill="#000000">DCT_List_ExtVar</text>
</g>
<!-- Node230 -->
<g id="node2" class="node">
<title>Node230</title>
<g id="a_node2"><a xlink:href="../../d8/d17/dct__broker_8c.html#afc5ae64abb302624b46f60241a006c80" target="_top" xlink:title="DCT_Broker_RegVar">
<polygon fill="#ffffff" stroke="#000000" points="110,-.5 110,-19.5 198,-19.5 198,-.5 110,-.5"/>
<text text-anchor="middle" x="154" y="-7.5" font-family="Helvetica,sans-Serif" font-size="10.00" fill="#000000">DCT_Broker_RegVar</text>
</a>
</g>
</g>
<!-- Node229&#45;&gt;Node230 -->
<g id="edge1" class="edge">
<title>Node229&#45;&gt;Node230</title>
<path fill="none" stroke="#191970" d="M84.1544,-10C92.6392,-10 101.4551,-10 109.8507,-10"/>
<polygon fill="#191970" stroke="#191970" points="84.0196,-6.5001 74.0195,-10 84.0195,-13.5001 84.0196,-6.5001"/>
</g>
</g>
</svg>
