<?xml version="1.0" encoding="UTF-8" standalone="no"?>
<!DOCTYPE svg PUBLIC "-//W3C//DTD SVG 1.1//EN"
 "http://www.w3.org/Graphics/SVG/1.1/DTD/svg11.dtd">
<!-- Generated by graphviz version 2.40.1 (20161225.0304)
 -->
<!-- Title: DCT_IncludedIndex_Rectil Pages: 1 -->
<!--zoomable 173 -->
<svg id="main" version="1.1" xmlns="http://www.w3.org/2000/svg" xmlns:xlink="http://www.w3.org/1999/xlink" xml:space="preserve" onload="init(evt)">
<style type="text/css"><![CDATA[
.edge:hover path { stroke: red; }
.edge:hover polygon { stroke: red; fill: red; }
]]></style>
<script type="text/javascript"><![CDATA[
var edges = document.getElementsByTagName('g');
if (edges && edges.length) {
  for (var i=0;i<edges.length;i++) {
    if (edges[i].id.substr(0,4)=='edge') {
      edges[i].setAttribute('class','edge');
    }
  }
}
]]></script>
        <defs>
                <circle id="rim" cx="0" cy="0" r="7"/>
                <circle id="rim2" cx="0" cy="0" r="3.5"/>
                <g id="zoomPlus">
                        <use xlink:href="#rim" fill="#404040">
                                <set attributeName="fill" to="#808080" begin="zoomplus.mouseover" end="zoomplus.mouseout"/>
                        </use>
                        <path d="M-4,0h8M0,-4v8" fill="none" stroke="white" stroke-width="1.5" pointer-events="none"/>
                </g>
                <g id="zoomMin">
                        <use xlink:href="#rim" fill="#404040">
                                <set attributeName="fill" to="#808080" begin="zoomminus.mouseover" end="zoomminus.mouseout"/>
                        </use>
                        <path d="M-4,0h8" fill="none" stroke="white" stroke-width="1.5" pointer-events="none"/>
                </g>
                <g id="dirArrow">
                        <path fill="none" stroke="white" stroke-width="1.5" d="M0,-3.0v7 M-2.5,-0.5L0,-3.0L2.5,-0.5"/>
                </g>
               <g id="resetDef">
                       <use xlink:href="#rim2" fill="#404040">
                               <set attributeName="fill" to="#808080" begin="reset.mouseover" end="reset.mouseout"/>
                       </use>
               </g>
        </defs>

<script type="text/javascript">
var viewWidth = 652;
var viewHeight = 173;
var sectionId = 'dynsection-20';
</script>
<script xlink:href="../../svgpan.js"/>
<svg id="graph" class="graph">
<g id="viewport">
<title>DCT_IncludedIndex_Rectil</title>
<polygon fill="#ffffff" stroke="transparent" points="-4,4 -4,-169.0372 648,-169.0372 648,4 -4,4"/>
<!-- Node87 -->
<g id="node1" class="node">
<title>Node87</title>
<polygon fill="#bfbfbf" stroke="#000000" points="0,-58.0372 0,-77.0372 106,-77.0372 106,-58.0372 0,-58.0372"/>
<text text-anchor="middle" x="53" y="-65.0372" font-family="Helvetica,sans-Serif" font-size="10.00" fill="#000000">DCT_IncludedIndex_Rectil</text>
</g>
<!-- Node88 -->
<g id="node2" class="node">
<title>Node88</title>
<g id="a_node2"><a xlink:href="../../da/df2/dct__data__utils_8c.html#abffb29683692372a756b8ee1e35fc836" target="_top" xlink:title="DCT_IncludedValues\l_Rectil">
<polygon fill="#ffffff" stroke="#000000" points="152.5,-134.5372 152.5,-164.5372 239.5,-164.5372 239.5,-134.5372 152.5,-134.5372"/>
<text text-anchor="start" x="160.5" y="-152.5372" font-family="Helvetica,sans-Serif" font-size="10.00" fill="#000000">DCT_IncludedValues</text>
<text text-anchor="middle" x="196" y="-141.5372" font-family="Helvetica,sans-Serif" font-size="10.00" fill="#000000">_Rectil</text>
</a>
</g>
</g>
<!-- Node87&#45;&gt;Node88 -->
<g id="edge1" class="edge">
<title>Node87&#45;&gt;Node88</title>
<path fill="none" stroke="#191970" d="M75.3042,-83.0248C93.0009,-95.0156 118.5727,-111.6899 142,-124.5372 148.2502,-127.9648 155.0541,-131.3608 161.6592,-134.4934"/>
<polygon fill="#191970" stroke="#191970" points="77.0517,-79.9798 66.8209,-77.2264 73.1016,-85.7589 77.0517,-79.9798"/>
</g>
<!-- Node92 -->
<g id="node6" class="node">
<title>Node92</title>
<g id="a_node6"><a xlink:href="../../da/df2/dct__data__utils_8c.html#a2b0b2abde55ce9d8c5e813723596d91a" target="_top" xlink:title="DCT_Bilinear_Weight">
<polygon fill="#ffffff" stroke="#000000" points="151.5,-96.0372 151.5,-115.0372 240.5,-115.0372 240.5,-96.0372 151.5,-96.0372"/>
<text text-anchor="middle" x="196" y="-103.0372" font-family="Helvetica,sans-Serif" font-size="10.00" fill="#000000">DCT_Bilinear_Weight</text>
</a>
</g>
</g>
<!-- Node87&#45;&gt;Node92 -->
<g id="edge5" class="edge">
<title>Node87&#45;&gt;Node92</title>
<path fill="none" stroke="#191970" d="M98.8133,-79.7114C118.5871,-84.9659 141.3838,-91.0238 159.9266,-95.9513"/>
<polygon fill="#191970" stroke="#191970" points="99.6484,-76.3119 89.0849,-77.1262 97.8506,-83.0771 99.6484,-76.3119"/>
</g>
<!-- Node94 -->
<g id="node8" class="node">
<title>Node94</title>
<g id="a_node8"><a xlink:href="../../dc/d6c/dct__mpi__comm_8c.html#a8d32decd1b87fc67e847e8aa64b05f4e" target="_top" xlink:title="DCT_ConsumeVar_Comm">
<polygon fill="#ffffff" stroke="#000000" points="417,-58.0372 417,-77.0372 523,-77.0372 523,-58.0372 417,-58.0372"/>
<text text-anchor="middle" x="470" y="-65.0372" font-family="Helvetica,sans-Serif" font-size="10.00" fill="#000000">DCT_ConsumeVar_Comm</text>
</a>
</g>
</g>
<!-- Node87&#45;&gt;Node94 -->
<g id="edge13" class="edge">
<title>Node87&#45;&gt;Node94</title>
<path fill="none" stroke="#191970" d="M71.4507,-51.1878C88.432,-37.3139 115.008,-18.4398 142,-10.5372 256.267,22.9174 399.0228,-34.3777 450.4278,-58.0348"/>
<polygon fill="#191970" stroke="#191970" points="68.8789,-48.7784 63.4938,-57.9027 73.3935,-54.1281 68.8789,-48.7784"/>
</g>
<!-- Node95 -->
<g id="node9" class="node">
<title>Node95</title>
<g id="a_node9"><a xlink:href="../../da/df2/dct__data__utils_8c.html#a2b2c1523518da2a77764c4de64bc7c6f" target="_top" xlink:title="DCT_Trilinear_Weight">
<polygon fill="#ffffff" stroke="#000000" points="150.5,-58.0372 150.5,-77.0372 241.5,-77.0372 241.5,-58.0372 150.5,-58.0372"/>
<text text-anchor="middle" x="196" y="-65.0372" font-family="Helvetica,sans-Serif" font-size="10.00" fill="#000000">DCT_Trilinear_Weight</text>
</a>
</g>
</g>
<!-- Node87&#45;&gt;Node95 -->
<g id="edge9" class="edge">
<title>Node87&#45;&gt;Node95</title>
<path fill="none" stroke="#191970" d="M116.5521,-67.5372C127.8911,-67.5372 139.5001,-67.5372 150.2192,-67.5372"/>
<polygon fill="#191970" stroke="#191970" points="116.248,-64.0373 106.2479,-67.5372 116.2479,-71.0373 116.248,-64.0373"/>
</g>
<!-- Node96 -->
<g id="node10" class="node">
<title>Node96</title>
<g id="a_node10"><a xlink:href="../../da/df2/dct__data__utils_8c.html#a48eab8c20b93ee47365d90df0a49c73b" target="_top" xlink:title="DCT_CheckNoInterpolation">
<polygon fill="#ffffff" stroke="#000000" points="142,-20.0372 142,-39.0372 250,-39.0372 250,-20.0372 142,-20.0372"/>
<text text-anchor="middle" x="196" y="-27.0372" font-family="Helvetica,sans-Serif" font-size="10.00" fill="#000000">DCT_CheckNoInterpolation</text>
</a>
</g>
</g>
<!-- Node87&#45;&gt;Node96 -->
<g id="edge11" class="edge">
<title>Node87&#45;&gt;Node96</title>
<path fill="none" stroke="#191970" d="M98.8133,-55.363C118.5871,-50.1085 141.3838,-44.0506 159.9266,-39.1231"/>
<polygon fill="#191970" stroke="#191970" points="97.8506,-51.9973 89.0849,-57.9482 99.6484,-58.7625 97.8506,-51.9973"/>
</g>
<!-- Node89 -->
<g id="node3" class="node">
<title>Node89</title>
<g id="a_node3"><a xlink:href="../../da/df2/dct__data__utils_8c.html#ac3b88e7c4351969ea5b61550ed6aa124" target="_top" xlink:title="DCT_IncludedValues">
<polygon fill="#ffffff" stroke="#000000" points="290,-129.0372 290,-148.0372 377,-148.0372 377,-129.0372 290,-129.0372"/>
<text text-anchor="middle" x="333.5" y="-136.0372" font-family="Helvetica,sans-Serif" font-size="10.00" fill="#000000">DCT_IncludedValues</text>
</a>
</g>
</g>
<!-- Node88&#45;&gt;Node89 -->
<g id="edge2" class="edge">
<title>Node88&#45;&gt;Node89</title>
<path fill="none" stroke="#191970" d="M249.5148,-145.256C262.8554,-144.1888 277.0018,-143.057 289.8052,-142.0328"/>
<polygon fill="#191970" stroke="#191970" points="249.1949,-141.7703 239.5059,-146.0567 249.7532,-148.748 249.1949,-141.7703"/>
</g>
<!-- Node90 -->
<g id="node4" class="node">
<title>Node90</title>
<g id="a_node4"><a xlink:href="../../dc/d6c/dct__mpi__comm_8c.html#ad555828d99a5145741097703f9831f87" target="_top" xlink:title="DCT_ProduceVar_Comm">
<polygon fill="#ffffff" stroke="#000000" points="419,-107.0372 419,-126.0372 521,-126.0372 521,-107.0372 419,-107.0372"/>
<text text-anchor="middle" x="470" y="-114.0372" font-family="Helvetica,sans-Serif" font-size="10.00" fill="#000000">DCT_ProduceVar_Comm</text>
</a>
</g>
</g>
<!-- Node89&#45;&gt;Node90 -->
<g id="edge3" class="edge">
<title>Node89&#45;&gt;Node90</title>
<path fill="none" stroke="#191970" d="M387.2444,-129.8751C397.6181,-128.2031 408.4606,-126.4556 418.7522,-124.7969"/>
<polygon fill="#191970" stroke="#191970" points="386.3804,-126.4691 377.0648,-131.5158 387.4943,-133.3799 386.3804,-126.4691"/>
</g>
<!-- Node91 -->
<g id="node5" class="node">
<title>Node91</title>
<g id="a_node5"><a xlink:href="../../d8/d17/dct__broker_8c.html#aa8e0aa98031488e106f16272b3b4fcdd" target="_top" xlink:title="DCT_VarComm_Set">
<polygon fill="#ffffff" stroke="#000000" points="559,-77.0372 559,-96.0372 644,-96.0372 644,-77.0372 559,-77.0372"/>
<text text-anchor="middle" x="601.5" y="-84.0372" font-family="Helvetica,sans-Serif" font-size="10.00" fill="#000000">DCT_VarComm_Set</text>
</a>
</g>
</g>
<!-- Node90&#45;&gt;Node91 -->
<g id="edge4" class="edge">
<title>Node90&#45;&gt;Node91</title>
<path fill="none" stroke="#191970" d="M521.8015,-104.7194C534.2958,-101.8689 547.4946,-98.8578 559.4787,-96.1238"/>
<polygon fill="#191970" stroke="#191970" points="520.94,-101.3259 511.969,-106.9625 522.497,-108.1506 520.94,-101.3259"/>
</g>
<!-- Node93 -->
<g id="node7" class="node">
<title>Node93</title>
<g id="a_node7"><a xlink:href="../../da/df2/dct__data__utils_8c.html#a62974f43597e565a070d28c33b84837e" target="_top" xlink:title="DCT_Calculate_Weight">
<polygon fill="#ffffff" stroke="#000000" points="286,-58.0372 286,-77.0372 381,-77.0372 381,-58.0372 286,-58.0372"/>
<text text-anchor="middle" x="333.5" y="-65.0372" font-family="Helvetica,sans-Serif" font-size="10.00" fill="#000000">DCT_Calculate_Weight</text>
</a>
</g>
</g>
<!-- Node92&#45;&gt;Node93 -->
<g id="edge6" class="edge">
<title>Node92&#45;&gt;Node93</title>
<path fill="none" stroke="#191970" d="M240.5729,-93.2189C259.4645,-87.9979 281.1472,-82.0056 298.814,-77.1231"/>
<polygon fill="#191970" stroke="#191970" points="239.4034,-89.9108 230.6971,-95.9482 241.2681,-96.6579 239.4034,-89.9108"/>
</g>
<!-- Node93&#45;&gt;Node94 -->
<g id="edge7" class="edge">
<title>Node93&#45;&gt;Node94</title>
<path fill="none" stroke="#191970" d="M391.4213,-67.5372C399.885,-67.5372 408.5657,-67.5372 416.9263,-67.5372"/>
<polygon fill="#191970" stroke="#191970" points="391.2411,-64.0373 381.2411,-67.5372 391.241,-71.0373 391.2411,-64.0373"/>
</g>
<!-- Node94&#45;&gt;Node91 -->
<g id="edge8" class="edge">
<title>Node94&#45;&gt;Node91</title>
<path fill="none" stroke="#191970" d="M533.1898,-76.6673C541.8324,-77.916 550.5341,-79.1733 558.6964,-80.3526"/>
<polygon fill="#191970" stroke="#191970" points="533.5048,-73.1765 523.107,-75.2105 532.5037,-80.1046 533.5048,-73.1765"/>
</g>
<!-- Node95&#45;&gt;Node93 -->
<g id="edge10" class="edge">
<title>Node95&#45;&gt;Node93</title>
<path fill="none" stroke="#191970" d="M251.8761,-67.5372C263.0462,-67.5372 274.6865,-67.5372 285.56,-67.5372"/>
<polygon fill="#191970" stroke="#191970" points="251.7855,-64.0373 241.7855,-67.5372 251.7855,-71.0373 251.7855,-64.0373"/>
</g>
<!-- Node96&#45;&gt;Node93 -->
<g id="edge12" class="edge">
<title>Node96&#45;&gt;Node93</title>
<path fill="none" stroke="#191970" d="M240.5729,-41.8555C259.4645,-47.0765 281.1472,-53.0688 298.814,-57.9513"/>
<polygon fill="#191970" stroke="#191970" points="241.2681,-38.4165 230.6971,-39.1262 239.4034,-45.1636 241.2681,-38.4165"/>
</g>
</g>
</svg>
        <g id="navigator" transform="translate(0 0)" fill="#404254">
                <rect fill="#f2f5e9" fill-opacity="0.5" stroke="#606060" stroke-width=".5" x="0" y="0" width="60" height="60"/>
                <use id="zoomplus" xlink:href="#zoomPlus" x="17" y="9" onmousedown="handleZoom(evt,'in')"/>
                <use id="zoomminus" xlink:href="#zoomMin" x="42" y="9" onmousedown="handleZoom(evt,'out')"/>
                <use id="reset" xlink:href="#resetDef" x="30" y="36" onmousedown="handleReset()"/>
                <g id="arrowUp" xlink:href="#dirArrow" transform="translate(30 24)" onmousedown="handlePan(0,-1)">
                  <use xlink:href="#rim" fill="#404040">
                        <set attributeName="fill" to="#808080" begin="arrowUp.mouseover" end="arrowUp.mouseout"/>
                  </use>
                  <path fill="none" stroke="white" stroke-width="1.5" d="M0,-3.0v7 M-2.5,-0.5L0,-3.0L2.5,-0.5"/>
                </g>
                <g id="arrowRight" xlink:href="#dirArrow" transform="rotate(90) translate(36 -43)" onmousedown="handlePan(1,0)">
                  <use xlink:href="#rim" fill="#404040">
                        <set attributeName="fill" to="#808080" begin="arrowRight.mouseover" end="arrowRight.mouseout"/>
                  </use>
                  <path fill="none" stroke="white" stroke-width="1.5" d="M0,-3.0v7 M-2.5,-0.5L0,-3.0L2.5,-0.5"/>
                </g>
                <g id="arrowDown" xlink:href="#dirArrow" transform="rotate(180) translate(-30 -48)" onmousedown="handlePan(0,1)">
                  <use xlink:href="#rim" fill="#404040">
                        <set attributeName="fill" to="#808080" begin="arrowDown.mouseover" end="arrowDown.mouseout"/>
                  </use>
                  <path fill="none" stroke="white" stroke-width="1.5" d="M0,-3.0v7 M-2.5,-0.5L0,-3.0L2.5,-0.5"/>
                </g>
                <g id="arrowLeft" xlink:href="#dirArrow" transform="rotate(270) translate(-36 17)" onmousedown="handlePan(-1,0)">
                  <use xlink:href="#rim" fill="#404040">
                        <set attributeName="fill" to="#808080" begin="arrowLeft.mouseover" end="arrowLeft.mouseout"/>
                  </use>
                  <path fill="none" stroke="white" stroke-width="1.5" d="M0,-3.0v7 M-2.5,-0.5L0,-3.0L2.5,-0.5"/>
                </g>
        </g>
        <svg viewBox="0 0 15 15" width="100%" height="30px" preserveAspectRatio="xMaxYMin meet">
         <g id="arrow_out" transform="scale(0.3 0.3)">
          <a xlink:href="dctsys_8h_a1c361867693305dc5e224d4cf90881ad_icgraph_org.svg" target="_base">
           <rect id="button" ry="5" rx="5" y="6" x="6" height="38" width="38"
                fill="#f2f5e9" fill-opacity="0.5" stroke="#606060" stroke-width="1.0"/>
           <path id="arrow"
             d="M 11.500037,31.436501 C 11.940474,20.09759 22.043105,11.32322 32.158766,21.979434 L 37.068811,17.246167 C 37.068811,17.246167 37.088388,32 37.088388,32 L 22.160133,31.978069 C 22.160133,31.978069 26.997745,27.140456 26.997745,27.140456 C 18.528582,18.264221 13.291696,25.230495 11.500037,31.436501 z"
             style="fill:#404040;"/>
          </a>
         </g>
        </svg>
</svg>
