<?xml version="1.0" encoding="UTF-8" standalone="no"?>
<!DOCTYPE svg PUBLIC "-//W3C//DTD SVG 1.1//EN"
 "http://www.w3.org/Graphics/SVG/1.1/DTD/svg11.dtd">
<!-- Generated by graphviz version 2.40.1 (20161225.0304)
 -->
<!-- Title: DCT_Bilinear_Weight Pages: 1 -->
<svg width="364pt" height="180pt"
 viewBox="0.00 0.00 364.00 180.00" xmlns="http://www.w3.org/2000/svg" xmlns:xlink="http://www.w3.org/1999/xlink">
<g id="graph0" class="graph" transform="scale(1 1) rotate(0) translate(4 176)">
<title>DCT_Bilinear_Weight</title>
<polygon fill="#ffffff" stroke="transparent" points="-4,4 -4,-176 360,-176 360,4 -4,4"/>
<!-- Node292 -->
<g id="node1" class="node">
<title>Node292</title>
<polygon fill="#bfbfbf" stroke="#000000" points="0,-76.5 0,-95.5 89,-95.5 89,-76.5 0,-76.5"/>
<text text-anchor="middle" x="44.5" y="-83.5" font-family="Helvetica,sans-Serif" font-size="10.00" fill="#000000">DCT_Bilinear_Weight</text>
</g>
<!-- Node293 -->
<g id="node2" class="node">
<title>Node293</title>
<g id="a_node2"><a xlink:href="$da/df2/dct__data__utils_8c.html#a7b21bfcd675a7e8eeb06960ccfc03ff4" xlink:title="DCT_IncludedIndex_Cartes">
<polygon fill="#ffffff" stroke="#000000" points="125.5,-152.5 125.5,-171.5 234.5,-171.5 234.5,-152.5 125.5,-152.5"/>
<text text-anchor="middle" x="180" y="-159.5" font-family="Helvetica,sans-Serif" font-size="10.00" fill="#000000">DCT_IncludedIndex_Cartes</text>
</a>
</g>
</g>
<!-- Node292&#45;&gt;Node293 -->
<g id="edge1" class="edge">
<title>Node292&#45;&gt;Node293</title>
<path fill="none" stroke="#191970" d="M55.8281,-95.6088C70.8303,-107.9482 98.4936,-129.3895 125,-143 129.0525,-145.0809 133.3838,-147.0182 137.7701,-148.798"/>
<polygon fill="#191970" stroke="#191970" points="136.7816,-152.1662 147.373,-152.4371 139.2623,-145.6205 136.7816,-152.1662"/>
</g>
<!-- Node294 -->
<g id="node3" class="node">
<title>Node294</title>
<g id="a_node3"><a xlink:href="$da/df2/dct__data__utils_8c.html#ae30066cfcde99cbac1faaca5685124fb" xlink:title="DCT_IncludedIndex_Rectil">
<polygon fill="#ffffff" stroke="#000000" points="127,-114.5 127,-133.5 233,-133.5 233,-114.5 127,-114.5"/>
<text text-anchor="middle" x="180" y="-121.5" font-family="Helvetica,sans-Serif" font-size="10.00" fill="#000000">DCT_IncludedIndex_Rectil</text>
</a>
</g>
</g>
<!-- Node292&#45;&gt;Node294 -->
<g id="edge2" class="edge">
<title>Node292&#45;&gt;Node294</title>
<path fill="none" stroke="#191970" d="M78.6924,-95.589C96.1039,-100.4719 117.4715,-106.4643 136.0871,-111.685"/>
<polygon fill="#191970" stroke="#191970" points="135.2449,-115.0837 145.8186,-114.4141 137.1351,-108.3438 135.2449,-115.0837"/>
</g>
<!-- Node296 -->
<g id="node5" class="node">
<title>Node296</title>
<g id="a_node5"><a xlink:href="$da/df2/dct__data__utils_8c.html#aad612d07c1ca8b6cdcb901ce51518ad7" xlink:title="DCT_Data_Allocate">
<polygon fill="#ffffff" stroke="#000000" points="138.5,-76.5 138.5,-95.5 221.5,-95.5 221.5,-76.5 138.5,-76.5"/>
<text text-anchor="middle" x="180" y="-83.5" font-family="Helvetica,sans-Serif" font-size="10.00" fill="#000000">DCT_Data_Allocate</text>
</a>
</g>
</g>
<!-- Node292&#45;&gt;Node296 -->
<g id="edge4" class="edge">
<title>Node292&#45;&gt;Node296</title>
<path fill="none" stroke="#191970" d="M89.2433,-86C101.6518,-86 115.2286,-86 128.0127,-86"/>
<polygon fill="#191970" stroke="#191970" points="128.0578,-89.5001 138.0578,-86 128.0578,-82.5001 128.0578,-89.5001"/>
</g>
<!-- Node297 -->
<g id="node6" class="node">
<title>Node297</title>
<g id="a_node6"><a xlink:href="$da/df2/dct__data__utils_8c.html#a69425de86f0e9399aaca5d2ad1a02aec" xlink:title="DCT_Mod2CartesianWeight">
<polygon fill="#ffffff" stroke="#000000" points="125,-38.5 125,-57.5 235,-57.5 235,-38.5 125,-38.5"/>
<text text-anchor="middle" x="180" y="-45.5" font-family="Helvetica,sans-Serif" font-size="10.00" fill="#000000">DCT_Mod2CartesianWeight</text>
</a>
</g>
</g>
<!-- Node292&#45;&gt;Node297 -->
<g id="edge5" class="edge">
<title>Node292&#45;&gt;Node297</title>
<path fill="none" stroke="#191970" d="M78.6924,-76.411C96.1039,-71.5281 117.4715,-65.5357 136.0871,-60.315"/>
<polygon fill="#191970" stroke="#191970" points="137.1351,-63.6562 145.8186,-57.5859 135.2449,-56.9163 137.1351,-63.6562"/>
</g>
<!-- Node298 -->
<g id="node7" class="node">
<title>Node298</title>
<g id="a_node7"><a xlink:href="$da/df2/dct__data__utils_8c.html#a8abdd3bba7ef602eb5abca20010c0f7b" xlink:title="DCT_RectilinearWeight">
<polygon fill="#ffffff" stroke="#000000" points="132.5,-.5 132.5,-19.5 227.5,-19.5 227.5,-.5 132.5,-.5"/>
<text text-anchor="middle" x="180" y="-7.5" font-family="Helvetica,sans-Serif" font-size="10.00" fill="#000000">DCT_RectilinearWeight</text>
</a>
</g>
</g>
<!-- Node292&#45;&gt;Node298 -->
<g id="edge6" class="edge">
<title>Node292&#45;&gt;Node298</title>
<path fill="none" stroke="#191970" d="M55.8281,-76.3912C70.8303,-64.0518 98.4936,-42.6105 125,-29 129.0525,-26.9191 133.3838,-24.9818 137.7701,-23.202"/>
<polygon fill="#191970" stroke="#191970" points="139.2623,-26.3795 147.373,-19.5629 136.7816,-19.8338 139.2623,-26.3795"/>
</g>
<!-- Node295 -->
<g id="node4" class="node">
<title>Node295</title>
<g id="a_node4"><a xlink:href="$da/df2/dct__data__utils_8c.html#ab4c2668ba72029a38c2a6ad100c8a897" xlink:title="DCT_index_bsearch">
<polygon fill="#ffffff" stroke="#000000" points="271,-114.5 271,-133.5 356,-133.5 356,-114.5 271,-114.5"/>
<text text-anchor="middle" x="313.5" y="-121.5" font-family="Helvetica,sans-Serif" font-size="10.00" fill="#000000">DCT_index_bsearch</text>
</a>
</g>
</g>
<!-- Node294&#45;&gt;Node295 -->
<g id="edge3" class="edge">
<title>Node294&#45;&gt;Node295</title>
<path fill="none" stroke="#191970" d="M233.1463,-124C242.2331,-124 251.6712,-124 260.7477,-124"/>
<polygon fill="#191970" stroke="#191970" points="260.8037,-127.5001 270.8037,-124 260.8037,-120.5001 260.8037,-127.5001"/>
</g>
</g>
</svg>
