<?xml version="1.0" encoding="UTF-8" standalone="no"?>
<!DOCTYPE svg PUBLIC "-//W3C//DTD SVG 1.1//EN"
 "http://www.w3.org/Graphics/SVG/1.1/DTD/svg11.dtd">
<!-- Generated by graphviz version 2.40.1 (20161225.0304)
 -->
<!-- Title: DCT_Convertion_Parameter Pages: 1 -->
<svg width="388pt" height="104pt"
 viewBox="0.00 0.00 388.00 104.00" xmlns="http://www.w3.org/2000/svg" xmlns:xlink="http://www.w3.org/1999/xlink">
<g id="graph0" class="graph" transform="scale(1 1) rotate(0) translate(4 100)">
<title>DCT_Convertion_Parameter</title>
<polygon fill="#ffffff" stroke="transparent" points="-4,4 -4,-100 384,-100 384,4 -4,4"/>
<!-- Node421 -->
<g id="node1" class="node">
<title>Node421</title>
<polygon fill="#bfbfbf" stroke="#000000" points="0,-38.5 0,-57.5 112,-57.5 112,-38.5 0,-38.5"/>
<text text-anchor="middle" x="56" y="-45.5" font-family="Helvetica,sans-Serif" font-size="10.00" fill="#000000">DCT_Convertion_Parameter</text>
</g>
<!-- Node422 -->
<g id="node2" class="node">
<title>Node422</title>
<g id="a_node2"><a xlink:href="$da/df2/dct__data__utils_8c.html#ac855428e049ce85594928b6705e6498e" xlink:title="DCT_Perfom_UnitConvertion">
<polygon fill="#ffffff" stroke="#000000" points="148,-38.5 148,-57.5 262,-57.5 262,-38.5 148,-38.5"/>
<text text-anchor="middle" x="205" y="-45.5" font-family="Helvetica,sans-Serif" font-size="10.00" fill="#000000">DCT_Perfom_UnitConvertion</text>
</a>
</g>
</g>
<!-- Node421&#45;&gt;Node422 -->
<g id="edge1" class="edge">
<title>Node421&#45;&gt;Node422</title>
<path fill="none" stroke="#191970" d="M122.4619,-48C130.8474,-48 139.3704,-48 147.5992,-48"/>
<polygon fill="#191970" stroke="#191970" points="122.3305,-44.5001 112.3305,-48 122.3305,-51.5001 122.3305,-44.5001"/>
</g>
<!-- Node423 -->
<g id="node3" class="node">
<title>Node423</title>
<g id="a_node3"><a xlink:href="$d9/db0/dct__comm__data_8c.html#a80cf73b4edccdb6e21c4e203f9d1c37b" xlink:title="DCT_Recv_Field">
<polygon fill="#ffffff" stroke="#000000" points="302,-76.5 302,-95.5 376,-95.5 376,-76.5 302,-76.5"/>
<text text-anchor="middle" x="339" y="-83.5" font-family="Helvetica,sans-Serif" font-size="10.00" fill="#000000">DCT_Recv_Field</text>
</a>
</g>
</g>
<!-- Node422&#45;&gt;Node423 -->
<g id="edge2" class="edge">
<title>Node422&#45;&gt;Node423</title>
<path fill="none" stroke="#191970" d="M248.4383,-60.3183C266.8491,-65.5393 287.9798,-71.5316 305.197,-76.4141"/>
<polygon fill="#191970" stroke="#191970" points="249.3894,-56.9501 238.8139,-57.589 247.4796,-63.6845 249.3894,-56.9501"/>
</g>
<!-- Node424 -->
<g id="node4" class="node">
<title>Node424</title>
<g id="a_node4"><a xlink:href="$d9/db0/dct__comm__data_8c.html#ae8b687923ced739386283b246af66153" xlink:title="DCT_Recv_3d_Var">
<polygon fill="#ffffff" stroke="#000000" points="298,-38.5 298,-57.5 380,-57.5 380,-38.5 298,-38.5"/>
<text text-anchor="middle" x="339" y="-45.5" font-family="Helvetica,sans-Serif" font-size="10.00" fill="#000000">DCT_Recv_3d_Var</text>
</a>
</g>
</g>
<!-- Node422&#45;&gt;Node424 -->
<g id="edge3" class="edge">
<title>Node422&#45;&gt;Node424</title>
<path fill="none" stroke="#191970" d="M272.3659,-48C281.038,-48 289.7019,-48 297.7764,-48"/>
<polygon fill="#191970" stroke="#191970" points="272.2168,-44.5001 262.2167,-48 272.2167,-51.5001 272.2168,-44.5001"/>
</g>
<!-- Node425 -->
<g id="node5" class="node">
<title>Node425</title>
<g id="a_node5"><a xlink:href="$d9/db0/dct__comm__data_8c.html#a4aff755a39f91fe7fe9513254c7ab810" xlink:title="DCT_Recv_4d_Var">
<polygon fill="#ffffff" stroke="#000000" points="298,-.5 298,-19.5 380,-19.5 380,-.5 298,-.5"/>
<text text-anchor="middle" x="339" y="-7.5" font-family="Helvetica,sans-Serif" font-size="10.00" fill="#000000">DCT_Recv_4d_Var</text>
</a>
</g>
</g>
<!-- Node422&#45;&gt;Node425 -->
<g id="edge4" class="edge">
<title>Node422&#45;&gt;Node425</title>
<path fill="none" stroke="#191970" d="M248.4383,-35.6817C266.8491,-30.4607 287.9798,-24.4684 305.197,-19.5859"/>
<polygon fill="#191970" stroke="#191970" points="247.4796,-32.3155 238.8139,-38.411 249.3894,-39.0499 247.4796,-32.3155"/>
</g>
</g>
</svg>
