<?xml version="1.0" encoding="UTF-8" standalone="no"?>
<!DOCTYPE svg PUBLIC "-//W3C//DTD SVG 1.1//EN"
 "http://www.w3.org/Graphics/SVG/1.1/DTD/svg11.dtd">
<!-- Generated by graphviz version 2.40.1 (20161225.0304)
 -->
<!-- Title: DCT_IncludedIndex_Cartes Pages: 1 -->
<svg width="655pt" height="173pt"
 viewBox="0.00 0.00 655.00 172.84" xmlns="http://www.w3.org/2000/svg" xmlns:xlink="http://www.w3.org/1999/xlink">
<g id="graph0" class="graph" transform="scale(1 1) rotate(0) translate(4 168.8448)">
<title>DCT_IncludedIndex_Cartes</title>
<polygon fill="#ffffff" stroke="transparent" points="-4,4 -4,-168.8448 651,-168.8448 651,4 -4,4"/>
<!-- Node93 -->
<g id="node1" class="node">
<title>Node93</title>
<polygon fill="#bfbfbf" stroke="#000000" points="0,-57.8448 0,-76.8448 109,-76.8448 109,-57.8448 0,-57.8448"/>
<text text-anchor="middle" x="54.5" y="-64.8448" font-family="Helvetica,sans-Serif" font-size="10.00" fill="#000000">DCT_IncludedIndex_Cartes</text>
</g>
<!-- Node94 -->
<g id="node2" class="node">
<title>Node94</title>
<g id="a_node2"><a xlink:href="$da/df2/dct__data__utils_8c.html#a74b531fae5465d65f94203c1ce8811ad" xlink:title="DCT_IncludedValues\l_Cartes">
<polygon fill="#ffffff" stroke="#000000" points="155.5,-134.3448 155.5,-164.3448 242.5,-164.3448 242.5,-134.3448 155.5,-134.3448"/>
<text text-anchor="start" x="163.5" y="-152.3448" font-family="Helvetica,sans-Serif" font-size="10.00" fill="#000000">DCT_IncludedValues</text>
<text text-anchor="middle" x="199" y="-141.3448" font-family="Helvetica,sans-Serif" font-size="10.00" fill="#000000">_Cartes</text>
</a>
</g>
</g>
<!-- Node93&#45;&gt;Node94 -->
<g id="edge1" class="edge">
<title>Node93&#45;&gt;Node94</title>
<path fill="none" stroke="#191970" d="M77.2165,-82.7967C95.2312,-94.7679 121.243,-111.4334 145,-124.3448 151.2631,-127.7487 158.073,-131.1339 164.6799,-134.2632"/>
<polygon fill="#191970" stroke="#191970" points="78.8349,-79.6681 68.5791,-77.0091 74.9383,-85.4833 78.8349,-79.6681"/>
</g>
<!-- Node98 -->
<g id="node6" class="node">
<title>Node98</title>
<g id="a_node6"><a xlink:href="$da/df2/dct__data__utils_8c.html#a2b0b2abde55ce9d8c5e813723596d91a" xlink:title="DCT_Bilinear_Weight">
<polygon fill="#ffffff" stroke="#000000" points="154.5,-95.8448 154.5,-114.8448 243.5,-114.8448 243.5,-95.8448 154.5,-95.8448"/>
<text text-anchor="middle" x="199" y="-102.8448" font-family="Helvetica,sans-Serif" font-size="10.00" fill="#000000">DCT_Bilinear_Weight</text>
</a>
</g>
</g>
<!-- Node93&#45;&gt;Node98 -->
<g id="edge5" class="edge">
<title>Node93&#45;&gt;Node98</title>
<path fill="none" stroke="#191970" d="M100.8325,-79.5292C120.8939,-84.8048 144.0285,-90.8887 162.7988,-95.8248"/>
<polygon fill="#191970" stroke="#191970" points="101.5248,-76.0923 90.9635,-76.9338 99.7445,-82.8621 101.5248,-76.0923"/>
</g>
<!-- Node100 -->
<g id="node8" class="node">
<title>Node100</title>
<g id="a_node8"><a xlink:href="$dc/d6c/dct__mpi__comm_8c.html#a8d32decd1b87fc67e847e8aa64b05f4e" xlink:title="DCT_ConsumeVar_Comm">
<polygon fill="#ffffff" stroke="#000000" points="420,-57.8448 420,-76.8448 526,-76.8448 526,-57.8448 420,-57.8448"/>
<text text-anchor="middle" x="473" y="-64.8448" font-family="Helvetica,sans-Serif" font-size="10.00" fill="#000000">DCT_ConsumeVar_Comm</text>
</a>
</g>
</g>
<!-- Node93&#45;&gt;Node100 -->
<g id="edge13" class="edge">
<title>Node93&#45;&gt;Node100</title>
<path fill="none" stroke="#191970" d="M73.3107,-50.9913C90.6107,-37.1146 117.6546,-18.2388 145,-10.3448 259.1151,22.5972 401.3794,-34.078 453.0665,-57.72"/>
<polygon fill="#191970" stroke="#191970" points="70.6708,-48.6332 65.2022,-57.7076 75.1361,-54.0241 70.6708,-48.6332"/>
</g>
<!-- Node101 -->
<g id="node9" class="node">
<title>Node101</title>
<g id="a_node9"><a xlink:href="$da/df2/dct__data__utils_8c.html#a2b2c1523518da2a77764c4de64bc7c6f" xlink:title="DCT_Trilinear_Weight">
<polygon fill="#ffffff" stroke="#000000" points="153.5,-57.8448 153.5,-76.8448 244.5,-76.8448 244.5,-57.8448 153.5,-57.8448"/>
<text text-anchor="middle" x="199" y="-64.8448" font-family="Helvetica,sans-Serif" font-size="10.00" fill="#000000">DCT_Trilinear_Weight</text>
</a>
</g>
</g>
<!-- Node93&#45;&gt;Node101 -->
<g id="edge9" class="edge">
<title>Node93&#45;&gt;Node101</title>
<path fill="none" stroke="#191970" d="M119.1423,-67.3448C130.6466,-67.3448 142.411,-67.3448 153.2514,-67.3448"/>
<polygon fill="#191970" stroke="#191970" points="119.1293,-63.8449 109.1293,-67.3448 119.1292,-70.8449 119.1293,-63.8449"/>
</g>
<!-- Node102 -->
<g id="node10" class="node">
<title>Node102</title>
<g id="a_node10"><a xlink:href="$da/df2/dct__data__utils_8c.html#a48eab8c20b93ee47365d90df0a49c73b" xlink:title="DCT_CheckNoInterpolation">
<polygon fill="#ffffff" stroke="#000000" points="145,-19.8448 145,-38.8448 253,-38.8448 253,-19.8448 145,-19.8448"/>
<text text-anchor="middle" x="199" y="-26.8448" font-family="Helvetica,sans-Serif" font-size="10.00" fill="#000000">DCT_CheckNoInterpolation</text>
</a>
</g>
</g>
<!-- Node93&#45;&gt;Node102 -->
<g id="edge11" class="edge">
<title>Node93&#45;&gt;Node102</title>
<path fill="none" stroke="#191970" d="M100.8325,-55.1605C120.8939,-49.8848 144.0285,-43.801 162.7988,-38.8649"/>
<polygon fill="#191970" stroke="#191970" points="99.7445,-51.8276 90.9635,-57.7558 101.5248,-58.5974 99.7445,-51.8276"/>
</g>
<!-- Node95 -->
<g id="node3" class="node">
<title>Node95</title>
<g id="a_node3"><a xlink:href="$da/df2/dct__data__utils_8c.html#ac3b88e7c4351969ea5b61550ed6aa124" xlink:title="DCT_IncludedValues">
<polygon fill="#ffffff" stroke="#000000" points="293,-128.8448 293,-147.8448 380,-147.8448 380,-128.8448 293,-128.8448"/>
<text text-anchor="middle" x="336.5" y="-135.8448" font-family="Helvetica,sans-Serif" font-size="10.00" fill="#000000">DCT_IncludedValues</text>
</a>
</g>
</g>
<!-- Node94&#45;&gt;Node95 -->
<g id="edge2" class="edge">
<title>Node94&#45;&gt;Node95</title>
<path fill="none" stroke="#191970" d="M252.5148,-145.0637C265.8554,-143.9964 280.0018,-142.8647 292.8052,-141.8404"/>
<polygon fill="#191970" stroke="#191970" points="252.1949,-141.578 242.5059,-145.8644 252.7532,-148.5557 252.1949,-141.578"/>
</g>
<!-- Node96 -->
<g id="node4" class="node">
<title>Node96</title>
<g id="a_node4"><a xlink:href="$dc/d6c/dct__mpi__comm_8c.html#ad555828d99a5145741097703f9831f87" xlink:title="DCT_ProduceVar_Comm">
<polygon fill="#ffffff" stroke="#000000" points="422,-106.8448 422,-125.8448 524,-125.8448 524,-106.8448 422,-106.8448"/>
<text text-anchor="middle" x="473" y="-113.8448" font-family="Helvetica,sans-Serif" font-size="10.00" fill="#000000">DCT_ProduceVar_Comm</text>
</a>
</g>
</g>
<!-- Node95&#45;&gt;Node96 -->
<g id="edge3" class="edge">
<title>Node95&#45;&gt;Node96</title>
<path fill="none" stroke="#191970" d="M390.2444,-129.6827C400.6181,-128.0108 411.4606,-126.2633 421.7522,-124.6046"/>
<polygon fill="#191970" stroke="#191970" points="389.3804,-126.2767 380.0648,-131.3234 390.4943,-133.1876 389.3804,-126.2767"/>
</g>
<!-- Node97 -->
<g id="node5" class="node">
<title>Node97</title>
<g id="a_node5"><a xlink:href="$d8/d17/dct__broker_8c.html#aa8e0aa98031488e106f16272b3b4fcdd" xlink:title="DCT_VarComm_Set">
<polygon fill="#ffffff" stroke="#000000" points="562,-76.8448 562,-95.8448 647,-95.8448 647,-76.8448 562,-76.8448"/>
<text text-anchor="middle" x="604.5" y="-83.8448" font-family="Helvetica,sans-Serif" font-size="10.00" fill="#000000">DCT_VarComm_Set</text>
</a>
</g>
</g>
<!-- Node96&#45;&gt;Node97 -->
<g id="edge4" class="edge">
<title>Node96&#45;&gt;Node97</title>
<path fill="none" stroke="#191970" d="M524.8015,-104.527C537.2958,-101.6766 550.4946,-98.6655 562.4787,-95.9314"/>
<polygon fill="#191970" stroke="#191970" points="523.94,-101.1335 514.969,-106.7702 525.497,-107.9582 523.94,-101.1335"/>
</g>
<!-- Node99 -->
<g id="node7" class="node">
<title>Node99</title>
<g id="a_node7"><a xlink:href="$da/df2/dct__data__utils_8c.html#a62974f43597e565a070d28c33b84837e" xlink:title="DCT_Calculate_Weight">
<polygon fill="#ffffff" stroke="#000000" points="289,-57.8448 289,-76.8448 384,-76.8448 384,-57.8448 289,-57.8448"/>
<text text-anchor="middle" x="336.5" y="-64.8448" font-family="Helvetica,sans-Serif" font-size="10.00" fill="#000000">DCT_Calculate_Weight</text>
</a>
</g>
</g>
<!-- Node98&#45;&gt;Node99 -->
<g id="edge6" class="edge">
<title>Node98&#45;&gt;Node99</title>
<path fill="none" stroke="#191970" d="M243.5729,-93.0265C262.4645,-87.8056 284.1472,-81.8133 301.814,-76.9308"/>
<polygon fill="#191970" stroke="#191970" points="242.4034,-89.7184 233.6971,-95.7558 244.2681,-96.4655 242.4034,-89.7184"/>
</g>
<!-- Node99&#45;&gt;Node100 -->
<g id="edge7" class="edge">
<title>Node99&#45;&gt;Node100</title>
<path fill="none" stroke="#191970" d="M394.4213,-67.3448C402.885,-67.3448 411.5657,-67.3448 419.9263,-67.3448"/>
<polygon fill="#191970" stroke="#191970" points="394.2411,-63.8449 384.2411,-67.3448 394.241,-70.8449 394.2411,-63.8449"/>
</g>
<!-- Node100&#45;&gt;Node97 -->
<g id="edge8" class="edge">
<title>Node100&#45;&gt;Node97</title>
<path fill="none" stroke="#191970" d="M536.1898,-76.4749C544.8324,-77.7237 553.5341,-78.981 561.6964,-80.1603"/>
<polygon fill="#191970" stroke="#191970" points="536.5048,-72.9842 526.107,-75.0181 535.5037,-79.9122 536.5048,-72.9842"/>
</g>
<!-- Node101&#45;&gt;Node99 -->
<g id="edge10" class="edge">
<title>Node101&#45;&gt;Node99</title>
<path fill="none" stroke="#191970" d="M254.8761,-67.3448C266.0462,-67.3448 277.6865,-67.3448 288.56,-67.3448"/>
<polygon fill="#191970" stroke="#191970" points="254.7855,-63.8449 244.7855,-67.3448 254.7855,-70.8449 254.7855,-63.8449"/>
</g>
<!-- Node102&#45;&gt;Node99 -->
<g id="edge12" class="edge">
<title>Node102&#45;&gt;Node99</title>
<path fill="none" stroke="#191970" d="M243.5729,-41.6632C262.4645,-46.8841 284.1472,-52.8764 301.814,-57.7589"/>
<polygon fill="#191970" stroke="#191970" points="244.2681,-38.2242 233.6971,-38.9338 242.4034,-44.9712 244.2681,-38.2242"/>
</g>
</g>
</svg>
