<?xml version="1.0" encoding="UTF-8" standalone="no"?>
<!DOCTYPE svg PUBLIC "-//W3C//DTD SVG 1.1//EN"
 "http://www.w3.org/Graphics/SVG/1.1/DTD/svg11.dtd">
<!-- Generated by graphviz version 2.40.1 (20161225.0304)
 -->
<!-- Title: DCT_ldBiLinIntSparseProd Pages: 1 -->
<svg width="470pt" height="104pt"
 viewBox="0.00 0.00 470.00 104.00" xmlns="http://www.w3.org/2000/svg" xmlns:xlink="http://www.w3.org/1999/xlink">
<g id="graph0" class="graph" transform="scale(1 1) rotate(0) translate(4 100)">
<title>DCT_ldBiLinIntSparseProd</title>
<polygon fill="#ffffff" stroke="transparent" points="-4,4 -4,-100 466,-100 466,4 -4,4"/>
<!-- Node247 -->
<g id="node1" class="node">
<title>Node247</title>
<polygon fill="#bfbfbf" stroke="#000000" points="0,-38.5 0,-57.5 107,-57.5 107,-38.5 0,-38.5"/>
<text text-anchor="middle" x="53.5" y="-45.5" font-family="Helvetica,sans-Serif" font-size="10.00" fill="#000000">DCT_ldBiLinIntSparseProd</text>
</g>
<!-- Node248 -->
<g id="node2" class="node">
<title>Node248</title>
<g id="a_node2"><a xlink:href="$da/df2/dct__data__utils_8c.html#a0e68c1d426c837ef219f1233376c3b75" xlink:title="DCT_Bilinear_Interp">
<polygon fill="#ffffff" stroke="#000000" points="143,-38.5 143,-57.5 227,-57.5 227,-38.5 143,-38.5"/>
<text text-anchor="middle" x="185" y="-45.5" font-family="Helvetica,sans-Serif" font-size="10.00" fill="#000000">DCT_Bilinear_Interp</text>
</a>
</g>
</g>
<!-- Node247&#45;&gt;Node248 -->
<g id="edge1" class="edge">
<title>Node247&#45;&gt;Node248</title>
<path fill="none" stroke="#191970" d="M117.3896,-48C125.9752,-48 134.6031,-48 142.6872,-48"/>
<polygon fill="#191970" stroke="#191970" points="117.3655,-44.5001 107.3655,-48 117.3655,-51.5001 117.3655,-44.5001"/>
</g>
<!-- Node249 -->
<g id="node3" class="node">
<title>Node249</title>
<g id="a_node3"><a xlink:href="$da/df2/dct__data__utils_8c.html#ae02f18f71dc9264cc0b5b5b5638e6db2" xlink:title="DCT_Perfom_Filter">
<polygon fill="#ffffff" stroke="#000000" points="263,-38.5 263,-57.5 344,-57.5 344,-38.5 263,-38.5"/>
<text text-anchor="middle" x="303.5" y="-45.5" font-family="Helvetica,sans-Serif" font-size="10.00" fill="#000000">DCT_Perfom_Filter</text>
</a>
</g>
</g>
<!-- Node248&#45;&gt;Node249 -->
<g id="edge2" class="edge">
<title>Node248&#45;&gt;Node249</title>
<path fill="none" stroke="#191970" d="M237.3416,-48C245.8452,-48 254.5414,-48 262.7164,-48"/>
<polygon fill="#191970" stroke="#191970" points="237.1124,-44.5001 227.1123,-48 237.1123,-51.5001 237.1124,-44.5001"/>
</g>
<!-- Node250 -->
<g id="node4" class="node">
<title>Node250</title>
<g id="a_node4"><a xlink:href="$d9/db0/dct__comm__data_8c.html#a80cf73b4edccdb6e21c4e203f9d1c37b" xlink:title="DCT_Recv_Field">
<polygon fill="#ffffff" stroke="#000000" points="384,-76.5 384,-95.5 458,-95.5 458,-76.5 384,-76.5"/>
<text text-anchor="middle" x="421" y="-83.5" font-family="Helvetica,sans-Serif" font-size="10.00" fill="#000000">DCT_Recv_Field</text>
</a>
</g>
</g>
<!-- Node249&#45;&gt;Node250 -->
<g id="edge3" class="edge">
<title>Node249&#45;&gt;Node250</title>
<path fill="none" stroke="#191970" d="M342.7092,-60.6804C358.5854,-65.8148 376.61,-71.6441 391.3593,-76.4141"/>
<polygon fill="#191970" stroke="#191970" points="343.742,-57.336 333.1502,-57.589 341.588,-63.9964 343.742,-57.336"/>
</g>
<!-- Node251 -->
<g id="node5" class="node">
<title>Node251</title>
<g id="a_node5"><a xlink:href="$d9/db0/dct__comm__data_8c.html#ae8b687923ced739386283b246af66153" xlink:title="DCT_Recv_3d_Var">
<polygon fill="#ffffff" stroke="#000000" points="380,-38.5 380,-57.5 462,-57.5 462,-38.5 380,-38.5"/>
<text text-anchor="middle" x="421" y="-45.5" font-family="Helvetica,sans-Serif" font-size="10.00" fill="#000000">DCT_Recv_3d_Var</text>
</a>
</g>
</g>
<!-- Node249&#45;&gt;Node251 -->
<g id="edge4" class="edge">
<title>Node249&#45;&gt;Node251</title>
<path fill="none" stroke="#191970" d="M354.475,-48C362.9746,-48 371.6951,-48 379.9081,-48"/>
<polygon fill="#191970" stroke="#191970" points="354.2661,-44.5001 344.266,-48 354.266,-51.5001 354.2661,-44.5001"/>
</g>
<!-- Node252 -->
<g id="node6" class="node">
<title>Node252</title>
<g id="a_node6"><a xlink:href="$d9/db0/dct__comm__data_8c.html#a4aff755a39f91fe7fe9513254c7ab810" xlink:title="DCT_Recv_4d_Var">
<polygon fill="#ffffff" stroke="#000000" points="380,-.5 380,-19.5 462,-19.5 462,-.5 380,-.5"/>
<text text-anchor="middle" x="421" y="-7.5" font-family="Helvetica,sans-Serif" font-size="10.00" fill="#000000">DCT_Recv_4d_Var</text>
</a>
</g>
</g>
<!-- Node249&#45;&gt;Node252 -->
<g id="edge5" class="edge">
<title>Node249&#45;&gt;Node252</title>
<path fill="none" stroke="#191970" d="M342.7092,-35.3196C358.5854,-30.1852 376.61,-24.3559 391.3593,-19.5859"/>
<polygon fill="#191970" stroke="#191970" points="341.588,-32.0036 333.1502,-38.411 343.742,-38.664 341.588,-32.0036"/>
</g>
</g>
</svg>
