<?xml version="1.0" encoding="UTF-8" standalone="no"?>
<!DOCTYPE svg PUBLIC "-//W3C//DTD SVG 1.1//EN"
 "http://www.w3.org/Graphics/SVG/1.1/DTD/svg11.dtd">
<!-- Generated by graphviz version 2.40.1 (20161225.0304)
 -->
<!-- Title: DCT_Return_SubDom_Interc Pages: 1 -->
<svg width="386pt" height="28pt"
 viewBox="0.00 0.00 386.00 28.00" xmlns="http://www.w3.org/2000/svg" xmlns:xlink="http://www.w3.org/1999/xlink">
<g id="graph0" class="graph" transform="scale(1 1) rotate(0) translate(4 24)">
<title>DCT_Return_SubDom_Interc</title>
<polygon fill="#ffffff" stroke="transparent" points="-4,4 -4,-24 382,-24 382,4 -4,4"/>
<!-- Node76 -->
<g id="node1" class="node">
<title>Node76</title>
<polygon fill="#bfbfbf" stroke="#000000" points="0,-.5 0,-19.5 115,-19.5 115,-.5 0,-.5"/>
<text text-anchor="middle" x="57.5" y="-7.5" font-family="Helvetica,sans-Serif" font-size="10.00" fill="#000000">DCT_Return_SubDom_Interc</text>
</g>
<!-- Node77 -->
<g id="node2" class="node">
<title>Node77</title>
<g id="a_node2"><a xlink:href="$d8/d17/dct__broker_8c.html#abc90a33dd91cef71984221752e65d4c5" xlink:title="DCT_Arrange_SD">
<polygon fill="#ffffff" stroke="#000000" points="151,-.5 151,-19.5 228,-19.5 228,-.5 151,-.5"/>
<text text-anchor="middle" x="189.5" y="-7.5" font-family="Helvetica,sans-Serif" font-size="10.00" fill="#000000">DCT_Arrange_SD</text>
</a>
</g>
</g>
<!-- Node76&#45;&gt;Node77 -->
<g id="edge1" class="edge">
<title>Node76&#45;&gt;Node77</title>
<path fill="none" stroke="#191970" d="M125.2677,-10C134.0183,-10 142.7274,-10 150.7792,-10"/>
<polygon fill="#191970" stroke="#191970" points="125.0132,-6.5001 115.0131,-10 125.0131,-13.5001 125.0132,-6.5001"/>
</g>
<!-- Node78 -->
<g id="node3" class="node">
<title>Node78</title>
<g id="a_node3"><a xlink:href="$d8/d17/dct__broker_8c.html#a4cb3cbef9b24f5897238441888219e33" xlink:title="DCT_Local_SubDom_Comm">
<polygon fill="#ffffff" stroke="#000000" points="264,-.5 264,-19.5 378,-19.5 378,-.5 264,-.5"/>
<text text-anchor="middle" x="321" y="-7.5" font-family="Helvetica,sans-Serif" font-size="10.00" fill="#000000">DCT_Local_SubDom_Comm</text>
</a>
</g>
</g>
<!-- Node77&#45;&gt;Node78 -->
<g id="edge2" class="edge">
<title>Node77&#45;&gt;Node78</title>
<path fill="none" stroke="#191970" d="M238.3787,-10C246.5719,-10 255.1399,-10 263.5254,-10"/>
<polygon fill="#191970" stroke="#191970" points="238.2431,-6.5001 228.2431,-10 238.2431,-13.5001 238.2431,-6.5001"/>
</g>
</g>
</svg>
