<?xml version="1.0" encoding="UTF-8" standalone="no"?>
<!DOCTYPE svg PUBLIC "-//W3C//DTD SVG 1.1//EN"
 "http://www.w3.org/Graphics/SVG/1.1/DTD/svg11.dtd">
<!-- Generated by graphviz version 2.40.1 (20161225.0304)
 -->
<!-- Title: DCT_Calculate_Neighbors Pages: 1 -->
<svg width="241pt" height="28pt"
 viewBox="0.00 0.00 241.00 28.00" xmlns="http://www.w3.org/2000/svg" xmlns:xlink="http://www.w3.org/1999/xlink">
<g id="graph0" class="graph" transform="scale(1 1) rotate(0) translate(4 24)">
<title>DCT_Calculate_Neighbors</title>
<polygon fill="#ffffff" stroke="transparent" points="-4,4 -4,-24 237,-24 237,4 -4,4"/>
<!-- Node164 -->
<g id="node1" class="node">
<title>Node164</title>
<polygon fill="#bfbfbf" stroke="#000000" points="0,-.5 0,-19.5 106,-19.5 106,-.5 0,-.5"/>
<text text-anchor="middle" x="53" y="-7.5" font-family="Helvetica,sans-Serif" font-size="10.00" fill="#000000">DCT_Calculate_Neighbors</text>
</g>
<!-- Node165 -->
<g id="node2" class="node">
<title>Node165</title>
<g id="a_node2"><a xlink:href="$da/df2/dct__data__utils_8c.html#a0c9f95d0bba8d5065dc47cf3bc85aca2" xlink:title="DCT_IncludeNeighbor">
<polygon fill="#ffffff" stroke="#000000" points="142,-.5 142,-19.5 233,-19.5 233,-.5 142,-.5"/>
<text text-anchor="middle" x="187.5" y="-7.5" font-family="Helvetica,sans-Serif" font-size="10.00" fill="#000000">DCT_IncludeNeighbor</text>
</a>
</g>
</g>
<!-- Node164&#45;&gt;Node165 -->
<g id="edge1" class="edge">
<title>Node164&#45;&gt;Node165</title>
<path fill="none" stroke="#191970" d="M106.158,-10C114.5104,-10 123.1664,-10 131.579,-10"/>
<polygon fill="#191970" stroke="#191970" points="131.6829,-13.5001 141.6829,-10 131.6828,-6.5001 131.6829,-13.5001"/>
</g>
</g>
</svg>
