<?xml version="1.0" encoding="UTF-8" standalone="no"?>
<!DOCTYPE svg PUBLIC "-//W3C//DTD SVG 1.1//EN"
 "http://www.w3.org/Graphics/SVG/1.1/DTD/svg11.dtd">
<!-- Generated by graphviz version 2.40.1 (20161225.0304)
 -->
<!-- Title: DCT_dBiLinIntSparseProd Pages: 1 -->
<svg width="350pt" height="28pt"
 viewBox="0.00 0.00 350.00 28.00" xmlns="http://www.w3.org/2000/svg" xmlns:xlink="http://www.w3.org/1999/xlink">
<g id="graph0" class="graph" transform="scale(1 1) rotate(0) translate(4 24)">
<title>DCT_dBiLinIntSparseProd</title>
<polygon fill="#ffffff" stroke="transparent" points="-4,4 -4,-24 346,-24 346,4 -4,4"/>
<!-- Node238 -->
<g id="node1" class="node">
<title>Node238</title>
<polygon fill="#bfbfbf" stroke="#000000" points="0,-.5 0,-19.5 105,-19.5 105,-.5 0,-.5"/>
<text text-anchor="middle" x="52.5" y="-7.5" font-family="Helvetica,sans-Serif" font-size="10.00" fill="#000000">DCT_dBiLinIntSparseProd</text>
</g>
<!-- Node239 -->
<g id="node2" class="node">
<title>Node239</title>
<g id="a_node2"><a xlink:href="$da/df2/dct__data__utils_8c.html#a0e68c1d426c837ef219f1233376c3b75" xlink:title="DCT_Bilinear_Interp">
<polygon fill="#ffffff" stroke="#000000" points="141,-.5 141,-19.5 225,-19.5 225,-.5 141,-.5"/>
<text text-anchor="middle" x="183" y="-7.5" font-family="Helvetica,sans-Serif" font-size="10.00" fill="#000000">DCT_Bilinear_Interp</text>
</a>
</g>
</g>
<!-- Node238&#45;&gt;Node239 -->
<g id="edge1" class="edge">
<title>Node238&#45;&gt;Node239</title>
<path fill="none" stroke="#191970" d="M115.3305,-10C124.0113,-10 132.7493,-10 140.9288,-10"/>
<polygon fill="#191970" stroke="#191970" points="115.2032,-6.5001 105.2032,-10 115.2031,-13.5001 115.2032,-6.5001"/>
</g>
<!-- Node240 -->
<g id="node3" class="node">
<title>Node240</title>
<g id="a_node3"><a xlink:href="$da/df2/dct__data__utils_8c.html#ae02f18f71dc9264cc0b5b5b5638e6db2" xlink:title="DCT_Perfom_Filter">
<polygon fill="#ffffff" stroke="#000000" points="261,-.5 261,-19.5 342,-19.5 342,-.5 261,-.5"/>
<text text-anchor="middle" x="301.5" y="-7.5" font-family="Helvetica,sans-Serif" font-size="10.00" fill="#000000">DCT_Perfom_Filter</text>
</a>
</g>
</g>
<!-- Node239&#45;&gt;Node240 -->
<g id="edge2" class="edge">
<title>Node239&#45;&gt;Node240</title>
<path fill="none" stroke="#191970" d="M235.3416,-10C243.8452,-10 252.5414,-10 260.7164,-10"/>
<polygon fill="#191970" stroke="#191970" points="235.1124,-6.5001 225.1123,-10 235.1123,-13.5001 235.1124,-6.5001"/>
</g>
</g>
</svg>
