<?xml version="1.0" encoding="UTF-8" standalone="no"?>
<!DOCTYPE svg PUBLIC "-//W3C//DTD SVG 1.1//EN"
 "http://www.w3.org/Graphics/SVG/1.1/DTD/svg11.dtd">
<!-- Generated by graphviz version 2.40.1 (20161225.0304)
 -->
<!-- Title: DCT_Bilinear_Weight Pages: 1 -->
<svg width="491pt" height="28pt"
 viewBox="0.00 0.00 491.00 28.00" xmlns="http://www.w3.org/2000/svg" xmlns:xlink="http://www.w3.org/1999/xlink">
<g id="graph0" class="graph" transform="scale(1 1) rotate(0) translate(4 24)">
<title>DCT_Bilinear_Weight</title>
<polygon fill="#ffffff" stroke="transparent" points="-4,4 -4,-24 487,-24 487,4 -4,4"/>
<!-- Node299 -->
<g id="node1" class="node">
<title>Node299</title>
<polygon fill="#bfbfbf" stroke="#000000" points="0,-.5 0,-19.5 89,-19.5 89,-.5 0,-.5"/>
<text text-anchor="middle" x="44.5" y="-7.5" font-family="Helvetica,sans-Serif" font-size="10.00" fill="#000000">DCT_Bilinear_Weight</text>
</g>
<!-- Node300 -->
<g id="node2" class="node">
<title>Node300</title>
<g id="a_node2"><a xlink:href="$da/df2/dct__data__utils_8c.html#a62974f43597e565a070d28c33b84837e" xlink:title="DCT_Calculate_Weight">
<polygon fill="#ffffff" stroke="#000000" points="125,-.5 125,-19.5 220,-19.5 220,-.5 125,-.5"/>
<text text-anchor="middle" x="172.5" y="-7.5" font-family="Helvetica,sans-Serif" font-size="10.00" fill="#000000">DCT_Calculate_Weight</text>
</a>
</g>
</g>
<!-- Node299&#45;&gt;Node300 -->
<g id="edge1" class="edge">
<title>Node299&#45;&gt;Node300</title>
<path fill="none" stroke="#191970" d="M99.4603,-10C107.9375,-10 116.6306,-10 124.9285,-10"/>
<polygon fill="#191970" stroke="#191970" points="99.2682,-6.5001 89.2682,-10 99.2682,-13.5001 99.2682,-6.5001"/>
</g>
<!-- Node301 -->
<g id="node3" class="node">
<title>Node301</title>
<g id="a_node3"><a xlink:href="$dc/d6c/dct__mpi__comm_8c.html#a8d32decd1b87fc67e847e8aa64b05f4e" xlink:title="DCT_ConsumeVar_Comm">
<polygon fill="#ffffff" stroke="#000000" points="256,-.5 256,-19.5 362,-19.5 362,-.5 256,-.5"/>
<text text-anchor="middle" x="309" y="-7.5" font-family="Helvetica,sans-Serif" font-size="10.00" fill="#000000">DCT_ConsumeVar_Comm</text>
</a>
</g>
</g>
<!-- Node300&#45;&gt;Node301 -->
<g id="edge2" class="edge">
<title>Node300&#45;&gt;Node301</title>
<path fill="none" stroke="#191970" d="M230.4213,-10C238.885,-10 247.5657,-10 255.9263,-10"/>
<polygon fill="#191970" stroke="#191970" points="230.2411,-6.5001 220.2411,-10 230.241,-13.5001 230.2411,-6.5001"/>
</g>
<!-- Node302 -->
<g id="node4" class="node">
<title>Node302</title>
<g id="a_node4"><a xlink:href="$d8/d17/dct__broker_8c.html#aa8e0aa98031488e106f16272b3b4fcdd" xlink:title="DCT_VarComm_Set">
<polygon fill="#ffffff" stroke="#000000" points="398,-.5 398,-19.5 483,-19.5 483,-.5 398,-.5"/>
<text text-anchor="middle" x="440.5" y="-7.5" font-family="Helvetica,sans-Serif" font-size="10.00" fill="#000000">DCT_VarComm_Set</text>
</a>
</g>
</g>
<!-- Node301&#45;&gt;Node302 -->
<g id="edge3" class="edge">
<title>Node301&#45;&gt;Node302</title>
<path fill="none" stroke="#191970" d="M372.1898,-10C380.8324,-10 389.5341,-10 397.6964,-10"/>
<polygon fill="#191970" stroke="#191970" points="372.1071,-6.5001 362.107,-10 372.107,-13.5001 372.1071,-6.5001"/>
</g>
</g>
</svg>
