<?xml version="1.0" encoding="UTF-8" standalone="no"?>
<!DOCTYPE svg PUBLIC "-//W3C//DTD SVG 1.1//EN"
 "http://www.w3.org/Graphics/SVG/1.1/DTD/svg11.dtd">
<!-- Generated by graphviz version 2.40.1 (20161225.0304)
 -->
<!-- Title: DCT_Msk_fBiLinIntSparseProd Pages: 1 -->
<svg width="484pt" height="104pt"
 viewBox="0.00 0.00 484.00 104.00" xmlns="http://www.w3.org/2000/svg" xmlns:xlink="http://www.w3.org/1999/xlink">
<g id="graph0" class="graph" transform="scale(1 1) rotate(0) translate(4 100)">
<title>DCT_Msk_fBiLinIntSparseProd</title>
<polygon fill="#ffffff" stroke="transparent" points="-4,4 -4,-100 480,-100 480,4 -4,4"/>
<!-- Node254 -->
<g id="node1" class="node">
<title>Node254</title>
<polygon fill="#bfbfbf" stroke="#000000" points="0,-38.5 0,-57.5 121,-57.5 121,-38.5 0,-38.5"/>
<text text-anchor="middle" x="60.5" y="-45.5" font-family="Helvetica,sans-Serif" font-size="10.00" fill="#000000">DCT_Msk_fBiLinIntSparseProd</text>
</g>
<!-- Node255 -->
<g id="node2" class="node">
<title>Node255</title>
<g id="a_node2"><a xlink:href="$da/df2/dct__data__utils_8c.html#a0e68c1d426c837ef219f1233376c3b75" xlink:title="DCT_Bilinear_Interp">
<polygon fill="#ffffff" stroke="#000000" points="157,-38.5 157,-57.5 241,-57.5 241,-38.5 157,-38.5"/>
<text text-anchor="middle" x="199" y="-45.5" font-family="Helvetica,sans-Serif" font-size="10.00" fill="#000000">DCT_Bilinear_Interp</text>
</a>
</g>
</g>
<!-- Node254&#45;&gt;Node255 -->
<g id="edge1" class="edge">
<title>Node254&#45;&gt;Node255</title>
<path fill="none" stroke="#191970" d="M131.4778,-48C140.2061,-48 148.8977,-48 156.9975,-48"/>
<polygon fill="#191970" stroke="#191970" points="131.2482,-44.5001 121.2481,-48 131.2481,-51.5001 131.2482,-44.5001"/>
</g>
<!-- Node256 -->
<g id="node3" class="node">
<title>Node256</title>
<g id="a_node3"><a xlink:href="$da/df2/dct__data__utils_8c.html#ae02f18f71dc9264cc0b5b5b5638e6db2" xlink:title="DCT_Perfom_Filter">
<polygon fill="#ffffff" stroke="#000000" points="277,-38.5 277,-57.5 358,-57.5 358,-38.5 277,-38.5"/>
<text text-anchor="middle" x="317.5" y="-45.5" font-family="Helvetica,sans-Serif" font-size="10.00" fill="#000000">DCT_Perfom_Filter</text>
</a>
</g>
</g>
<!-- Node255&#45;&gt;Node256 -->
<g id="edge2" class="edge">
<title>Node255&#45;&gt;Node256</title>
<path fill="none" stroke="#191970" d="M251.3416,-48C259.8452,-48 268.5414,-48 276.7164,-48"/>
<polygon fill="#191970" stroke="#191970" points="251.1124,-44.5001 241.1123,-48 251.1123,-51.5001 251.1124,-44.5001"/>
</g>
<!-- Node257 -->
<g id="node4" class="node">
<title>Node257</title>
<g id="a_node4"><a xlink:href="$d9/db0/dct__comm__data_8c.html#a80cf73b4edccdb6e21c4e203f9d1c37b" xlink:title="DCT_Recv_Field">
<polygon fill="#ffffff" stroke="#000000" points="398,-76.5 398,-95.5 472,-95.5 472,-76.5 398,-76.5"/>
<text text-anchor="middle" x="435" y="-83.5" font-family="Helvetica,sans-Serif" font-size="10.00" fill="#000000">DCT_Recv_Field</text>
</a>
</g>
</g>
<!-- Node256&#45;&gt;Node257 -->
<g id="edge3" class="edge">
<title>Node256&#45;&gt;Node257</title>
<path fill="none" stroke="#191970" d="M356.7092,-60.6804C372.5854,-65.8148 390.61,-71.6441 405.3593,-76.4141"/>
<polygon fill="#191970" stroke="#191970" points="357.742,-57.336 347.1502,-57.589 355.588,-63.9964 357.742,-57.336"/>
</g>
<!-- Node258 -->
<g id="node5" class="node">
<title>Node258</title>
<g id="a_node5"><a xlink:href="$d9/db0/dct__comm__data_8c.html#ae8b687923ced739386283b246af66153" xlink:title="DCT_Recv_3d_Var">
<polygon fill="#ffffff" stroke="#000000" points="394,-38.5 394,-57.5 476,-57.5 476,-38.5 394,-38.5"/>
<text text-anchor="middle" x="435" y="-45.5" font-family="Helvetica,sans-Serif" font-size="10.00" fill="#000000">DCT_Recv_3d_Var</text>
</a>
</g>
</g>
<!-- Node256&#45;&gt;Node258 -->
<g id="edge4" class="edge">
<title>Node256&#45;&gt;Node258</title>
<path fill="none" stroke="#191970" d="M368.475,-48C376.9746,-48 385.6951,-48 393.9081,-48"/>
<polygon fill="#191970" stroke="#191970" points="368.2661,-44.5001 358.266,-48 368.266,-51.5001 368.2661,-44.5001"/>
</g>
<!-- Node259 -->
<g id="node6" class="node">
<title>Node259</title>
<g id="a_node6"><a xlink:href="$d9/db0/dct__comm__data_8c.html#a4aff755a39f91fe7fe9513254c7ab810" xlink:title="DCT_Recv_4d_Var">
<polygon fill="#ffffff" stroke="#000000" points="394,-.5 394,-19.5 476,-19.5 476,-.5 394,-.5"/>
<text text-anchor="middle" x="435" y="-7.5" font-family="Helvetica,sans-Serif" font-size="10.00" fill="#000000">DCT_Recv_4d_Var</text>
</a>
</g>
</g>
<!-- Node256&#45;&gt;Node259 -->
<g id="edge5" class="edge">
<title>Node256&#45;&gt;Node259</title>
<path fill="none" stroke="#191970" d="M356.7092,-35.3196C372.5854,-30.1852 390.61,-24.3559 405.3593,-19.5859"/>
<polygon fill="#191970" stroke="#191970" points="355.588,-32.0036 347.1502,-38.411 357.742,-38.664 355.588,-32.0036"/>
</g>
</g>
</svg>
