<?xml version="1.0" encoding="UTF-8" standalone="no"?>
<!DOCTYPE svg PUBLIC "-//W3C//DTD SVG 1.1//EN"
 "http://www.w3.org/Graphics/SVG/1.1/DTD/svg11.dtd">
<!-- Generated by graphviz version 2.40.1 (20161225.0304)
 -->
<!-- Title: DCT_SubDom_ListOrder Pages: 1 -->
<svg width="243pt" height="28pt"
 viewBox="0.00 0.00 243.00 28.00" xmlns="http://www.w3.org/2000/svg" xmlns:xlink="http://www.w3.org/1999/xlink">
<g id="graph0" class="graph" transform="scale(1 1) rotate(0) translate(4 24)">
<title>DCT_SubDom_ListOrder</title>
<polygon fill="#ffffff" stroke="transparent" points="-4,4 -4,-24 239,-24 239,4 -4,4"/>
<!-- Node32 -->
<g id="node1" class="node">
<title>Node32</title>
<polygon fill="#bfbfbf" stroke="#000000" points="0,-.5 0,-19.5 100,-19.5 100,-.5 0,-.5"/>
<text text-anchor="middle" x="50" y="-7.5" font-family="Helvetica,sans-Serif" font-size="10.00" fill="#000000">DCT_SubDom_ListOrder</text>
</g>
<!-- Node33 -->
<g id="node2" class="node">
<title>Node33</title>
<g id="a_node2"><a xlink:href="../../da/df2/dct__data__utils_8c.html#a654eccb004482b8a816ff3b93d39073e" target="_top" xlink:title="DCT_Comp_SubDomain">
<polygon fill="#ffffff" stroke="#000000" points="136,-.5 136,-19.5 235,-19.5 235,-.5 136,-.5"/>
<text text-anchor="middle" x="185.5" y="-7.5" font-family="Helvetica,sans-Serif" font-size="10.00" fill="#000000">DCT_Comp_SubDomain</text>
</a>
</g>
</g>
<!-- Node32&#45;&gt;Node33 -->
<g id="edge1" class="edge">
<title>Node32&#45;&gt;Node33</title>
<path fill="none" stroke="#191970" d="M100.0702,-10C108.3241,-10 116.9544,-10 125.4226,-10"/>
<polygon fill="#191970" stroke="#191970" points="125.6356,-13.5001 135.6356,-10 125.6355,-6.5001 125.6356,-13.5001"/>
</g>
</g>
</svg>
