<?xml version="1.0" encoding="UTF-8" standalone="no"?>
<!DOCTYPE svg PUBLIC "-//W3C//DTD SVG 1.1//EN"
 "http://www.w3.org/Graphics/SVG/1.1/DTD/svg11.dtd">
<!-- Generated by graphviz version 2.40.1 (20161225.0304)
 -->
<!-- Title: DCT_GC_index_bsearch Pages: 1 -->
<svg width="506pt" height="28pt"
 viewBox="0.00 0.00 506.00 28.00" xmlns="http://www.w3.org/2000/svg" xmlns:xlink="http://www.w3.org/1999/xlink">
<g id="graph0" class="graph" transform="scale(1 1) rotate(0) translate(4 24)">
<title>DCT_GC_index_bsearch</title>
<polygon fill="#ffffff" stroke="transparent" points="-4,4 -4,-24 502,-24 502,4 -4,4"/>
<!-- Node49 -->
<g id="node1" class="node">
<title>Node49</title>
<polygon fill="#bfbfbf" stroke="#000000" points="0,-.5 0,-19.5 100,-19.5 100,-.5 0,-.5"/>
<text text-anchor="middle" x="50" y="-7.5" font-family="Helvetica,sans-Serif" font-size="10.00" fill="#000000">DCT_GC_index_bsearch</text>
</g>
<!-- Node50 -->
<g id="node2" class="node">
<title>Node50</title>
<g id="a_node2"><a xlink:href="../../da/df2/dct__data__utils_8c.html#a715cf4d8d886cf0217e7b4dfc7bc1617" target="_top" xlink:title="DCT_IncludedValues_GC">
<polygon fill="#ffffff" stroke="#000000" points="136,-.5 136,-19.5 239,-19.5 239,-.5 136,-.5"/>
<text text-anchor="middle" x="187.5" y="-7.5" font-family="Helvetica,sans-Serif" font-size="10.00" fill="#000000">DCT_IncludedValues_GC</text>
</a>
</g>
</g>
<!-- Node49&#45;&gt;Node50 -->
<g id="edge1" class="edge">
<title>Node49&#45;&gt;Node50</title>
<path fill="none" stroke="#191970" d="M110.3103,-10C118.8397,-10 127.5451,-10 135.8905,-10"/>
<polygon fill="#191970" stroke="#191970" points="110.0297,-6.5001 100.0296,-10 110.0296,-13.5001 110.0297,-6.5001"/>
</g>
<!-- Node51 -->
<g id="node3" class="node">
<title>Node51</title>
<g id="a_node3"><a xlink:href="../../dc/d6c/dct__mpi__comm_8c.html#ad555828d99a5145741097703f9831f87" target="_top" xlink:title="DCT_ProduceVar_Comm">
<polygon fill="#ffffff" stroke="#000000" points="275,-.5 275,-19.5 377,-19.5 377,-.5 275,-.5"/>
<text text-anchor="middle" x="326" y="-7.5" font-family="Helvetica,sans-Serif" font-size="10.00" fill="#000000">DCT_ProduceVar_Comm</text>
</a>
</g>
</g>
<!-- Node50&#45;&gt;Node51 -->
<g id="edge2" class="edge">
<title>Node50&#45;&gt;Node51</title>
<path fill="none" stroke="#191970" d="M249.0744,-10C257.685,-10 266.456,-10 274.8458,-10"/>
<polygon fill="#191970" stroke="#191970" points="249.0723,-6.5001 239.0723,-10 249.0723,-13.5001 249.0723,-6.5001"/>
</g>
<!-- Node52 -->
<g id="node4" class="node">
<title>Node52</title>
<g id="a_node4"><a xlink:href="../../d8/d17/dct__broker_8c.html#aa8e0aa98031488e106f16272b3b4fcdd" target="_top" xlink:title="DCT_VarComm_Set">
<polygon fill="#ffffff" stroke="#000000" points="413,-.5 413,-19.5 498,-19.5 498,-.5 413,-.5"/>
<text text-anchor="middle" x="455.5" y="-7.5" font-family="Helvetica,sans-Serif" font-size="10.00" fill="#000000">DCT_VarComm_Set</text>
</a>
</g>
</g>
<!-- Node51&#45;&gt;Node52 -->
<g id="edge3" class="edge">
<title>Node51&#45;&gt;Node52</title>
<path fill="none" stroke="#191970" d="M387.1953,-10C395.7891,-10 404.4667,-10 412.62,-10"/>
<polygon fill="#191970" stroke="#191970" points="387.1819,-6.5001 377.1818,-10 387.1818,-13.5001 387.1819,-6.5001"/>
</g>
</g>
</svg>
