<?xml version="1.0" encoding="UTF-8" standalone="no"?>
<!DOCTYPE svg PUBLIC "-//W3C//DTD SVG 1.1//EN"
 "http://www.w3.org/Graphics/SVG/1.1/DTD/svg11.dtd">
<!-- Generated by graphviz version 2.40.1 (20161225.0304)
 -->
<!-- Title: DCT_IncludedValues_GC Pages: 1 -->
<svg width="247pt" height="28pt"
 viewBox="0.00 0.00 247.00 28.00" xmlns="http://www.w3.org/2000/svg" xmlns:xlink="http://www.w3.org/1999/xlink">
<g id="graph0" class="graph" transform="scale(1 1) rotate(0) translate(4 24)">
<title>DCT_IncludedValues_GC</title>
<polygon fill="#ffffff" stroke="transparent" points="-4,4 -4,-24 243,-24 243,4 -4,4"/>
<!-- Node137 -->
<g id="node1" class="node">
<title>Node137</title>
<polygon fill="#bfbfbf" stroke="#000000" points="0,-.5 0,-19.5 103,-19.5 103,-.5 0,-.5"/>
<text text-anchor="middle" x="51.5" y="-7.5" font-family="Helvetica,sans-Serif" font-size="10.00" fill="#000000">DCT_IncludedValues_GC</text>
</g>
<!-- Node138 -->
<g id="node2" class="node">
<title>Node138</title>
<g id="a_node2"><a xlink:href="../../da/df2/dct__data__utils_8c.html#ae6bc571c3206b76d862d5034ac958b46" target="_top" xlink:title="DCT_GC_index_bsearch">
<polygon fill="#ffffff" stroke="#000000" points="139,-.5 139,-19.5 239,-19.5 239,-.5 139,-.5"/>
<text text-anchor="middle" x="189" y="-7.5" font-family="Helvetica,sans-Serif" font-size="10.00" fill="#000000">DCT_GC_index_bsearch</text>
</a>
</g>
</g>
<!-- Node137&#45;&gt;Node138 -->
<g id="edge1" class="edge">
<title>Node137&#45;&gt;Node138</title>
<path fill="none" stroke="#191970" d="M103.0911,-10C111.4342,-10 120.1375,-10 128.6654,-10"/>
<polygon fill="#191970" stroke="#191970" points="128.9446,-13.5001 138.9445,-10 128.9445,-6.5001 128.9446,-13.5001"/>
</g>
</g>
</svg>
