<?xml version="1.0" encoding="UTF-8" standalone="no"?>
<!DOCTYPE svg PUBLIC "-//W3C//DTD SVG 1.1//EN"
 "http://www.w3.org/Graphics/SVG/1.1/DTD/svg11.dtd">
<!-- Generated by graphviz version 2.40.1 (20161225.0304)
 -->
<!-- Title: DCT_List_CHKAdd Pages: 1 -->
<svg width="368pt" height="180pt"
 viewBox="0.00 0.00 368.00 180.00" xmlns="http://www.w3.org/2000/svg" xmlns:xlink="http://www.w3.org/1999/xlink">
<g id="graph0" class="graph" transform="scale(1 1) rotate(0) translate(4 176)">
<title>DCT_List_CHKAdd</title>
<polygon fill="#ffffff" stroke="transparent" points="-4,4 -4,-176 364,-176 364,4 -4,4"/>
<!-- Node200 -->
<g id="node1" class="node">
<title>Node200</title>
<polygon fill="#bfbfbf" stroke="#000000" points="0,-76.5 0,-95.5 81,-95.5 81,-76.5 0,-76.5"/>
<text text-anchor="middle" x="40.5" y="-83.5" font-family="Helvetica,sans-Serif" font-size="10.00" fill="#000000">DCT_List_CHKAdd</text>
</g>
<!-- Node201 -->
<g id="node2" class="node">
<title>Node201</title>
<g id="a_node2"><a xlink:href="../../d4/d9f/dct__3d__var_8c.html#a037051ac4c366398d3c0471059189341" target="_top" xlink:title="DCT_Create_3d_Var">
<polygon fill="#ffffff" stroke="#000000" points="117,-152.5 117,-171.5 204,-171.5 204,-152.5 117,-152.5"/>
<text text-anchor="middle" x="160.5" y="-159.5" font-family="Helvetica,sans-Serif" font-size="10.00" fill="#000000">DCT_Create_3d_Var</text>
</a>
</g>
</g>
<!-- Node200&#45;&gt;Node201 -->
<g id="edge1" class="edge">
<title>Node200&#45;&gt;Node201</title>
<path fill="none" stroke="#191970" d="M59.8404,-102.3626C74.8136,-114.5358 96.4062,-131.0419 117,-143 122.8439,-146.3933 129.4071,-149.5622 135.6293,-152.3023"/>
<polygon fill="#191970" stroke="#191970" points="61.7867,-99.4307 51.8469,-95.763 57.33,-104.8287 61.7867,-99.4307"/>
</g>
<!-- Node204 -->
<g id="node5" class="node">
<title>Node204</title>
<g id="a_node5"><a xlink:href="../../d8/de0/dct__4d__var_8c.html#aa040b8ebf1a0a7433b7505419d853fa9" target="_top" xlink:title="DCT_Create_4d_Var">
<polygon fill="#ffffff" stroke="#000000" points="117,-114.5 117,-133.5 204,-133.5 204,-114.5 117,-114.5"/>
<text text-anchor="middle" x="160.5" y="-121.5" font-family="Helvetica,sans-Serif" font-size="10.00" fill="#000000">DCT_Create_4d_Var</text>
</a>
</g>
</g>
<!-- Node200&#45;&gt;Node204 -->
<g id="edge4" class="edge">
<title>Node200&#45;&gt;Node204</title>
<path fill="none" stroke="#191970" d="M80.5435,-98.6804C96.7574,-103.8148 115.1656,-109.6441 130.2286,-114.4141"/>
<polygon fill="#191970" stroke="#191970" points="81.3711,-95.2713 70.7811,-95.589 79.2578,-101.9447 81.3711,-95.2713"/>
</g>
<!-- Node205 -->
<g id="node6" class="node">
<title>Node205</title>
<g id="a_node6"><a xlink:href="../../d4/df6/dct__coupler_8c.html#a5d507d005bf7686921f17010bef57215" target="_top" xlink:title="DCT_Create_Couple">
<polygon fill="#ffffff" stroke="#000000" points="117,-38.5 117,-57.5 204,-57.5 204,-38.5 117,-38.5"/>
<text text-anchor="middle" x="160.5" y="-45.5" font-family="Helvetica,sans-Serif" font-size="10.00" fill="#000000">DCT_Create_Couple</text>
</a>
</g>
</g>
<!-- Node200&#45;&gt;Node205 -->
<g id="edge7" class="edge">
<title>Node200&#45;&gt;Node205</title>
<path fill="none" stroke="#191970" d="M80.5435,-73.3196C96.7574,-68.1852 115.1656,-62.3559 130.2286,-57.5859"/>
<polygon fill="#191970" stroke="#191970" points="79.2578,-70.0553 70.7811,-76.411 81.3711,-76.7287 79.2578,-70.0553"/>
</g>
<!-- Node206 -->
<g id="node7" class="node">
<title>Node206</title>
<g id="a_node7"><a xlink:href="../../d3/d1a/dct__fields_8c.html#a1bd471bf447528478da518f26850bce7" target="_top" xlink:title="DCT_Create_Field">
<polygon fill="#ffffff" stroke="#000000" points="121,-76.5 121,-95.5 200,-95.5 200,-76.5 121,-76.5"/>
<text text-anchor="middle" x="160.5" y="-83.5" font-family="Helvetica,sans-Serif" font-size="10.00" fill="#000000">DCT_Create_Field</text>
</a>
</g>
</g>
<!-- Node200&#45;&gt;Node206 -->
<g id="edge8" class="edge">
<title>Node200&#45;&gt;Node206</title>
<path fill="none" stroke="#191970" d="M91.2293,-86C101.0869,-86 111.2866,-86 120.7292,-86"/>
<polygon fill="#191970" stroke="#191970" points="91.1266,-82.5001 81.1265,-86 91.1265,-89.5001 91.1266,-82.5001"/>
</g>
<!-- Node207 -->
<g id="node8" class="node">
<title>Node207</title>
<g id="a_node8"><a xlink:href="../../d2/d10/dct__model_8c.html#a085c949d0bbaecb9ee41893746a0b4ff" target="_top" xlink:title="DCT_Create_Model">
<polygon fill="#ffffff" stroke="#000000" points="119,-.5 119,-19.5 202,-19.5 202,-.5 119,-.5"/>
<text text-anchor="middle" x="160.5" y="-7.5" font-family="Helvetica,sans-Serif" font-size="10.00" fill="#000000">DCT_Create_Model</text>
</a>
</g>
</g>
<!-- Node200&#45;&gt;Node207 -->
<g id="edge11" class="edge">
<title>Node200&#45;&gt;Node207</title>
<path fill="none" stroke="#191970" d="M59.8404,-69.6374C74.8136,-57.4642 96.4062,-40.9581 117,-29 122.8439,-25.6067 129.4071,-22.4378 135.6293,-19.6977"/>
<polygon fill="#191970" stroke="#191970" points="57.33,-67.1713 51.8469,-76.237 61.7867,-72.5693 57.33,-67.1713"/>
</g>
<!-- Node202 -->
<g id="node3" class="node">
<title>Node202</title>
<g id="a_node3"><a xlink:href="../../d2/d10/dct__model_8c.html#aab56e7e14f2936826ecf07bd05cfd47e" target="_top" xlink:title="DCT_Set_Model_Production">
<polygon fill="#ffffff" stroke="#000000" points="244,-133.5 244,-152.5 356,-152.5 356,-133.5 244,-133.5"/>
<text text-anchor="middle" x="300" y="-140.5" font-family="Helvetica,sans-Serif" font-size="10.00" fill="#000000">DCT_Set_Model_Production</text>
</a>
</g>
</g>
<!-- Node201&#45;&gt;Node202 -->
<g id="edge2" class="edge">
<title>Node201&#45;&gt;Node202</title>
<path fill="none" stroke="#191970" d="M214.1857,-154.688C223.8996,-153.3649 234.053,-151.982 243.8356,-150.6496"/>
<polygon fill="#191970" stroke="#191970" points="213.6921,-151.2228 204.2559,-156.0404 214.6368,-158.1588 213.6921,-151.2228"/>
</g>
<!-- Node203 -->
<g id="node4" class="node">
<title>Node203</title>
<g id="a_node4"><a xlink:href="../../d2/d10/dct__model_8c.html#ab07afaee46ee6fa2bd31653c5b4351ed" target="_top" xlink:title="DCT_Set_Model_Consumption">
<polygon fill="#ffffff" stroke="#000000" points="240,-95.5 240,-114.5 360,-114.5 360,-95.5 240,-95.5"/>
<text text-anchor="middle" x="300" y="-102.5" font-family="Helvetica,sans-Serif" font-size="10.00" fill="#000000">DCT_Set_Model_Consumption</text>
</a>
</g>
</g>
<!-- Node201&#45;&gt;Node203 -->
<g id="edge3" class="edge">
<title>Node201&#45;&gt;Node203</title>
<path fill="none" stroke="#191970" d="M192.6412,-148.281C196.4881,-146.5449 200.3454,-144.7596 204,-143 220.3007,-135.1517 223.3095,-130.981 240,-124 248.3666,-120.5006 257.6151,-117.2731 266.2941,-114.509"/>
<polygon fill="#191970" stroke="#191970" points="190.9477,-145.203 183.2214,-152.4524 193.7821,-151.6035 190.9477,-145.203"/>
</g>
<!-- Node204&#45;&gt;Node202 -->
<g id="edge5" class="edge">
<title>Node204&#45;&gt;Node202</title>
<path fill="none" stroke="#191970" d="M214.1857,-131.312C223.8996,-132.6351 234.053,-134.018 243.8356,-135.3504"/>
<polygon fill="#191970" stroke="#191970" points="214.6368,-127.8412 204.2559,-129.9596 213.6921,-134.7772 214.6368,-127.8412"/>
</g>
<!-- Node204&#45;&gt;Node203 -->
<g id="edge6" class="edge">
<title>Node204&#45;&gt;Node203</title>
<path fill="none" stroke="#191970" d="M214.256,-116.6784C222.6145,-115.54 231.2967,-114.3574 239.7869,-113.2011"/>
<polygon fill="#191970" stroke="#191970" points="213.6921,-113.2228 204.2559,-118.0404 214.6368,-120.1588 213.6921,-113.2228"/>
</g>
<!-- Node206&#45;&gt;Node202 -->
<g id="edge9" class="edge">
<title>Node206&#45;&gt;Node202</title>
<path fill="none" stroke="#191970" d="M192.6412,-99.719C196.4881,-101.4551 200.3454,-103.2404 204,-105 220.3007,-112.8483 223.3095,-117.019 240,-124 248.3666,-127.4994 257.6151,-130.7269 266.2941,-133.491"/>
<polygon fill="#191970" stroke="#191970" points="193.7821,-96.3965 183.2214,-95.5476 190.9477,-102.797 193.7821,-96.3965"/>
</g>
<!-- Node206&#45;&gt;Node203 -->
<g id="edge10" class="edge">
<title>Node206&#45;&gt;Node203</title>
<path fill="none" stroke="#191970" d="M210.2818,-92.7803C219.899,-94.0902 230.0693,-95.4754 239.9729,-96.8243"/>
<polygon fill="#191970" stroke="#191970" points="210.4828,-89.2755 200.102,-91.3938 209.5381,-96.2114 210.4828,-89.2755"/>
</g>
</g>
</svg>
