<?xml version="1.0" encoding="UTF-8" standalone="no"?>
<!DOCTYPE svg PUBLIC "-//W3C//DTD SVG 1.1//EN"
 "http://www.w3.org/Graphics/SVG/1.1/DTD/svg11.dtd">
<!-- Generated by graphviz version 2.40.1 (20161225.0304)
 -->
<!-- Title: double_Msk_UnitConvertion Pages: 1 -->
<svg width="387pt" height="104pt"
 viewBox="0.00 0.00 387.00 104.00" xmlns="http://www.w3.org/2000/svg" xmlns:xlink="http://www.w3.org/1999/xlink">
<g id="graph0" class="graph" transform="scale(1 1) rotate(0) translate(4 100)">
<title>double_Msk_UnitConvertion</title>
<polygon fill="#ffffff" stroke="transparent" points="-4,4 -4,-100 383,-100 383,4 -4,4"/>
<!-- Node409 -->
<g id="node1" class="node">
<title>Node409</title>
<polygon fill="#bfbfbf" stroke="#000000" points="0,-38.5 0,-57.5 111,-57.5 111,-38.5 0,-38.5"/>
<text text-anchor="middle" x="55.5" y="-45.5" font-family="Helvetica,sans-Serif" font-size="10.00" fill="#000000">double_Msk_UnitConvertion</text>
</g>
<!-- Node410 -->
<g id="node2" class="node">
<title>Node410</title>
<g id="a_node2"><a xlink:href="../../da/df2/dct__data__utils_8c.html#ac855428e049ce85594928b6705e6498e" target="_top" xlink:title="DCT_Perfom_UnitConvertion">
<polygon fill="#ffffff" stroke="#000000" points="147,-38.5 147,-57.5 261,-57.5 261,-38.5 147,-38.5"/>
<text text-anchor="middle" x="204" y="-45.5" font-family="Helvetica,sans-Serif" font-size="10.00" fill="#000000">DCT_Perfom_UnitConvertion</text>
</a>
</g>
</g>
<!-- Node409&#45;&gt;Node410 -->
<g id="edge1" class="edge">
<title>Node409&#45;&gt;Node410</title>
<path fill="none" stroke="#191970" d="M121.4864,-48C129.9888,-48 138.6375,-48 146.9792,-48"/>
<polygon fill="#191970" stroke="#191970" points="121.2184,-44.5001 111.2184,-48 121.2184,-51.5001 121.2184,-44.5001"/>
</g>
<!-- Node411 -->
<g id="node3" class="node">
<title>Node411</title>
<g id="a_node3"><a xlink:href="../../d9/db0/dct__comm__data_8c.html#a80cf73b4edccdb6e21c4e203f9d1c37b" target="_top" xlink:title="DCT_Recv_Field">
<polygon fill="#ffffff" stroke="#000000" points="301,-76.5 301,-95.5 375,-95.5 375,-76.5 301,-76.5"/>
<text text-anchor="middle" x="338" y="-83.5" font-family="Helvetica,sans-Serif" font-size="10.00" fill="#000000">DCT_Recv_Field</text>
</a>
</g>
</g>
<!-- Node410&#45;&gt;Node411 -->
<g id="edge2" class="edge">
<title>Node410&#45;&gt;Node411</title>
<path fill="none" stroke="#191970" d="M247.4383,-60.3183C265.8491,-65.5393 286.9798,-71.5316 304.197,-76.4141"/>
<polygon fill="#191970" stroke="#191970" points="248.3894,-56.9501 237.8139,-57.589 246.4796,-63.6845 248.3894,-56.9501"/>
</g>
<!-- Node412 -->
<g id="node4" class="node">
<title>Node412</title>
<g id="a_node4"><a xlink:href="../../d9/db0/dct__comm__data_8c.html#ae8b687923ced739386283b246af66153" target="_top" xlink:title="DCT_Recv_3d_Var">
<polygon fill="#ffffff" stroke="#000000" points="297,-38.5 297,-57.5 379,-57.5 379,-38.5 297,-38.5"/>
<text text-anchor="middle" x="338" y="-45.5" font-family="Helvetica,sans-Serif" font-size="10.00" fill="#000000">DCT_Recv_3d_Var</text>
</a>
</g>
</g>
<!-- Node410&#45;&gt;Node412 -->
<g id="edge3" class="edge">
<title>Node410&#45;&gt;Node412</title>
<path fill="none" stroke="#191970" d="M271.3659,-48C280.038,-48 288.7019,-48 296.7764,-48"/>
<polygon fill="#191970" stroke="#191970" points="271.2168,-44.5001 261.2167,-48 271.2167,-51.5001 271.2168,-44.5001"/>
</g>
<!-- Node413 -->
<g id="node5" class="node">
<title>Node413</title>
<g id="a_node5"><a xlink:href="../../d9/db0/dct__comm__data_8c.html#a4aff755a39f91fe7fe9513254c7ab810" target="_top" xlink:title="DCT_Recv_4d_Var">
<polygon fill="#ffffff" stroke="#000000" points="297,-.5 297,-19.5 379,-19.5 379,-.5 297,-.5"/>
<text text-anchor="middle" x="338" y="-7.5" font-family="Helvetica,sans-Serif" font-size="10.00" fill="#000000">DCT_Recv_4d_Var</text>
</a>
</g>
</g>
<!-- Node410&#45;&gt;Node413 -->
<g id="edge4" class="edge">
<title>Node410&#45;&gt;Node413</title>
<path fill="none" stroke="#191970" d="M247.4383,-35.6817C265.8491,-30.4607 286.9798,-24.4684 304.197,-19.5859"/>
<polygon fill="#191970" stroke="#191970" points="246.4796,-32.3155 237.8139,-38.411 248.3894,-39.0499 246.4796,-32.3155"/>
</g>
</g>
</svg>
