<?xml version="1.0" encoding="UTF-8" standalone="no"?>
<!DOCTYPE svg PUBLIC "-//W3C//DTD SVG 1.1//EN"
 "http://www.w3.org/Graphics/SVG/1.1/DTD/svg11.dtd">
<!-- Generated by graphviz version 2.40.1 (20161225.0304)
 -->
<!-- Title: DCT_Check_Intersec Pages: 1 -->
<svg width="237pt" height="28pt"
 viewBox="0.00 0.00 237.00 28.00" xmlns="http://www.w3.org/2000/svg" xmlns:xlink="http://www.w3.org/1999/xlink">
<g id="graph0" class="graph" transform="scale(1 1) rotate(0) translate(4 24)">
<title>DCT_Check_Intersec</title>
<polygon fill="#ffffff" stroke="transparent" points="-4,4 -4,-24 233,-24 233,4 -4,4"/>
<!-- Node11 -->
<g id="node1" class="node">
<title>Node11</title>
<polygon fill="#bfbfbf" stroke="#000000" points="0,-.5 0,-19.5 88,-19.5 88,-.5 0,-.5"/>
<text text-anchor="middle" x="44" y="-7.5" font-family="Helvetica,sans-Serif" font-size="10.00" fill="#000000">DCT_Check_Intersec</text>
</g>
<!-- Node12 -->
<g id="node2" class="node">
<title>Node12</title>
<g id="a_node2"><a xlink:href="../../d2/d10/dct__model_8c.html#a4ef03b11869f6493edb978f216f36881" target="_top" xlink:title="DCT_Set_Model_SubDom">
<polygon fill="#ffffff" stroke="#000000" points="124,-.5 124,-19.5 229,-19.5 229,-.5 124,-.5"/>
<text text-anchor="middle" x="176.5" y="-7.5" font-family="Helvetica,sans-Serif" font-size="10.00" fill="#000000">DCT_Set_Model_SubDom</text>
</a>
</g>
</g>
<!-- Node11&#45;&gt;Node12 -->
<g id="edge1" class="edge">
<title>Node11&#45;&gt;Node12</title>
<path fill="none" stroke="#191970" d="M98.2545,-10C106.7036,-10 115.4221,-10 123.8351,-10"/>
<polygon fill="#191970" stroke="#191970" points="98.1206,-6.5001 88.1206,-10 98.1205,-13.5001 98.1206,-6.5001"/>
</g>
</g>
</svg>
