<?xml version="1.0" encoding="UTF-8" standalone="no"?>
<!DOCTYPE svg PUBLIC "-//W3C//DTD SVG 1.1//EN"
 "http://www.w3.org/Graphics/SVG/1.1/DTD/svg11.dtd">
<!-- Generated by graphviz version 2.40.1 (20161225.0304)
 -->
<!-- Title: DCT_CheckNoInterpolation Pages: 1 -->
<svg width="382pt" height="104pt"
 viewBox="0.00 0.00 382.00 104.00" xmlns="http://www.w3.org/2000/svg" xmlns:xlink="http://www.w3.org/1999/xlink">
<g id="graph0" class="graph" transform="scale(1 1) rotate(0) translate(4 100)">
<title>DCT_CheckNoInterpolation</title>
<polygon fill="#ffffff" stroke="transparent" points="-4,4 -4,-100 378,-100 378,4 -4,4"/>
<!-- Node321 -->
<g id="node1" class="node">
<title>Node321</title>
<polygon fill="#bfbfbf" stroke="#000000" points="0,-38.5 0,-57.5 108,-57.5 108,-38.5 0,-38.5"/>
<text text-anchor="middle" x="54" y="-45.5" font-family="Helvetica,sans-Serif" font-size="10.00" fill="#000000">DCT_CheckNoInterpolation</text>
</g>
<!-- Node322 -->
<g id="node2" class="node">
<title>Node322</title>
<g id="a_node2"><a xlink:href="../../da/df2/dct__data__utils_8c.html#a7b21bfcd675a7e8eeb06960ccfc03ff4" target="_top" xlink:title="DCT_IncludedIndex_Cartes">
<polygon fill="#ffffff" stroke="#000000" points="144,-76.5 144,-95.5 253,-95.5 253,-76.5 144,-76.5"/>
<text text-anchor="middle" x="198.5" y="-83.5" font-family="Helvetica,sans-Serif" font-size="10.00" fill="#000000">DCT_IncludedIndex_Cartes</text>
</a>
</g>
</g>
<!-- Node321&#45;&gt;Node322 -->
<g id="edge1" class="edge">
<title>Node321&#45;&gt;Node322</title>
<path fill="none" stroke="#191970" d="M90.4635,-57.589C109.2741,-62.5358 132.4146,-68.6211 152.4472,-73.8892"/>
<polygon fill="#191970" stroke="#191970" points="151.7374,-77.3215 162.2988,-76.4799 153.5177,-70.5517 151.7374,-77.3215"/>
</g>
<!-- Node323 -->
<g id="node3" class="node">
<title>Node323</title>
<g id="a_node3"><a xlink:href="../../da/df2/dct__data__utils_8c.html#ae30066cfcde99cbac1faaca5685124fb" target="_top" xlink:title="DCT_IncludedIndex_Rectil">
<polygon fill="#ffffff" stroke="#000000" points="145.5,-38.5 145.5,-57.5 251.5,-57.5 251.5,-38.5 145.5,-38.5"/>
<text text-anchor="middle" x="198.5" y="-45.5" font-family="Helvetica,sans-Serif" font-size="10.00" fill="#000000">DCT_IncludedIndex_Rectil</text>
</a>
</g>
</g>
<!-- Node321&#45;&gt;Node323 -->
<g id="edge2" class="edge">
<title>Node321&#45;&gt;Node323</title>
<path fill="none" stroke="#191970" d="M108.2176,-48C117.0617,-48 126.291,-48 135.3278,-48"/>
<polygon fill="#191970" stroke="#191970" points="135.418,-51.5001 145.418,-48 135.418,-44.5001 135.418,-51.5001"/>
</g>
<!-- Node325 -->
<g id="node5" class="node">
<title>Node325</title>
<g id="a_node5"><a xlink:href="../../da/df2/dct__data__utils_8c.html#aad612d07c1ca8b6cdcb901ce51518ad7" target="_top" xlink:title="DCT_Data_Allocate">
<polygon fill="#ffffff" stroke="#000000" points="157,-.5 157,-19.5 240,-19.5 240,-.5 157,-.5"/>
<text text-anchor="middle" x="198.5" y="-7.5" font-family="Helvetica,sans-Serif" font-size="10.00" fill="#000000">DCT_Data_Allocate</text>
</a>
</g>
</g>
<!-- Node321&#45;&gt;Node325 -->
<g id="edge4" class="edge">
<title>Node321&#45;&gt;Node325</title>
<path fill="none" stroke="#191970" d="M90.4635,-38.411C109.2741,-33.4642 132.4146,-27.3789 152.4472,-22.1108"/>
<polygon fill="#191970" stroke="#191970" points="153.5177,-25.4483 162.2988,-19.5201 151.7374,-18.6785 153.5177,-25.4483"/>
</g>
<!-- Node324 -->
<g id="node4" class="node">
<title>Node324</title>
<g id="a_node4"><a xlink:href="../../da/df2/dct__data__utils_8c.html#ab4c2668ba72029a38c2a6ad100c8a897" target="_top" xlink:title="DCT_index_bsearch">
<polygon fill="#ffffff" stroke="#000000" points="289,-38.5 289,-57.5 374,-57.5 374,-38.5 289,-38.5"/>
<text text-anchor="middle" x="331.5" y="-45.5" font-family="Helvetica,sans-Serif" font-size="10.00" fill="#000000">DCT_index_bsearch</text>
</a>
</g>
</g>
<!-- Node323&#45;&gt;Node324 -->
<g id="edge3" class="edge">
<title>Node323&#45;&gt;Node324</title>
<path fill="none" stroke="#191970" d="M251.8298,-48C260.6602,-48 269.8133,-48 278.6322,-48"/>
<polygon fill="#191970" stroke="#191970" points="278.7919,-51.5001 288.7919,-48 278.7918,-44.5001 278.7919,-51.5001"/>
</g>
</g>
</svg>
