<?xml version="1.0" encoding="UTF-8" standalone="no"?>
<!DOCTYPE svg PUBLIC "-//W3C//DTD SVG 1.1//EN"
 "http://www.w3.org/Graphics/SVG/1.1/DTD/svg11.dtd">
<!-- Generated by graphviz version 2.40.1 (20161225.0304)
 -->
<!-- Title: DCT_IncludedValues Pages: 1 -->
<svg width="484pt" height="88pt"
 viewBox="0.00 0.00 484.00 88.00" xmlns="http://www.w3.org/2000/svg" xmlns:xlink="http://www.w3.org/1999/xlink">
<g id="graph0" class="graph" transform="scale(1 1) rotate(0) translate(4 84)">
<title>DCT_IncludedValues</title>
<polygon fill="#ffffff" stroke="transparent" points="-4,4 -4,-84 480,-84 480,4 -4,4"/>
<!-- Node128 -->
<g id="node1" class="node">
<title>Node128</title>
<polygon fill="#bfbfbf" stroke="#000000" points="0,-30 0,-49 87,-49 87,-30 0,-30"/>
<text text-anchor="middle" x="43.5" y="-37" font-family="Helvetica,sans-Serif" font-size="10.00" fill="#000000">DCT_IncludedValues</text>
</g>
<!-- Node129 -->
<g id="node2" class="node">
<title>Node129</title>
<g id="a_node2"><a xlink:href="../../da/df2/dct__data__utils_8c.html#a74b531fae5465d65f94203c1ce8811ad" target="_top" xlink:title="DCT_IncludedValues\l_Cartes">
<polygon fill="#ffffff" stroke="#000000" points="123,-49.5 123,-79.5 210,-79.5 210,-49.5 123,-49.5"/>
<text text-anchor="start" x="131" y="-67.5" font-family="Helvetica,sans-Serif" font-size="10.00" fill="#000000">DCT_IncludedValues</text>
<text text-anchor="middle" x="166.5" y="-56.5" font-family="Helvetica,sans-Serif" font-size="10.00" fill="#000000">_Cartes</text>
</a>
</g>
</g>
<!-- Node128&#45;&gt;Node129 -->
<g id="edge1" class="edge">
<title>Node128&#45;&gt;Node129</title>
<path fill="none" stroke="#191970" d="M87.2115,-48.3845C95.5493,-50.0791 104.3644,-51.8708 112.9679,-53.6195"/>
<polygon fill="#191970" stroke="#191970" points="112.4324,-57.0822 122.9292,-55.6442 113.8268,-50.2224 112.4324,-57.0822"/>
</g>
<!-- Node131 -->
<g id="node4" class="node">
<title>Node131</title>
<g id="a_node4"><a xlink:href="../../da/df2/dct__data__utils_8c.html#abffb29683692372a756b8ee1e35fc836" target="_top" xlink:title="DCT_IncludedValues\l_Rectil">
<polygon fill="#ffffff" stroke="#000000" points="123,-.5 123,-30.5 210,-30.5 210,-.5 123,-.5"/>
<text text-anchor="start" x="131" y="-18.5" font-family="Helvetica,sans-Serif" font-size="10.00" fill="#000000">DCT_IncludedValues</text>
<text text-anchor="middle" x="166.5" y="-7.5" font-family="Helvetica,sans-Serif" font-size="10.00" fill="#000000">_Rectil</text>
</a>
</g>
</g>
<!-- Node128&#45;&gt;Node131 -->
<g id="edge3" class="edge">
<title>Node128&#45;&gt;Node131</title>
<path fill="none" stroke="#191970" d="M87.2115,-30.9709C95.5493,-29.344 104.3644,-27.624 112.9679,-25.9453"/>
<polygon fill="#191970" stroke="#191970" points="113.7846,-29.352 122.9292,-24.0016 112.444,-22.4816 113.7846,-29.352"/>
</g>
<!-- Node130 -->
<g id="node3" class="node">
<title>Node130</title>
<g id="a_node3"><a xlink:href="../../da/df2/dct__data__utils_8c.html#a7b21bfcd675a7e8eeb06960ccfc03ff4" target="_top" xlink:title="DCT_IncludedIndex_Cartes">
<polygon fill="#ffffff" stroke="#000000" points="246,-55 246,-74 355,-74 355,-55 246,-55"/>
<text text-anchor="middle" x="300.5" y="-62" font-family="Helvetica,sans-Serif" font-size="10.00" fill="#000000">DCT_IncludedIndex_Cartes</text>
</a>
</g>
</g>
<!-- Node129&#45;&gt;Node130 -->
<g id="edge2" class="edge">
<title>Node129&#45;&gt;Node130</title>
<path fill="none" stroke="#191970" d="M210.006,-64.5C218.245,-64.5 227.0268,-64.5 235.7574,-64.5"/>
<polygon fill="#191970" stroke="#191970" points="235.9473,-68.0001 245.9473,-64.5 235.9472,-61.0001 235.9473,-68.0001"/>
</g>
<!-- Node132 -->
<g id="node5" class="node">
<title>Node132</title>
<g id="a_node5"><a xlink:href="../../da/df2/dct__data__utils_8c.html#ae30066cfcde99cbac1faaca5685124fb" target="_top" xlink:title="DCT_IncludedIndex_Rectil">
<polygon fill="#ffffff" stroke="#000000" points="247.5,-6 247.5,-25 353.5,-25 353.5,-6 247.5,-6"/>
<text text-anchor="middle" x="300.5" y="-13" font-family="Helvetica,sans-Serif" font-size="10.00" fill="#000000">DCT_IncludedIndex_Rectil</text>
</a>
</g>
</g>
<!-- Node131&#45;&gt;Node132 -->
<g id="edge4" class="edge">
<title>Node131&#45;&gt;Node132</title>
<path fill="none" stroke="#191970" d="M210.006,-15.5C218.6677,-15.5 227.9293,-15.5 237.1006,-15.5"/>
<polygon fill="#191970" stroke="#191970" points="237.3803,-19.0001 247.3803,-15.5 237.3802,-12.0001 237.3803,-19.0001"/>
</g>
<!-- Node133 -->
<g id="node6" class="node">
<title>Node133</title>
<g id="a_node6"><a xlink:href="../../da/df2/dct__data__utils_8c.html#ab4c2668ba72029a38c2a6ad100c8a897" target="_top" xlink:title="DCT_index_bsearch">
<polygon fill="#ffffff" stroke="#000000" points="391,-6 391,-25 476,-25 476,-6 391,-6"/>
<text text-anchor="middle" x="433.5" y="-13" font-family="Helvetica,sans-Serif" font-size="10.00" fill="#000000">DCT_index_bsearch</text>
</a>
</g>
</g>
<!-- Node132&#45;&gt;Node133 -->
<g id="edge5" class="edge">
<title>Node132&#45;&gt;Node133</title>
<path fill="none" stroke="#191970" d="M353.8298,-15.5C362.6602,-15.5 371.8133,-15.5 380.6322,-15.5"/>
<polygon fill="#191970" stroke="#191970" points="380.7919,-19.0001 390.7919,-15.5 380.7918,-12.0001 380.7919,-19.0001"/>
</g>
</g>
</svg>
