<?xml version="1.0" encoding="UTF-8" standalone="no"?>
<!DOCTYPE svg PUBLIC "-//W3C//DTD SVG 1.1//EN"
 "http://www.w3.org/Graphics/SVG/1.1/DTD/svg11.dtd">
<!-- Generated by graphviz version 2.40.1 (20161225.0304)
 -->
<!-- Title: DCT_Perfom_UnitConvertion Pages: 1 -->
<svg width="240pt" height="104pt"
 viewBox="0.00 0.00 240.00 104.00" xmlns="http://www.w3.org/2000/svg" xmlns:xlink="http://www.w3.org/1999/xlink">
<g id="graph0" class="graph" transform="scale(1 1) rotate(0) translate(4 100)">
<title>DCT_Perfom_UnitConvertion</title>
<polygon fill="#ffffff" stroke="transparent" points="-4,4 -4,-100 236,-100 236,4 -4,4"/>
<!-- Node434 -->
<g id="node1" class="node">
<title>Node434</title>
<polygon fill="#bfbfbf" stroke="#000000" points="0,-38.5 0,-57.5 114,-57.5 114,-38.5 0,-38.5"/>
<text text-anchor="middle" x="57" y="-45.5" font-family="Helvetica,sans-Serif" font-size="10.00" fill="#000000">DCT_Perfom_UnitConvertion</text>
</g>
<!-- Node435 -->
<g id="node2" class="node">
<title>Node435</title>
<g id="a_node2"><a xlink:href="../../d9/db0/dct__comm__data_8c.html#a80cf73b4edccdb6e21c4e203f9d1c37b" target="_top" xlink:title="DCT_Recv_Field">
<polygon fill="#ffffff" stroke="#000000" points="154,-76.5 154,-95.5 228,-95.5 228,-76.5 154,-76.5"/>
<text text-anchor="middle" x="191" y="-83.5" font-family="Helvetica,sans-Serif" font-size="10.00" fill="#000000">DCT_Recv_Field</text>
</a>
</g>
</g>
<!-- Node434&#45;&gt;Node435 -->
<g id="edge1" class="edge">
<title>Node434&#45;&gt;Node435</title>
<path fill="none" stroke="#191970" d="M100.4383,-60.3183C118.8491,-65.5393 139.9798,-71.5316 157.197,-76.4141"/>
<polygon fill="#191970" stroke="#191970" points="101.3894,-56.9501 90.8139,-57.589 99.4796,-63.6845 101.3894,-56.9501"/>
</g>
<!-- Node436 -->
<g id="node3" class="node">
<title>Node436</title>
<g id="a_node3"><a xlink:href="../../d9/db0/dct__comm__data_8c.html#ae8b687923ced739386283b246af66153" target="_top" xlink:title="DCT_Recv_3d_Var">
<polygon fill="#ffffff" stroke="#000000" points="150,-38.5 150,-57.5 232,-57.5 232,-38.5 150,-38.5"/>
<text text-anchor="middle" x="191" y="-45.5" font-family="Helvetica,sans-Serif" font-size="10.00" fill="#000000">DCT_Recv_3d_Var</text>
</a>
</g>
</g>
<!-- Node434&#45;&gt;Node436 -->
<g id="edge2" class="edge">
<title>Node434&#45;&gt;Node436</title>
<path fill="none" stroke="#191970" d="M124.3659,-48C133.038,-48 141.7019,-48 149.7764,-48"/>
<polygon fill="#191970" stroke="#191970" points="124.2168,-44.5001 114.2167,-48 124.2167,-51.5001 124.2168,-44.5001"/>
</g>
<!-- Node437 -->
<g id="node4" class="node">
<title>Node437</title>
<g id="a_node4"><a xlink:href="../../d9/db0/dct__comm__data_8c.html#a4aff755a39f91fe7fe9513254c7ab810" target="_top" xlink:title="DCT_Recv_4d_Var">
<polygon fill="#ffffff" stroke="#000000" points="150,-.5 150,-19.5 232,-19.5 232,-.5 150,-.5"/>
<text text-anchor="middle" x="191" y="-7.5" font-family="Helvetica,sans-Serif" font-size="10.00" fill="#000000">DCT_Recv_4d_Var</text>
</a>
</g>
</g>
<!-- Node434&#45;&gt;Node437 -->
<g id="edge3" class="edge">
<title>Node434&#45;&gt;Node437</title>
<path fill="none" stroke="#191970" d="M100.4383,-35.6817C118.8491,-30.4607 139.9798,-24.4684 157.197,-19.5859"/>
<polygon fill="#191970" stroke="#191970" points="99.4796,-32.3155 90.8139,-38.411 101.3894,-39.0499 99.4796,-32.3155"/>
</g>
</g>
</svg>
