<?xml version="1.0" encoding="UTF-8" standalone="no"?>
<!DOCTYPE svg PUBLIC "-//W3C//DTD SVG 1.1//EN"
 "http://www.w3.org/Graphics/SVG/1.1/DTD/svg11.dtd">
<!-- Generated by graphviz version 2.40.1 (20161225.0304)
 -->
<!-- Title: float_UnitConvertion Pages: 1 -->
<svg width="360pt" height="104pt"
 viewBox="0.00 0.00 360.00 104.00" xmlns="http://www.w3.org/2000/svg" xmlns:xlink="http://www.w3.org/1999/xlink">
<g id="graph0" class="graph" transform="scale(1 1) rotate(0) translate(4 100)">
<title>float_UnitConvertion</title>
<polygon fill="#ffffff" stroke="transparent" points="-4,4 -4,-100 356,-100 356,4 -4,4"/>
<!-- Node397 -->
<g id="node1" class="node">
<title>Node397</title>
<polygon fill="#bfbfbf" stroke="#000000" points="0,-38.5 0,-57.5 84,-57.5 84,-38.5 0,-38.5"/>
<text text-anchor="middle" x="42" y="-45.5" font-family="Helvetica,sans-Serif" font-size="10.00" fill="#000000">float_UnitConvertion</text>
</g>
<!-- Node398 -->
<g id="node2" class="node">
<title>Node398</title>
<g id="a_node2"><a xlink:href="../../da/df2/dct__data__utils_8c.html#ac855428e049ce85594928b6705e6498e" target="_top" xlink:title="DCT_Perfom_UnitConvertion">
<polygon fill="#ffffff" stroke="#000000" points="120,-38.5 120,-57.5 234,-57.5 234,-38.5 120,-38.5"/>
<text text-anchor="middle" x="177" y="-45.5" font-family="Helvetica,sans-Serif" font-size="10.00" fill="#000000">DCT_Perfom_UnitConvertion</text>
</a>
</g>
</g>
<!-- Node397&#45;&gt;Node398 -->
<g id="edge1" class="edge">
<title>Node397&#45;&gt;Node398</title>
<path fill="none" stroke="#191970" d="M94.372,-48C102.7569,-48 111.4701,-48 119.9573,-48"/>
<polygon fill="#191970" stroke="#191970" points="94.3445,-44.5001 84.3444,-48 94.3444,-51.5001 94.3445,-44.5001"/>
</g>
<!-- Node399 -->
<g id="node3" class="node">
<title>Node399</title>
<g id="a_node3"><a xlink:href="../../d9/db0/dct__comm__data_8c.html#a80cf73b4edccdb6e21c4e203f9d1c37b" target="_top" xlink:title="DCT_Recv_Field">
<polygon fill="#ffffff" stroke="#000000" points="274,-76.5 274,-95.5 348,-95.5 348,-76.5 274,-76.5"/>
<text text-anchor="middle" x="311" y="-83.5" font-family="Helvetica,sans-Serif" font-size="10.00" fill="#000000">DCT_Recv_Field</text>
</a>
</g>
</g>
<!-- Node398&#45;&gt;Node399 -->
<g id="edge2" class="edge">
<title>Node398&#45;&gt;Node399</title>
<path fill="none" stroke="#191970" d="M220.4383,-60.3183C238.8491,-65.5393 259.9798,-71.5316 277.197,-76.4141"/>
<polygon fill="#191970" stroke="#191970" points="221.3894,-56.9501 210.8139,-57.589 219.4796,-63.6845 221.3894,-56.9501"/>
</g>
<!-- Node400 -->
<g id="node4" class="node">
<title>Node400</title>
<g id="a_node4"><a xlink:href="../../d9/db0/dct__comm__data_8c.html#ae8b687923ced739386283b246af66153" target="_top" xlink:title="DCT_Recv_3d_Var">
<polygon fill="#ffffff" stroke="#000000" points="270,-38.5 270,-57.5 352,-57.5 352,-38.5 270,-38.5"/>
<text text-anchor="middle" x="311" y="-45.5" font-family="Helvetica,sans-Serif" font-size="10.00" fill="#000000">DCT_Recv_3d_Var</text>
</a>
</g>
</g>
<!-- Node398&#45;&gt;Node400 -->
<g id="edge3" class="edge">
<title>Node398&#45;&gt;Node400</title>
<path fill="none" stroke="#191970" d="M244.3659,-48C253.038,-48 261.7019,-48 269.7764,-48"/>
<polygon fill="#191970" stroke="#191970" points="244.2168,-44.5001 234.2167,-48 244.2167,-51.5001 244.2168,-44.5001"/>
</g>
<!-- Node401 -->
<g id="node5" class="node">
<title>Node401</title>
<g id="a_node5"><a xlink:href="../../d9/db0/dct__comm__data_8c.html#a4aff755a39f91fe7fe9513254c7ab810" target="_top" xlink:title="DCT_Recv_4d_Var">
<polygon fill="#ffffff" stroke="#000000" points="270,-.5 270,-19.5 352,-19.5 352,-.5 270,-.5"/>
<text text-anchor="middle" x="311" y="-7.5" font-family="Helvetica,sans-Serif" font-size="10.00" fill="#000000">DCT_Recv_4d_Var</text>
</a>
</g>
</g>
<!-- Node398&#45;&gt;Node401 -->
<g id="edge4" class="edge">
<title>Node398&#45;&gt;Node401</title>
<path fill="none" stroke="#191970" d="M220.4383,-35.6817C238.8491,-30.4607 259.9798,-24.4684 277.197,-19.5859"/>
<polygon fill="#191970" stroke="#191970" points="219.4796,-32.3155 210.8139,-38.411 221.3894,-39.0499 219.4796,-32.3155"/>
</g>
</g>
</svg>
