<?xml version="1.0" encoding="UTF-8" standalone="no"?>
<!DOCTYPE svg PUBLIC "-//W3C//DTD SVG 1.1//EN"
 "http://www.w3.org/Graphics/SVG/1.1/DTD/svg11.dtd">
<!-- Generated by graphviz version 2.40.1 (20161225.0304)
 -->
<!-- Title: DCT_CheckIfNeedMore Pages: 1 -->
<svg width="368pt" height="28pt"
 viewBox="0.00 0.00 368.00 28.00" xmlns="http://www.w3.org/2000/svg" xmlns:xlink="http://www.w3.org/1999/xlink">
<g id="graph0" class="graph" transform="scale(1 1) rotate(0) translate(4 24)">
<title>DCT_CheckIfNeedMore</title>
<polygon fill="#ffffff" stroke="transparent" points="-4,4 -4,-24 364,-24 364,4 -4,4"/>
<!-- Node145 -->
<g id="node1" class="node">
<title>Node145</title>
<polygon fill="#bfbfbf" stroke="#000000" points="0,-.5 0,-19.5 97,-19.5 97,-.5 0,-.5"/>
<text text-anchor="middle" x="48.5" y="-7.5" font-family="Helvetica,sans-Serif" font-size="10.00" fill="#000000">DCT_CheckIfNeedMore</text>
</g>
<!-- Node146 -->
<g id="node2" class="node">
<title>Node146</title>
<g id="a_node2"><a xlink:href="../../dc/d6c/dct__mpi__comm_8c.html#a8d32decd1b87fc67e847e8aa64b05f4e" target="_top" xlink:title="DCT_ConsumeVar_Comm">
<polygon fill="#ffffff" stroke="#000000" points="133,-.5 133,-19.5 239,-19.5 239,-.5 133,-.5"/>
<text text-anchor="middle" x="186" y="-7.5" font-family="Helvetica,sans-Serif" font-size="10.00" fill="#000000">DCT_ConsumeVar_Comm</text>
</a>
</g>
</g>
<!-- Node145&#45;&gt;Node146 -->
<g id="edge1" class="edge">
<title>Node145&#45;&gt;Node146</title>
<path fill="none" stroke="#191970" d="M107.4381,-10C115.8052,-10 124.3702,-10 132.6237,-10"/>
<polygon fill="#191970" stroke="#191970" points="107.3645,-6.5001 97.3645,-10 107.3645,-13.5001 107.3645,-6.5001"/>
</g>
<!-- Node147 -->
<g id="node3" class="node">
<title>Node147</title>
<g id="a_node3"><a xlink:href="../../d8/d17/dct__broker_8c.html#aa8e0aa98031488e106f16272b3b4fcdd" target="_top" xlink:title="DCT_VarComm_Set">
<polygon fill="#ffffff" stroke="#000000" points="275,-.5 275,-19.5 360,-19.5 360,-.5 275,-.5"/>
<text text-anchor="middle" x="317.5" y="-7.5" font-family="Helvetica,sans-Serif" font-size="10.00" fill="#000000">DCT_VarComm_Set</text>
</a>
</g>
</g>
<!-- Node146&#45;&gt;Node147 -->
<g id="edge2" class="edge">
<title>Node146&#45;&gt;Node147</title>
<path fill="none" stroke="#191970" d="M249.1898,-10C257.8324,-10 266.5341,-10 274.6964,-10"/>
<polygon fill="#191970" stroke="#191970" points="249.1071,-6.5001 239.107,-10 249.107,-13.5001 249.1071,-6.5001"/>
</g>
</g>
</svg>
