<?xml version="1.0" encoding="UTF-8" standalone="no"?>
<!DOCTYPE svg PUBLIC "-//W3C//DTD SVG 1.1//EN"
 "http://www.w3.org/Graphics/SVG/1.1/DTD/svg11.dtd">
<!-- Generated by graphviz version 2.40.1 (20161225.0304)
 -->
<!-- Title: DCT_CheckNoInterpolation2D Pages: 1 -->
<svg width="520pt" height="28pt"
 viewBox="0.00 0.00 520.00 28.00" xmlns="http://www.w3.org/2000/svg" xmlns:xlink="http://www.w3.org/1999/xlink">
<g id="graph0" class="graph" transform="scale(1 1) rotate(0) translate(4 24)">
<title>DCT_CheckNoInterpolation2D</title>
<polygon fill="#ffffff" stroke="transparent" points="-4,4 -4,-24 516,-24 516,4 -4,4"/>
<!-- Node302 -->
<g id="node1" class="node">
<title>Node302</title>
<polygon fill="#bfbfbf" stroke="#000000" points="0,-.5 0,-19.5 118,-19.5 118,-.5 0,-.5"/>
<text text-anchor="middle" x="59" y="-7.5" font-family="Helvetica,sans-Serif" font-size="10.00" fill="#000000">DCT_CheckNoInterpolation2D</text>
</g>
<!-- Node303 -->
<g id="node2" class="node">
<title>Node303</title>
<g id="a_node2"><a xlink:href="../../da/df2/dct__data__utils_8c.html#a62974f43597e565a070d28c33b84837e" target="_top" xlink:title="DCT_Calculate_Weight">
<polygon fill="#ffffff" stroke="#000000" points="154,-.5 154,-19.5 249,-19.5 249,-.5 154,-.5"/>
<text text-anchor="middle" x="201.5" y="-7.5" font-family="Helvetica,sans-Serif" font-size="10.00" fill="#000000">DCT_Calculate_Weight</text>
</a>
</g>
</g>
<!-- Node302&#45;&gt;Node303 -->
<g id="edge1" class="edge">
<title>Node302&#45;&gt;Node303</title>
<path fill="none" stroke="#191970" d="M128.3392,-10C137.0219,-10 145.7424,-10 153.9846,-10"/>
<polygon fill="#191970" stroke="#191970" points="128.1949,-6.5001 118.1949,-10 128.1948,-13.5001 128.1949,-6.5001"/>
</g>
<!-- Node304 -->
<g id="node3" class="node">
<title>Node304</title>
<g id="a_node3"><a xlink:href="../../dc/d6c/dct__mpi__comm_8c.html#a8d32decd1b87fc67e847e8aa64b05f4e" target="_top" xlink:title="DCT_ConsumeVar_Comm">
<polygon fill="#ffffff" stroke="#000000" points="285,-.5 285,-19.5 391,-19.5 391,-.5 285,-.5"/>
<text text-anchor="middle" x="338" y="-7.5" font-family="Helvetica,sans-Serif" font-size="10.00" fill="#000000">DCT_ConsumeVar_Comm</text>
</a>
</g>
</g>
<!-- Node303&#45;&gt;Node304 -->
<g id="edge2" class="edge">
<title>Node303&#45;&gt;Node304</title>
<path fill="none" stroke="#191970" d="M259.4213,-10C267.885,-10 276.5657,-10 284.9263,-10"/>
<polygon fill="#191970" stroke="#191970" points="259.2411,-6.5001 249.2411,-10 259.241,-13.5001 259.2411,-6.5001"/>
</g>
<!-- Node305 -->
<g id="node4" class="node">
<title>Node305</title>
<g id="a_node4"><a xlink:href="../../d8/d17/dct__broker_8c.html#aa8e0aa98031488e106f16272b3b4fcdd" target="_top" xlink:title="DCT_VarComm_Set">
<polygon fill="#ffffff" stroke="#000000" points="427,-.5 427,-19.5 512,-19.5 512,-.5 427,-.5"/>
<text text-anchor="middle" x="469.5" y="-7.5" font-family="Helvetica,sans-Serif" font-size="10.00" fill="#000000">DCT_VarComm_Set</text>
</a>
</g>
</g>
<!-- Node304&#45;&gt;Node305 -->
<g id="edge3" class="edge">
<title>Node304&#45;&gt;Node305</title>
<path fill="none" stroke="#191970" d="M401.1898,-10C409.8324,-10 418.5341,-10 426.6964,-10"/>
<polygon fill="#191970" stroke="#191970" points="401.1071,-6.5001 391.107,-10 401.107,-13.5001 401.1071,-6.5001"/>
</g>
</g>
</svg>
