<?xml version="1.0" encoding="UTF-8" standalone="no"?>
<!DOCTYPE svg PUBLIC "-//W3C//DTD SVG 1.1//EN"
 "http://www.w3.org/Graphics/SVG/1.1/DTD/svg11.dtd">
<!-- Generated by graphviz version 2.40.1 (20161225.0304)
 -->
<!-- Title: DCT_Calculate_Weight Pages: 1 -->
<!--zoomable 180 -->
<svg id="main" version="1.1" xmlns="http://www.w3.org/2000/svg" xmlns:xlink="http://www.w3.org/1999/xlink" xml:space="preserve" onload="init(evt)">
<style type="text/css"><![CDATA[
.edge:hover path { stroke: red; }
.edge:hover polygon { stroke: red; fill: red; }
]]></style>
<script type="text/javascript"><![CDATA[
var edges = document.getElementsByTagName('g');
if (edges && edges.length) {
  for (var i=0;i<edges.length;i++) {
    if (edges[i].id.substr(0,4)=='edge') {
      edges[i].setAttribute('class','edge');
    }
  }
}
]]></script>
        <defs>
                <circle id="rim" cx="0" cy="0" r="7"/>
                <circle id="rim2" cx="0" cy="0" r="3.5"/>
                <g id="zoomPlus">
                        <use xlink:href="#rim" fill="#404040">
                                <set attributeName="fill" to="#808080" begin="zoomplus.mouseover" end="zoomplus.mouseout"/>
                        </use>
                        <path d="M-4,0h8M0,-4v8" fill="none" stroke="white" stroke-width="1.5" pointer-events="none"/>
                </g>
                <g id="zoomMin">
                        <use xlink:href="#rim" fill="#404040">
                                <set attributeName="fill" to="#808080" begin="zoomminus.mouseover" end="zoomminus.mouseout"/>
                        </use>
                        <path d="M-4,0h8" fill="none" stroke="white" stroke-width="1.5" pointer-events="none"/>
                </g>
                <g id="dirArrow">
                        <path fill="none" stroke="white" stroke-width="1.5" d="M0,-3.0v7 M-2.5,-0.5L0,-3.0L2.5,-0.5"/>
                </g>
               <g id="resetDef">
                       <use xlink:href="#rim2" fill="#404040">
                               <set attributeName="fill" to="#808080" begin="reset.mouseover" end="reset.mouseout"/>
                       </use>
               </g>
        </defs>

<script type="text/javascript">
var viewWidth = 514;
var viewHeight = 180;
var sectionId = 'dynsection-64';
</script>
<script xlink:href="../../svgpan.js"/>
<svg id="graph" class="graph">
<g id="viewport">
<title>DCT_Calculate_Weight</title>
<polygon fill="#ffffff" stroke="transparent" points="-4,4 -4,-176 510,-176 510,4 -4,4"/>
<!-- Node323 -->
<g id="node1" class="node">
<title>Node323</title>
<polygon fill="#bfbfbf" stroke="#000000" points="0,-95.5 0,-114.5 95,-114.5 95,-95.5 0,-95.5"/>
<text text-anchor="middle" x="47.5" y="-102.5" font-family="Helvetica,sans-Serif" font-size="10.00" fill="#000000">DCT_Calculate_Weight</text>
</g>
<!-- Node324 -->
<g id="node2" class="node">
<title>Node324</title>
<g id="a_node2"><a xlink:href="../../da/df2/dct__data__utils_8c.html#a48eab8c20b93ee47365d90df0a49c73b" target="_top" xlink:title="DCT_CheckNoInterpolation">
<polygon fill="#ffffff" stroke="#000000" points="131,-114.5 131,-133.5 239,-133.5 239,-114.5 131,-114.5"/>
<text text-anchor="middle" x="185" y="-121.5" font-family="Helvetica,sans-Serif" font-size="10.00" fill="#000000">DCT_CheckNoInterpolation</text>
</a>
</g>
</g>
<!-- Node323&#45;&gt;Node324 -->
<g id="edge1" class="edge">
<title>Node323&#45;&gt;Node324</title>
<path fill="none" stroke="#191970" d="M95.2049,-111.592C103.4559,-112.7321 112.1545,-113.9341 120.7584,-115.123"/>
<polygon fill="#191970" stroke="#191970" points="120.3978,-118.6063 130.7828,-116.5082 121.3561,-111.6722 120.3978,-118.6063"/>
</g>
<!-- Node328 -->
<g id="node6" class="node">
<title>Node328</title>
<g id="a_node6"><a xlink:href="../../da/df2/dct__data__utils_8c.html#aad612d07c1ca8b6cdcb901ce51518ad7" target="_top" xlink:title="DCT_Data_Allocate">
<polygon fill="#ffffff" stroke="#000000" points="288.5,-152.5 288.5,-171.5 371.5,-171.5 371.5,-152.5 288.5,-152.5"/>
<text text-anchor="middle" x="330" y="-159.5" font-family="Helvetica,sans-Serif" font-size="10.00" fill="#000000">DCT_Data_Allocate</text>
</a>
</g>
</g>
<!-- Node323&#45;&gt;Node328 -->
<g id="edge6" class="edge">
<title>Node323&#45;&gt;Node328</title>
<path fill="none" stroke="#191970" d="M64.1527,-114.5863C80.5795,-123.5508 106.6883,-136.503 131,-143 179.7338,-156.0234 237.2779,-160.3831 277.9183,-161.7189"/>
<polygon fill="#191970" stroke="#191970" points="278.0367,-165.2234 288.1301,-162.0027 278.2313,-158.2261 278.0367,-165.2234"/>
</g>
<!-- Node329 -->
<g id="node7" class="node">
<title>Node329</title>
<g id="a_node7"><a xlink:href="../../da/df2/dct__data__utils_8c.html#a2b0b2abde55ce9d8c5e813723596d91a" target="_top" xlink:title="DCT_Bilinear_Weight">
<polygon fill="#ffffff" stroke="#000000" points="140.5,-38.5 140.5,-57.5 229.5,-57.5 229.5,-38.5 140.5,-38.5"/>
<text text-anchor="middle" x="185" y="-45.5" font-family="Helvetica,sans-Serif" font-size="10.00" fill="#000000">DCT_Bilinear_Weight</text>
</a>
</g>
</g>
<!-- Node323&#45;&gt;Node329 -->
<g id="edge7" class="edge">
<title>Node323&#45;&gt;Node329</title>
<path fill="none" stroke="#191970" d="M67.1932,-95.4389C83.9793,-87.4343 108.8376,-75.9214 131,-67 136.0707,-64.9588 141.4551,-62.9177 146.7844,-60.9708"/>
<polygon fill="#191970" stroke="#191970" points="148.0013,-64.2528 156.2378,-57.5886 145.6432,-57.6619 148.0013,-64.2528"/>
</g>
<!-- Node332 -->
<g id="node10" class="node">
<title>Node332</title>
<g id="a_node10"><a xlink:href="../../da/df2/dct__data__utils_8c.html#a2b2c1523518da2a77764c4de64bc7c6f" target="_top" xlink:title="DCT_Trilinear_Weight">
<polygon fill="#ffffff" stroke="#000000" points="139.5,-76.5 139.5,-95.5 230.5,-95.5 230.5,-76.5 139.5,-76.5"/>
<text text-anchor="middle" x="185" y="-83.5" font-family="Helvetica,sans-Serif" font-size="10.00" fill="#000000">DCT_Trilinear_Weight</text>
</a>
</g>
</g>
<!-- Node323&#45;&gt;Node332 -->
<g id="edge13" class="edge">
<title>Node323&#45;&gt;Node332</title>
<path fill="none" stroke="#191970" d="M95.2049,-98.408C106.1319,-96.8981 117.8438,-95.2798 129.0815,-93.7269"/>
<polygon fill="#191970" stroke="#191970" points="129.8056,-97.1602 139.2324,-92.3242 128.8474,-90.2261 129.8056,-97.1602"/>
</g>
<!-- Node325 -->
<g id="node3" class="node">
<title>Node325</title>
<g id="a_node3"><a xlink:href="../../da/df2/dct__data__utils_8c.html#a7b21bfcd675a7e8eeb06960ccfc03ff4" target="_top" xlink:title="DCT_IncludedIndex_Cartes">
<polygon fill="#ffffff" stroke="#000000" points="275.5,-114.5 275.5,-133.5 384.5,-133.5 384.5,-114.5 275.5,-114.5"/>
<text text-anchor="middle" x="330" y="-121.5" font-family="Helvetica,sans-Serif" font-size="10.00" fill="#000000">DCT_IncludedIndex_Cartes</text>
</a>
</g>
</g>
<!-- Node324&#45;&gt;Node325 -->
<g id="edge2" class="edge">
<title>Node324&#45;&gt;Node325</title>
<path fill="none" stroke="#191970" d="M239.4052,-124C247.838,-124 256.6197,-124 265.253,-124"/>
<polygon fill="#191970" stroke="#191970" points="265.2899,-127.5001 275.2899,-124 265.2899,-120.5001 265.2899,-127.5001"/>
</g>
<!-- Node326 -->
<g id="node4" class="node">
<title>Node326</title>
<g id="a_node4"><a xlink:href="../../da/df2/dct__data__utils_8c.html#ae30066cfcde99cbac1faaca5685124fb" target="_top" xlink:title="DCT_IncludedIndex_Rectil">
<polygon fill="#ffffff" stroke="#000000" points="277,-76.5 277,-95.5 383,-95.5 383,-76.5 277,-76.5"/>
<text text-anchor="middle" x="330" y="-83.5" font-family="Helvetica,sans-Serif" font-size="10.00" fill="#000000">DCT_IncludedIndex_Rectil</text>
</a>
</g>
</g>
<!-- Node324&#45;&gt;Node326 -->
<g id="edge3" class="edge">
<title>Node324&#45;&gt;Node326</title>
<path fill="none" stroke="#191970" d="M221.5896,-114.411C240.4654,-109.4642 263.6859,-103.3789 283.7879,-98.1108"/>
<polygon fill="#191970" stroke="#191970" points="284.8875,-101.4409 293.6735,-95.5201 283.1129,-94.6695 284.8875,-101.4409"/>
</g>
<!-- Node324&#45;&gt;Node328 -->
<g id="edge5" class="edge">
<title>Node324&#45;&gt;Node328</title>
<path fill="none" stroke="#191970" d="M221.5896,-133.589C240.4654,-138.5358 263.6859,-144.6211 283.7879,-149.8892"/>
<polygon fill="#191970" stroke="#191970" points="283.1129,-153.3305 293.6735,-152.4799 284.8875,-146.5591 283.1129,-153.3305"/>
</g>
<!-- Node327 -->
<g id="node5" class="node">
<title>Node327</title>
<g id="a_node5"><a xlink:href="../../da/df2/dct__data__utils_8c.html#ab4c2668ba72029a38c2a6ad100c8a897" target="_top" xlink:title="DCT_index_bsearch">
<polygon fill="#ffffff" stroke="#000000" points="421,-76.5 421,-95.5 506,-95.5 506,-76.5 421,-76.5"/>
<text text-anchor="middle" x="463.5" y="-83.5" font-family="Helvetica,sans-Serif" font-size="10.00" fill="#000000">DCT_index_bsearch</text>
</a>
</g>
</g>
<!-- Node326&#45;&gt;Node327 -->
<g id="edge4" class="edge">
<title>Node326&#45;&gt;Node327</title>
<path fill="none" stroke="#191970" d="M383.1463,-86C392.2331,-86 401.6712,-86 410.7477,-86"/>
<polygon fill="#191970" stroke="#191970" points="410.8037,-89.5001 420.8037,-86 410.8037,-82.5001 410.8037,-89.5001"/>
</g>
<!-- Node329&#45;&gt;Node325 -->
<g id="edge8" class="edge">
<title>Node329&#45;&gt;Node325</title>
<path fill="none" stroke="#191970" d="M219.852,-57.52C226.481,-60.0785 233.1633,-63.2144 239,-67 258.5186,-79.6593 255.4453,-92.3965 275,-105 278.1126,-107.0062 281.4615,-108.8274 284.9152,-110.4755"/>
<polygon fill="#191970" stroke="#191970" points="283.6404,-113.7368 294.2118,-114.4418 286.3874,-107.2983 283.6404,-113.7368"/>
</g>
<!-- Node329&#45;&gt;Node326 -->
<g id="edge9" class="edge">
<title>Node329&#45;&gt;Node326</title>
<path fill="none" stroke="#191970" d="M221.5896,-57.589C240.4654,-62.5358 263.6859,-68.6211 283.7879,-73.8892"/>
<polygon fill="#191970" stroke="#191970" points="283.1129,-77.3305 293.6735,-76.4799 284.8875,-70.5591 283.1129,-77.3305"/>
</g>
<!-- Node329&#45;&gt;Node328 -->
<g id="edge10" class="edge">
<title>Node329&#45;&gt;Node328</title>
<path fill="none" stroke="#191970" d="M224.2552,-57.5916C229.6038,-60.0561 234.7176,-63.1415 239,-67 266.7671,-92.0185 247.1616,-118.0608 275,-143 276.7424,-144.5609 278.6196,-145.9949 280.5929,-147.3122"/>
<polygon fill="#191970" stroke="#191970" points="279.296,-150.5945 289.7408,-152.3716 282.6839,-144.469 279.296,-150.5945"/>
</g>
<!-- Node330 -->
<g id="node8" class="node">
<title>Node330</title>
<g id="a_node8"><a xlink:href="../../da/df2/dct__data__utils_8c.html#a69425de86f0e9399aaca5d2ad1a02aec" target="_top" xlink:title="DCT_Mod2CartesianWeight">
<polygon fill="#ffffff" stroke="#000000" points="275,-.5 275,-19.5 385,-19.5 385,-.5 275,-.5"/>
<text text-anchor="middle" x="330" y="-7.5" font-family="Helvetica,sans-Serif" font-size="10.00" fill="#000000">DCT_Mod2CartesianWeight</text>
</a>
</g>
</g>
<!-- Node329&#45;&gt;Node330 -->
<g id="edge11" class="edge">
<title>Node329&#45;&gt;Node330</title>
<path fill="none" stroke="#191970" d="M221.5896,-38.411C240.4654,-33.4642 263.6859,-27.3789 283.7879,-22.1108"/>
<polygon fill="#191970" stroke="#191970" points="284.8875,-25.4409 293.6735,-19.5201 283.1129,-18.6695 284.8875,-25.4409"/>
</g>
<!-- Node331 -->
<g id="node9" class="node">
<title>Node331</title>
<g id="a_node9"><a xlink:href="../../da/df2/dct__data__utils_8c.html#a8abdd3bba7ef602eb5abca20010c0f7b" target="_top" xlink:title="DCT_RectilinearWeight">
<polygon fill="#ffffff" stroke="#000000" points="282.5,-38.5 282.5,-57.5 377.5,-57.5 377.5,-38.5 282.5,-38.5"/>
<text text-anchor="middle" x="330" y="-45.5" font-family="Helvetica,sans-Serif" font-size="10.00" fill="#000000">DCT_RectilinearWeight</text>
</a>
</g>
</g>
<!-- Node329&#45;&gt;Node331 -->
<g id="edge12" class="edge">
<title>Node329&#45;&gt;Node331</title>
<path fill="none" stroke="#191970" d="M229.6879,-48C243.1468,-48 258.1129,-48 272.2908,-48"/>
<polygon fill="#191970" stroke="#191970" points="272.4424,-51.5001 282.4424,-48 272.4423,-44.5001 272.4424,-51.5001"/>
</g>
<!-- Node332&#45;&gt;Node325 -->
<g id="edge14" class="edge">
<title>Node332&#45;&gt;Node325</title>
<path fill="none" stroke="#191970" d="M221.5896,-95.589C240.4654,-100.5358 263.6859,-106.6211 283.7879,-111.8892"/>
<polygon fill="#191970" stroke="#191970" points="283.1129,-115.3305 293.6735,-114.4799 284.8875,-108.5591 283.1129,-115.3305"/>
</g>
<!-- Node332&#45;&gt;Node326 -->
<g id="edge15" class="edge">
<title>Node332&#45;&gt;Node326</title>
<path fill="none" stroke="#191970" d="M230.8789,-86C242.2872,-86 254.7168,-86 266.7963,-86"/>
<polygon fill="#191970" stroke="#191970" points="266.8307,-89.5001 276.8307,-86 266.8307,-82.5001 266.8307,-89.5001"/>
</g>
<!-- Node332&#45;&gt;Node328 -->
<g id="edge16" class="edge">
<title>Node332&#45;&gt;Node328</title>
<path fill="none" stroke="#191970" d="M219.852,-95.52C226.481,-98.0785 233.1633,-101.2144 239,-105 258.5186,-117.6593 255.4453,-130.3965 275,-143 278.1126,-145.0062 281.4615,-146.8274 284.9152,-148.4755"/>
<polygon fill="#191970" stroke="#191970" points="283.6404,-151.7368 294.2118,-152.4418 286.3874,-145.2983 283.6404,-151.7368"/>
</g>
<!-- Node332&#45;&gt;Node330 -->
<g id="edge17" class="edge">
<title>Node332&#45;&gt;Node330</title>
<path fill="none" stroke="#191970" d="M219.852,-76.48C226.481,-73.9215 233.1633,-70.7856 239,-67 258.5186,-54.3407 255.4453,-41.6035 275,-29 278.1126,-26.9938 281.4615,-25.1726 284.9152,-23.5245"/>
<polygon fill="#191970" stroke="#191970" points="286.3874,-26.7017 294.2118,-19.5582 283.6404,-20.2632 286.3874,-26.7017"/>
</g>
<!-- Node332&#45;&gt;Node331 -->
<g id="edge18" class="edge">
<title>Node332&#45;&gt;Node331</title>
<path fill="none" stroke="#191970" d="M221.5896,-76.411C240.4654,-71.4642 263.6859,-65.3789 283.7879,-60.1108"/>
<polygon fill="#191970" stroke="#191970" points="284.8875,-63.4409 293.6735,-57.5201 283.1129,-56.6695 284.8875,-63.4409"/>
</g>
</g>
</svg>
        <g id="navigator" transform="translate(0 0)" fill="#404254">
                <rect fill="#f2f5e9" fill-opacity="0.5" stroke="#606060" stroke-width=".5" x="0" y="0" width="60" height="60"/>
                <use id="zoomplus" xlink:href="#zoomPlus" x="17" y="9" onmousedown="handleZoom(evt,'in')"/>
                <use id="zoomminus" xlink:href="#zoomMin" x="42" y="9" onmousedown="handleZoom(evt,'out')"/>
                <use id="reset" xlink:href="#resetDef" x="30" y="36" onmousedown="handleReset()"/>
                <g id="arrowUp" xlink:href="#dirArrow" transform="translate(30 24)" onmousedown="handlePan(0,-1)">
                  <use xlink:href="#rim" fill="#404040">
                        <set attributeName="fill" to="#808080" begin="arrowUp.mouseover" end="arrowUp.mouseout"/>
                  </use>
                  <path fill="none" stroke="white" stroke-width="1.5" d="M0,-3.0v7 M-2.5,-0.5L0,-3.0L2.5,-0.5"/>
                </g>
                <g id="arrowRight" xlink:href="#dirArrow" transform="rotate(90) translate(36 -43)" onmousedown="handlePan(1,0)">
                  <use xlink:href="#rim" fill="#404040">
                        <set attributeName="fill" to="#808080" begin="arrowRight.mouseover" end="arrowRight.mouseout"/>
                  </use>
                  <path fill="none" stroke="white" stroke-width="1.5" d="M0,-3.0v7 M-2.5,-0.5L0,-3.0L2.5,-0.5"/>
                </g>
                <g id="arrowDown" xlink:href="#dirArrow" transform="rotate(180) translate(-30 -48)" onmousedown="handlePan(0,1)">
                  <use xlink:href="#rim" fill="#404040">
                        <set attributeName="fill" to="#808080" begin="arrowDown.mouseover" end="arrowDown.mouseout"/>
                  </use>
                  <path fill="none" stroke="white" stroke-width="1.5" d="M0,-3.0v7 M-2.5,-0.5L0,-3.0L2.5,-0.5"/>
                </g>
                <g id="arrowLeft" xlink:href="#dirArrow" transform="rotate(270) translate(-36 17)" onmousedown="handlePan(-1,0)">
                  <use xlink:href="#rim" fill="#404040">
                        <set attributeName="fill" to="#808080" begin="arrowLeft.mouseover" end="arrowLeft.mouseout"/>
                  </use>
                  <path fill="none" stroke="white" stroke-width="1.5" d="M0,-3.0v7 M-2.5,-0.5L0,-3.0L2.5,-0.5"/>
                </g>
        </g>
        <svg viewBox="0 0 15 15" width="100%" height="30px" preserveAspectRatio="xMaxYMin meet">
         <g id="arrow_out" transform="scale(0.3 0.3)">
          <a xlink:href="dct__data__utils_8c_a62974f43597e565a070d28c33b84837e_cgraph_org.svg" target="_base">
           <rect id="button" ry="5" rx="5" y="6" x="6" height="38" width="38"
                fill="#f2f5e9" fill-opacity="0.5" stroke="#606060" stroke-width="1.0"/>
           <path id="arrow"
             d="M 11.500037,31.436501 C 11.940474,20.09759 22.043105,11.32322 32.158766,21.979434 L 37.068811,17.246167 C 37.068811,17.246167 37.088388,32 37.088388,32 L 22.160133,31.978069 C 22.160133,31.978069 26.997745,27.140456 26.997745,27.140456 C 18.528582,18.264221 13.291696,25.230495 11.500037,31.436501 z"
             style="fill:#404040;"/>
          </a>
         </g>
        </svg>
</svg>
