<?xml version="1.0" encoding="UTF-8" standalone="no"?>
<!DOCTYPE svg PUBLIC "-//W3C//DTD SVG 1.1//EN"
 "http://www.w3.org/Graphics/SVG/1.1/DTD/svg11.dtd">
<!-- Generated by graphviz version 2.40.1 (20161225.0304)
 -->
<!-- Title: /Users/dcecchis/DCT_Project/DCT/SRC/dct_fields.c Pages: 1 -->
<svg width="335pt" height="218pt"
 viewBox="0.00 0.00 334.50 218.00" xmlns="http://www.w3.org/2000/svg" xmlns:xlink="http://www.w3.org/1999/xlink">
<g id="graph0" class="graph" transform="scale(1 1) rotate(0) translate(4 214)">
<title>/Users/dcecchis/DCT_Project/DCT/SRC/dct_fields.c</title>
<polygon fill="#ffffff" stroke="transparent" points="-4,4 -4,-214 330.5,-214 330.5,4 -4,4"/>
<!-- Node0 -->
<g id="node1" class="node">
<title>Node0</title>
<polygon fill="#bfbfbf" stroke="#000000" points="97.5,-168.5 97.5,-209.5 214.5,-209.5 214.5,-168.5 97.5,-168.5"/>
<text text-anchor="start" x="105.5" y="-197.5" font-family="Helvetica,sans-Serif" font-size="10.00" fill="#000000">/Users/dcecchis/DCT</text>
<text text-anchor="start" x="105.5" y="-186.5" font-family="Helvetica,sans-Serif" font-size="10.00" fill="#000000">_Project/DCT/SRC/dct</text>
<text text-anchor="middle" x="156" y="-175.5" font-family="Helvetica,sans-Serif" font-size="10.00" fill="#000000">_fields.c</text>
</g>
<!-- Node1 -->
<g id="node2" class="node">
<title>Node1</title>
<polygon fill="#ffffff" stroke="#bfbfbf" points="0,-.5 0,-19.5 46,-19.5 46,-.5 0,-.5"/>
<text text-anchor="middle" x="23" y="-7.5" font-family="Helvetica,sans-Serif" font-size="10.00" fill="#000000">stdio.h</text>
</g>
<!-- Node0&#45;&gt;Node1 -->
<g id="edge1" class="edge">
<title>Node0&#45;&gt;Node1</title>
<path fill="none" stroke="#191970" d="M140.7432,-168.4664C114.5485,-133.2119 61.438,-61.7324 36.5029,-28.1731"/>
<polygon fill="#191970" stroke="#191970" points="39.0364,-25.7143 30.2629,-19.7749 33.4176,-29.8891 39.0364,-25.7143"/>
</g>
<!-- Node2 -->
<g id="node3" class="node">
<title>Node2</title>
<polygon fill="#ffffff" stroke="#bfbfbf" points="64.5,-.5 64.5,-19.5 113.5,-19.5 113.5,-.5 64.5,-.5"/>
<text text-anchor="middle" x="89" y="-7.5" font-family="Helvetica,sans-Serif" font-size="10.00" fill="#000000">string.h</text>
</g>
<!-- Node0&#45;&gt;Node2 -->
<g id="edge2" class="edge">
<title>Node0&#45;&gt;Node2</title>
<path fill="none" stroke="#191970" d="M145.5,-168.2775C140.1303,-157.519 133.5704,-144.122 128,-132 116.6934,-107.3952 112.3683,-101.7528 104,-76 99.0068,-60.6339 95.0501,-42.7343 92.4569,-29.4556"/>
<polygon fill="#191970" stroke="#191970" points="95.8826,-28.733 90.6066,-19.5453 89.0015,-30.0179 95.8826,-28.733"/>
</g>
<!-- Node3 -->
<g id="node4" class="node">
<title>Node3</title>
<g id="a_node4"><a xlink:href="$df/d15/dct_8h.html" xlink:title="Header file containing the DCT definitions of data structures and functions available for the user...">
<polygon fill="#ffffff" stroke="#000000" points="137,-112.5 137,-131.5 175,-131.5 175,-112.5 137,-112.5"/>
<text text-anchor="middle" x="156" y="-119.5" font-family="Helvetica,sans-Serif" font-size="10.00" fill="#000000">dct.h</text>
</a>
</g>
</g>
<!-- Node0&#45;&gt;Node3 -->
<g id="edge3" class="edge">
<title>Node0&#45;&gt;Node3</title>
<path fill="none" stroke="#191970" d="M156,-168.168C156,-159.8226 156,-150.2471 156,-141.9879"/>
<polygon fill="#191970" stroke="#191970" points="159.5001,-141.7804 156,-131.7805 152.5001,-141.7805 159.5001,-141.7804"/>
</g>
<!-- Node7 -->
<g id="node8" class="node">
<title>Node7</title>
<g id="a_node8"><a xlink:href="$df/d42/dct__commdat_8h.html" xlink:title="Contains constants and data type definitions related with the communication library. ">
<polygon fill="#ffffff" stroke="#000000" points="241.5,-56.5 241.5,-75.5 326.5,-75.5 326.5,-56.5 241.5,-56.5"/>
<text text-anchor="middle" x="284" y="-63.5" font-family="Helvetica,sans-Serif" font-size="10.00" fill="#000000">dct_commdat.h</text>
</a>
</g>
</g>
<!-- Node0&#45;&gt;Node7 -->
<g id="edge14" class="edge">
<title>Node0&#45;&gt;Node7</title>
<path fill="none" stroke="#191970" d="M171.6693,-168.2755C184.373,-152.1068 203.1956,-129.5267 222,-112 234.0711,-100.7491 248.8716,-89.6805 260.9842,-81.2212"/>
<polygon fill="#191970" stroke="#191970" points="262.9801,-84.0965 269.2516,-75.5573 259.0238,-78.3217 262.9801,-84.0965"/>
</g>
<!-- Node9 -->
<g id="node10" class="node">
<title>Node9</title>
<g id="a_node10"><a xlink:href="$d4/dd3/dctsys_8h.html" xlink:title="Contains all the DCT definitions that are not available for a DCT user (private to DCT)...">
<polygon fill="#ffffff" stroke="#000000" points="231.5,-112.5 231.5,-131.5 284.5,-131.5 284.5,-112.5 231.5,-112.5"/>
<text text-anchor="middle" x="258" y="-119.5" font-family="Helvetica,sans-Serif" font-size="10.00" fill="#000000">dctsys.h</text>
</a>
</g>
</g>
<!-- Node0&#45;&gt;Node9 -->
<g id="edge13" class="edge">
<title>Node0&#45;&gt;Node9</title>
<path fill="none" stroke="#191970" d="M187.4357,-168.3511C202.7051,-158.3212 220.7324,-146.4797 234.7437,-137.2762"/>
<polygon fill="#191970" stroke="#191970" points="236.8653,-140.0702 243.3019,-131.6546 233.0222,-134.2195 236.8653,-140.0702"/>
</g>
<!-- Node3&#45;&gt;Node2 -->
<g id="edge5" class="edge">
<title>Node3&#45;&gt;Node2</title>
<path fill="none" stroke="#191970" d="M146.6949,-112.3796C138.4198,-103.4688 126.3683,-89.5812 118,-76 108.8822,-61.2024 101.1226,-43.0368 95.9308,-29.5121"/>
<polygon fill="#191970" stroke="#191970" points="99.0946,-27.9766 92.3407,-19.8135 92.5299,-30.4066 99.0946,-27.9766"/>
</g>
<!-- Node4 -->
<g id="node5" class="node">
<title>Node4</title>
<polygon fill="#ffffff" stroke="#bfbfbf" points="198,-.5 198,-19.5 246,-19.5 246,-.5 198,-.5"/>
<text text-anchor="middle" x="222" y="-7.5" font-family="Helvetica,sans-Serif" font-size="10.00" fill="#000000">stdlib.h</text>
</g>
<!-- Node3&#45;&gt;Node4 -->
<g id="edge4" class="edge">
<title>Node3&#45;&gt;Node4</title>
<path fill="none" stroke="#191970" d="M165.3465,-112.4049C173.6494,-103.5112 185.7186,-89.6343 194,-76 202.9735,-61.2262 210.4511,-43.0586 215.415,-29.527"/>
<polygon fill="#191970" stroke="#191970" points="218.8123,-30.4171 218.8376,-19.8223 212.2108,-28.0889 218.8123,-30.4171"/>
</g>
<!-- Node5 -->
<g id="node6" class="node">
<title>Node5</title>
<g id="a_node6"><a xlink:href="$de/d3c/macros_8h.html" xlink:title="the header file contains all the DCT utility macros. ">
<polygon fill="#ffffff" stroke="#000000" points="127,-56.5 127,-75.5 185,-75.5 185,-56.5 127,-56.5"/>
<text text-anchor="middle" x="156" y="-63.5" font-family="Helvetica,sans-Serif" font-size="10.00" fill="#000000">macros.h</text>
</a>
</g>
</g>
<!-- Node3&#45;&gt;Node5 -->
<g id="edge6" class="edge">
<title>Node3&#45;&gt;Node5</title>
<path fill="none" stroke="#191970" d="M156,-112.2455C156,-104.9382 156,-94.6944 156,-85.7046"/>
<polygon fill="#191970" stroke="#191970" points="159.5001,-85.6426 156,-75.6427 152.5001,-85.6427 159.5001,-85.6426"/>
</g>
<!-- Node3&#45;&gt;Node7 -->
<g id="edge11" class="edge">
<title>Node3&#45;&gt;Node7</title>
<path fill="none" stroke="#191970" d="M175.1629,-113.6162C195.6359,-104.6593 228.4105,-90.3204 252.6503,-79.7155"/>
<polygon fill="#191970" stroke="#191970" points="254.3703,-82.7834 262.129,-75.5686 251.5645,-76.3703 254.3703,-82.7834"/>
</g>
<!-- Node5&#45;&gt;Node1 -->
<g id="edge8" class="edge">
<title>Node5&#45;&gt;Node1</title>
<path fill="none" stroke="#191970" d="M133.1365,-56.3733C111.595,-47.3032 79.1162,-33.6279 55.0044,-23.4755"/>
<polygon fill="#191970" stroke="#191970" points="56.1397,-20.156 45.5652,-19.5011 53.4233,-26.6075 56.1397,-20.156"/>
</g>
<!-- Node5&#45;&gt;Node2 -->
<g id="edge9" class="edge">
<title>Node5&#45;&gt;Node2</title>
<path fill="none" stroke="#191970" d="M144.3295,-56.2455C134.4339,-47.9746 120.0373,-35.9416 108.4099,-26.2232"/>
<polygon fill="#191970" stroke="#191970" points="110.4542,-23.3703 100.5368,-19.6427 105.965,-28.7413 110.4542,-23.3703"/>
</g>
<!-- Node5&#45;&gt;Node4 -->
<g id="edge7" class="edge">
<title>Node5&#45;&gt;Node4</title>
<path fill="none" stroke="#191970" d="M167.4963,-56.2455C177.2442,-47.9746 191.4259,-35.9416 202.8798,-26.2232"/>
<polygon fill="#191970" stroke="#191970" points="205.2747,-28.7813 210.6354,-19.6427 200.7459,-23.4437 205.2747,-28.7813"/>
</g>
<!-- Node6 -->
<g id="node7" class="node">
<title>Node6</title>
<polygon fill="#ffffff" stroke="#bfbfbf" points="132,-.5 132,-19.5 180,-19.5 180,-.5 132,-.5"/>
<text text-anchor="middle" x="156" y="-7.5" font-family="Helvetica,sans-Serif" font-size="10.00" fill="#000000">errno.h</text>
</g>
<!-- Node5&#45;&gt;Node6 -->
<g id="edge10" class="edge">
<title>Node5&#45;&gt;Node6</title>
<path fill="none" stroke="#191970" d="M156,-56.2455C156,-48.9382 156,-38.6944 156,-29.7046"/>
<polygon fill="#191970" stroke="#191970" points="159.5001,-29.6426 156,-19.6427 152.5001,-29.6427 159.5001,-29.6426"/>
</g>
<!-- Node8 -->
<g id="node9" class="node">
<title>Node8</title>
<polygon fill="#ffffff" stroke="#bfbfbf" points="264.5,-.5 264.5,-19.5 305.5,-19.5 305.5,-.5 264.5,-.5"/>
<text text-anchor="middle" x="285" y="-7.5" font-family="Helvetica,sans-Serif" font-size="10.00" fill="#000000">mpi.h</text>
</g>
<!-- Node7&#45;&gt;Node8 -->
<g id="edge12" class="edge">
<title>Node7&#45;&gt;Node8</title>
<path fill="none" stroke="#191970" d="M284.1742,-56.2455C284.3047,-48.9382 284.4876,-38.6944 284.6481,-29.7046"/>
<polygon fill="#191970" stroke="#191970" points="288.1486,-29.7036 284.8278,-19.6427 281.1497,-29.5786 288.1486,-29.7036"/>
</g>
</g>
</svg>
