<?xml version="1.0" encoding="UTF-8" standalone="no"?>
<!DOCTYPE svg PUBLIC "-//W3C//DTD SVG 1.1//EN"
 "http://www.w3.org/Graphics/SVG/1.1/DTD/svg11.dtd">
<!-- Generated by graphviz version 2.40.1 (20161225.0304)
 -->
<!-- Title: DCT_OnNewBoundary Pages: 1 -->
<svg width="364pt" height="28pt"
 viewBox="0.00 0.00 364.00 28.00" xmlns="http://www.w3.org/2000/svg" xmlns:xlink="http://www.w3.org/1999/xlink">
<g id="graph0" class="graph" transform="scale(1 1) rotate(0) translate(4 24)">
<title>DCT_OnNewBoundary</title>
<polygon fill="#ffffff" stroke="transparent" points="-4,4 -4,-24 360,-24 360,4 -4,4"/>
<!-- Node164 -->
<g id="node1" class="node">
<title>Node164</title>
<polygon fill="#bfbfbf" stroke="#000000" points="0,-.5 0,-19.5 93,-19.5 93,-.5 0,-.5"/>
<text text-anchor="middle" x="46.5" y="-7.5" font-family="Helvetica,sans-Serif" font-size="10.00" fill="#000000">DCT_OnNewBoundary</text>
</g>
<!-- Node165 -->
<g id="node2" class="node">
<title>Node165</title>
<g id="a_node2"><a xlink:href="$dc/d6c/dct__mpi__comm_8c.html#a8d32decd1b87fc67e847e8aa64b05f4e" xlink:title="DCT_ConsumeVar_Comm">
<polygon fill="#ffffff" stroke="#000000" points="129,-.5 129,-19.5 235,-19.5 235,-.5 129,-.5"/>
<text text-anchor="middle" x="182" y="-7.5" font-family="Helvetica,sans-Serif" font-size="10.00" fill="#000000">DCT_ConsumeVar_Comm</text>
</a>
</g>
</g>
<!-- Node164&#45;&gt;Node165 -->
<g id="edge1" class="edge">
<title>Node164&#45;&gt;Node165</title>
<path fill="none" stroke="#191970" d="M103.2782,-10C111.7217,-10 120.3988,-10 128.7659,-10"/>
<polygon fill="#191970" stroke="#191970" points="103.1314,-6.5001 93.1314,-10 103.1314,-13.5001 103.1314,-6.5001"/>
</g>
<!-- Node166 -->
<g id="node3" class="node">
<title>Node166</title>
<g id="a_node3"><a xlink:href="$d8/d17/dct__broker_8c.html#aa8e0aa98031488e106f16272b3b4fcdd" xlink:title="DCT_VarComm_Set">
<polygon fill="#ffffff" stroke="#000000" points="271,-.5 271,-19.5 356,-19.5 356,-.5 271,-.5"/>
<text text-anchor="middle" x="313.5" y="-7.5" font-family="Helvetica,sans-Serif" font-size="10.00" fill="#000000">DCT_VarComm_Set</text>
</a>
</g>
</g>
<!-- Node165&#45;&gt;Node166 -->
<g id="edge2" class="edge">
<title>Node165&#45;&gt;Node166</title>
<path fill="none" stroke="#191970" d="M245.1898,-10C253.8324,-10 262.5341,-10 270.6964,-10"/>
<polygon fill="#191970" stroke="#191970" points="245.1071,-6.5001 235.107,-10 245.107,-13.5001 245.1071,-6.5001"/>
</g>
</g>
</svg>
