<?xml version="1.0" encoding="UTF-8" standalone="no"?>
<!DOCTYPE svg PUBLIC "-//W3C//DTD SVG 1.1//EN"
 "http://www.w3.org/Graphics/SVG/1.1/DTD/svg11.dtd">
<!-- Generated by graphviz version 2.40.1 (20161225.0304)
 -->
<!-- Title: DCT_IncludeNeighbor Pages: 1 -->
<svg width="512pt" height="131pt"
 viewBox="0.00 0.00 512.00 130.92" xmlns="http://www.w3.org/2000/svg" xmlns:xlink="http://www.w3.org/1999/xlink">
<g id="graph0" class="graph" transform="scale(1 1) rotate(0) translate(4 126.9195)">
<title>DCT_IncludeNeighbor</title>
<polygon fill="#ffffff" stroke="transparent" points="-4,4 -4,-126.9195 508,-126.9195 508,4 -4,4"/>
<!-- Node138 -->
<g id="node1" class="node">
<title>Node138</title>
<polygon fill="#bfbfbf" stroke="#000000" points="0,-69 0,-88 91,-88 91,-69 0,-69"/>
<text text-anchor="middle" x="45.5" y="-76" font-family="Helvetica,sans-Serif" font-size="10.00" fill="#000000">DCT_IncludeNeighbor</text>
</g>
<!-- Node139 -->
<g id="node2" class="node">
<title>Node139</title>
<g id="a_node2"><a xlink:href="$d8/d17/dct__broker_8c.html#adbf4b4b0d5ea6eaf8da49f85a748ea1e" xlink:title="DCT_BrokerArrange">
<polygon fill="#ffffff" stroke="#000000" points="269,-99 269,-118 354,-118 354,-99 269,-99"/>
<text text-anchor="middle" x="311.5" y="-106" font-family="Helvetica,sans-Serif" font-size="10.00" fill="#000000">DCT_BrokerArrange</text>
</a>
</g>
</g>
<!-- Node138&#45;&gt;Node139 -->
<g id="edge1" class="edge">
<title>Node138&#45;&gt;Node139</title>
<path fill="none" stroke="#191970" d="M69.7084,-93.2112C85.4178,-101.8754 106.6785,-111.9953 127,-116.5 174.7348,-127.0815 231.0701,-122.2173 268.82,-116.5544"/>
<polygon fill="#191970" stroke="#191970" points="71.1218,-89.9879 60.7024,-88.0678 67.6503,-96.0665 71.1218,-89.9879"/>
</g>
<!-- Node140 -->
<g id="node3" class="node">
<title>Node140</title>
<g id="a_node3"><a xlink:href="$d8/d17/dct__broker_8c.html#abc90a33dd91cef71984221752e65d4c5" xlink:title="DCT_Arrange_SD">
<polygon fill="#ffffff" stroke="#000000" points="273,-39 273,-58 350,-58 350,-39 273,-39"/>
<text text-anchor="middle" x="311.5" y="-46" font-family="Helvetica,sans-Serif" font-size="10.00" fill="#000000">DCT_Arrange_SD</text>
</a>
</g>
</g>
<!-- Node138&#45;&gt;Node140 -->
<g id="edge2" class="edge">
<title>Node138&#45;&gt;Node140</title>
<path fill="none" stroke="#191970" d="M101.1827,-72.22C152.6157,-66.4193 227.6819,-57.9532 272.8402,-52.8601"/>
<polygon fill="#191970" stroke="#191970" points="100.7718,-68.7441 91.227,-73.3428 101.5563,-75.7 100.7718,-68.7441"/>
</g>
<!-- Node142 -->
<g id="node5" class="node">
<title>Node142</title>
<g id="a_node5"><a xlink:href="$da/df2/dct__data__utils_8c.html#a460312d591491bfa46280b80b7e5f356" xlink:title="DCT_Calculate_Neighbors">
<polygon fill="#ffffff" stroke="#000000" points="127,-88 127,-107 233,-107 233,-88 127,-88"/>
<text text-anchor="middle" x="180" y="-95" font-family="Helvetica,sans-Serif" font-size="10.00" fill="#000000">DCT_Calculate_Neighbors</text>
</a>
</g>
</g>
<!-- Node138&#45;&gt;Node142 -->
<g id="edge4" class="edge">
<title>Node138&#45;&gt;Node142</title>
<path fill="none" stroke="#191970" d="M101.1469,-86.3609C109.5685,-87.5506 118.2404,-88.7756 126.6126,-89.9583"/>
<polygon fill="#191970" stroke="#191970" points="101.4268,-82.8658 91.0356,-84.9325 100.4477,-89.797 101.4268,-82.8658"/>
</g>
<!-- Node143 -->
<g id="node6" class="node">
<title>Node143</title>
<g id="a_node6"><a xlink:href="$da/df2/dct__data__utils_8c.html#a486ce2ce785aeff4483030a00407973c" xlink:title="DCT_Calculate_PerProc\l_Neighbors">
<polygon fill="#ffffff" stroke="#000000" points="130.5,-.5 130.5,-30.5 229.5,-30.5 229.5,-.5 130.5,-.5"/>
<text text-anchor="start" x="138.5" y="-18.5" font-family="Helvetica,sans-Serif" font-size="10.00" fill="#000000">DCT_Calculate_PerProc</text>
<text text-anchor="middle" x="180" y="-7.5" font-family="Helvetica,sans-Serif" font-size="10.00" fill="#000000">_Neighbors</text>
</a>
</g>
</g>
<!-- Node138&#45;&gt;Node143 -->
<g id="edge6" class="edge">
<title>Node138&#45;&gt;Node143</title>
<path fill="none" stroke="#191970" d="M75.2291,-64.5748C96.7406,-54.4988 125.785,-40.8944 147.8373,-30.565"/>
<polygon fill="#191970" stroke="#191970" points="73.4988,-61.5203 65.9277,-68.9317 76.4681,-67.8594 73.4988,-61.5203"/>
</g>
<!-- Node141 -->
<g id="node4" class="node">
<title>Node141</title>
<g id="a_node4"><a xlink:href="$d8/d17/dct__broker_8c.html#a4cb3cbef9b24f5897238441888219e33" xlink:title="DCT_Local_SubDom_Comm">
<polygon fill="#ffffff" stroke="#000000" points="390,-39 390,-58 504,-58 504,-39 390,-39"/>
<text text-anchor="middle" x="447" y="-46" font-family="Helvetica,sans-Serif" font-size="10.00" fill="#000000">DCT_Local_SubDom_Comm</text>
</a>
</g>
</g>
<!-- Node140&#45;&gt;Node141 -->
<g id="edge3" class="edge">
<title>Node140&#45;&gt;Node141</title>
<path fill="none" stroke="#191970" d="M360.4692,-48.5C370.0481,-48.5 380.1709,-48.5 389.9853,-48.5"/>
<polygon fill="#191970" stroke="#191970" points="360.3289,-45.0001 350.3289,-48.5 360.3288,-52.0001 360.3289,-45.0001"/>
</g>
<!-- Node142&#45;&gt;Node139 -->
<g id="edge5" class="edge">
<title>Node142&#45;&gt;Node139</title>
<path fill="none" stroke="#191970" d="M243.1898,-102.7858C251.8324,-103.5088 260.5341,-104.2367 268.6964,-104.9195"/>
<polygon fill="#191970" stroke="#191970" points="243.364,-99.2883 233.107,-101.9424 242.7804,-106.2639 243.364,-99.2883"/>
</g>
<!-- Node143&#45;&gt;Node140 -->
<g id="edge7" class="edge">
<title>Node143&#45;&gt;Node140</title>
<path fill="none" stroke="#191970" d="M239.7372,-30.4911C251.256,-33.3817 263.023,-36.3347 273.6081,-38.991"/>
<polygon fill="#191970" stroke="#191970" points="240.2657,-27.0153 229.7145,-27.9759 238.5618,-33.8047 240.2657,-27.0153"/>
</g>
</g>
</svg>
