<?xml version="1.0" encoding="UTF-8" standalone="no"?>
<!DOCTYPE svg PUBLIC "-//W3C//DTD SVG 1.1//EN"
 "http://www.w3.org/Graphics/SVG/1.1/DTD/svg11.dtd">
<!-- Generated by graphviz version 2.40.1 (20161225.0304)
 -->
<!-- Title: DCT_Return_SubDom_Interc Pages: 1 -->
<svg width="358pt" height="28pt"
 viewBox="0.00 0.00 358.00 28.00" xmlns="http://www.w3.org/2000/svg" xmlns:xlink="http://www.w3.org/1999/xlink">
<g id="graph0" class="graph" transform="scale(1 1) rotate(0) translate(4 24)">
<title>DCT_Return_SubDom_Interc</title>
<polygon fill="#ffffff" stroke="transparent" points="-4,4 -4,-24 354,-24 354,4 -4,4"/>
<!-- Node59 -->
<g id="node1" class="node">
<title>Node59</title>
<polygon fill="#bfbfbf" stroke="#000000" points="0,-.5 0,-19.5 115,-19.5 115,-.5 0,-.5"/>
<text text-anchor="middle" x="57.5" y="-7.5" font-family="Helvetica,sans-Serif" font-size="10.00" fill="#000000">DCT_Return_SubDom_Interc</text>
</g>
<!-- Node60 -->
<g id="node2" class="node">
<title>Node60</title>
<g id="a_node2"><a xlink:href="$da/df2/dct__data__utils_8c.html#adfa8197f7b8a37bbb641ed09e67246bf" xlink:title="DCT_SearchIndex">
<polygon fill="#ffffff" stroke="#000000" points="151,-.5 151,-19.5 229,-19.5 229,-.5 151,-.5"/>
<text text-anchor="middle" x="190" y="-7.5" font-family="Helvetica,sans-Serif" font-size="10.00" fill="#000000">DCT_SearchIndex</text>
</a>
</g>
</g>
<!-- Node59&#45;&gt;Node60 -->
<g id="edge1" class="edge">
<title>Node59&#45;&gt;Node60</title>
<path fill="none" stroke="#191970" d="M115.231,-10C123.665,-10 132.2862,-10 140.5358,-10"/>
<polygon fill="#191970" stroke="#191970" points="140.7443,-13.5001 150.7443,-10 140.7442,-6.5001 140.7443,-13.5001"/>
</g>
<!-- Node61 -->
<g id="node3" class="node">
<title>Node61</title>
<g id="a_node3"><a xlink:href="$da/df2/dct__data__utils_8c.html#ab4c2668ba72029a38c2a6ad100c8a897" xlink:title="DCT_index_bsearch">
<polygon fill="#ffffff" stroke="#000000" points="265,-.5 265,-19.5 350,-19.5 350,-.5 265,-.5"/>
<text text-anchor="middle" x="307.5" y="-7.5" font-family="Helvetica,sans-Serif" font-size="10.00" fill="#000000">DCT_index_bsearch</text>
</a>
</g>
</g>
<!-- Node60&#45;&gt;Node61 -->
<g id="edge2" class="edge">
<title>Node60&#45;&gt;Node61</title>
<path fill="none" stroke="#191970" d="M229.1258,-10C237.3789,-10 246.2158,-10 254.8734,-10"/>
<polygon fill="#191970" stroke="#191970" points="254.9085,-13.5001 264.9085,-10 254.9084,-6.5001 254.9085,-13.5001"/>
</g>
</g>
</svg>
