<?xml version="1.0" encoding="UTF-8" standalone="no"?>
<!DOCTYPE svg PUBLIC "-//W3C//DTD SVG 1.1//EN"
 "http://www.w3.org/Graphics/SVG/1.1/DTD/svg11.dtd">
<!-- Generated by graphviz version 2.40.1 (20161225.0304)
 -->
<!-- Title: DCT_Create_3d_Var Pages: 1 -->
<svg width="212pt" height="28pt"
 viewBox="0.00 0.00 212.00 28.00" xmlns="http://www.w3.org/2000/svg" xmlns:xlink="http://www.w3.org/1999/xlink">
<g id="graph0" class="graph" transform="scale(1 1) rotate(0) translate(4 24)">
<title>DCT_Create_3d_Var</title>
<polygon fill="#ffffff" stroke="transparent" points="-4,4 -4,-24 208,-24 208,4 -4,4"/>
<!-- Node35 -->
<g id="node1" class="node">
<title>Node35</title>
<polygon fill="#bfbfbf" stroke="#000000" points="0,-.5 0,-19.5 87,-19.5 87,-.5 0,-.5"/>
<text text-anchor="middle" x="43.5" y="-7.5" font-family="Helvetica,sans-Serif" font-size="10.00" fill="#000000">DCT_Create_3d_Var</text>
</g>
<!-- Node36 -->
<g id="node2" class="node">
<title>Node36</title>
<g id="a_node2"><a xlink:href="$d4/dd3/dctsys_8h.html#ad197232b17e4222e490b391edbc2b57a" xlink:title="DCT_List_CHKAdd">
<polygon fill="#ffffff" stroke="#000000" points="123,-.5 123,-19.5 204,-19.5 204,-.5 123,-.5"/>
<text text-anchor="middle" x="163.5" y="-7.5" font-family="Helvetica,sans-Serif" font-size="10.00" fill="#000000">DCT_List_CHKAdd</text>
</a>
</g>
</g>
<!-- Node35&#45;&gt;Node36 -->
<g id="edge1" class="edge">
<title>Node35&#45;&gt;Node36</title>
<path fill="none" stroke="#191970" d="M87.1622,-10C95.452,-10 104.1922,-10 112.6813,-10"/>
<polygon fill="#191970" stroke="#191970" points="112.8644,-13.5001 122.8643,-10 112.8643,-6.5001 112.8644,-13.5001"/>
</g>
</g>
</svg>
