<?xml version="1.0" encoding="UTF-8" standalone="no"?>
<!DOCTYPE svg PUBLIC "-//W3C//DTD SVG 1.1//EN"
 "http://www.w3.org/Graphics/SVG/1.1/DTD/svg11.dtd">
<!-- Generated by graphviz version 2.40.1 (20161225.0304)
 -->
<!-- Title: DCT_Set_4d_Var_Freq_Consumption Pages: 1 -->
<svg width="259pt" height="39pt"
 viewBox="0.00 0.00 259.00 39.00" xmlns="http://www.w3.org/2000/svg" xmlns:xlink="http://www.w3.org/1999/xlink">
<g id="graph0" class="graph" transform="scale(1 1) rotate(0) translate(4 35)">
<title>DCT_Set_4d_Var_Freq_Consumption</title>
<polygon fill="#ffffff" stroke="transparent" points="-4,4 -4,-35 255,-35 255,4 -4,4"/>
<!-- Node92 -->
<g id="node1" class="node">
<title>Node92</title>
<polygon fill="#bfbfbf" stroke="#000000" points="0,-.5 0,-30.5 95,-30.5 95,-.5 0,-.5"/>
<text text-anchor="start" x="8" y="-18.5" font-family="Helvetica,sans-Serif" font-size="10.00" fill="#000000">DCT_Set_4d_Var_Freq</text>
<text text-anchor="middle" x="47.5" y="-7.5" font-family="Helvetica,sans-Serif" font-size="10.00" fill="#000000">_Consumption</text>
</g>
<!-- Node93 -->
<g id="node2" class="node">
<title>Node93</title>
<g id="a_node2"><a xlink:href="$d2/d10/dct__model_8c.html#ab07afaee46ee6fa2bd31653c5b4351ed" xlink:title="DCT_Set_Model_Consumption">
<polygon fill="#ffffff" stroke="#000000" points="131,-6 131,-25 251,-25 251,-6 131,-6"/>
<text text-anchor="middle" x="191" y="-13" font-family="Helvetica,sans-Serif" font-size="10.00" fill="#000000">DCT_Set_Model_Consumption</text>
</a>
</g>
</g>
<!-- Node92&#45;&gt;Node93 -->
<g id="edge1" class="edge">
<title>Node92&#45;&gt;Node93</title>
<path fill="none" stroke="#191970" d="M105.3784,-15.5C113.7887,-15.5 122.4634,-15.5 130.9161,-15.5"/>
<polygon fill="#191970" stroke="#191970" points="105.2835,-12.0001 95.2834,-15.5 105.2834,-19.0001 105.2835,-12.0001"/>
</g>
</g>
</svg>
