<?xml version="1.0" encoding="UTF-8" standalone="no"?>
<!DOCTYPE svg PUBLIC "-//W3C//DTD SVG 1.1//EN"
 "http://www.w3.org/Graphics/SVG/1.1/DTD/svg11.dtd">
<!-- Generated by graphviz version 2.40.1 (20161225.0304)
 -->
<!-- Title: DCT_Hollow_CPLVar Pages: 1 -->
<svg width="242pt" height="689pt"
 viewBox="0.00 0.00 241.50 689.00" xmlns="http://www.w3.org/2000/svg" xmlns:xlink="http://www.w3.org/1999/xlink">
<g id="graph0" class="graph" transform="scale(1 1) rotate(0) translate(4 685)">
<title>DCT_Hollow_CPLVar</title>
<polygon fill="#ffffff" stroke="transparent" points="-4,4 -4,-685 237.5,-685 237.5,4 -4,4"/>
<!-- Node1 -->
<g id="node1" class="node">
<title>Node1</title>
<polygon fill="#bfbfbf" stroke="#000000" points="45,-.5 45,-145.5 158,-145.5 158,-.5 45,-.5"/>
<text text-anchor="middle" x="101.5" y="-133.5" font-family="Helvetica,sans-Serif" font-size="10.00" fill="#000000">DCT_Hollow_CPLVar</text>
<polyline fill="none" stroke="#000000" points="45,-126.5 158,-126.5 "/>
<text text-anchor="start" x="53" y="-114.5" font-family="Helvetica,sans-Serif" font-size="10.00" fill="#000000">+ VarName</text>
<text text-anchor="start" x="53" y="-103.5" font-family="Helvetica,sans-Serif" font-size="10.00" fill="#000000">+ VarTag</text>
<text text-anchor="start" x="53" y="-92.5" font-family="Helvetica,sans-Serif" font-size="10.00" fill="#000000">+ CoupleVarTypes</text>
<text text-anchor="start" x="53" y="-81.5" font-family="Helvetica,sans-Serif" font-size="10.00" fill="#000000">+ VarUnits</text>
<text text-anchor="start" x="53" y="-70.5" font-family="Helvetica,sans-Serif" font-size="10.00" fill="#000000">+ VarTimeUnits</text>
<text text-anchor="start" x="53" y="-59.5" font-family="Helvetica,sans-Serif" font-size="10.00" fill="#000000">+ VarTimeIni</text>
<text text-anchor="start" x="53" y="-48.5" font-family="Helvetica,sans-Serif" font-size="10.00" fill="#000000">+ VarFrequency</text>
<text text-anchor="start" x="53" y="-37.5" font-family="Helvetica,sans-Serif" font-size="10.00" fill="#000000">+ VarProduced</text>
<text text-anchor="start" x="53" y="-26.5" font-family="Helvetica,sans-Serif" font-size="10.00" fill="#000000">+ VarUserDataType</text>
<polyline fill="none" stroke="#000000" points="45,-19.5 158,-19.5 "/>
<text text-anchor="middle" x="101.5" y="-7.5" font-family="Helvetica,sans-Serif" font-size="10.00" fill="#000000"> </text>
</g>
<!-- Node2 -->
<g id="node2" class="node">
<title>Node2</title>
<g id="a_node2"><a xlink:href="../../db/d28/structDCT__Model.html" target="_top" xlink:title="Data structure used by DCT to represent a computational model. ">
<polygon fill="#ffffff" stroke="#000000" points="40,-193.5 40,-382.5 163,-382.5 163,-193.5 40,-193.5"/>
<text text-anchor="middle" x="101.5" y="-370.5" font-family="Helvetica,sans-Serif" font-size="10.00" fill="#000000">DCT_Model</text>
<polyline fill="none" stroke="#000000" points="40,-363.5 163,-363.5 "/>
<text text-anchor="start" x="48" y="-351.5" font-family="Helvetica,sans-Serif" font-size="10.00" fill="#000000">+ ModName</text>
<text text-anchor="start" x="48" y="-340.5" font-family="Helvetica,sans-Serif" font-size="10.00" fill="#000000">+ ModDescription</text>
<text text-anchor="start" x="48" y="-329.5" font-family="Helvetica,sans-Serif" font-size="10.00" fill="#000000">+ ModCommit</text>
<text text-anchor="start" x="48" y="-318.5" font-family="Helvetica,sans-Serif" font-size="10.00" fill="#000000">+ ModTag</text>
<text text-anchor="start" x="48" y="-307.5" font-family="Helvetica,sans-Serif" font-size="10.00" fill="#000000">+ ModNumProcs</text>
<text text-anchor="start" x="48" y="-296.5" font-family="Helvetica,sans-Serif" font-size="10.00" fill="#000000">+ ModTimeIni</text>
<text text-anchor="start" x="48" y="-285.5" font-family="Helvetica,sans-Serif" font-size="10.00" fill="#000000">+ ModTime</text>
<text text-anchor="start" x="48" y="-274.5" font-family="Helvetica,sans-Serif" font-size="10.00" fill="#000000">+ ModCurrentTime</text>
<text text-anchor="start" x="48" y="-263.5" font-family="Helvetica,sans-Serif" font-size="10.00" fill="#000000">+ ModTimeUnits</text>
<text text-anchor="start" x="48" y="-252.5" font-family="Helvetica,sans-Serif" font-size="10.00" fill="#000000">+ ModTotVarConsumed</text>
<text text-anchor="start" x="48" y="-241.5" font-family="Helvetica,sans-Serif" font-size="10.00" fill="#000000">+ ModTotVarProduced</text>
<text text-anchor="start" x="48" y="-230.5" font-family="Helvetica,sans-Serif" font-size="10.00" fill="#000000">+ ModLeadRank</text>
<text text-anchor="start" x="48" y="-219.5" font-family="Helvetica,sans-Serif" font-size="10.00" fill="#000000">+ ModGroupComm</text>
<polyline fill="none" stroke="#000000" points="40,-212.5 163,-212.5 "/>
<text text-anchor="middle" x="101.5" y="-200.5" font-family="Helvetica,sans-Serif" font-size="10.00" fill="#000000"> </text>
</a>
</g>
</g>
<!-- Node2&#45;&gt;Node1 -->
<g id="edge1" class="edge">
<title>Node2&#45;&gt;Node1</title>
<path fill="none" stroke="#404040" d="M101.5,-193.385C101.5,-181.5117 101.5,-169.4256 101.5,-157.7175"/>
<polygon fill="none" stroke="#404040" points="101.5001,-157.6779 97.5,-151.678 101.5,-145.6779 105.5,-151.6779 101.5001,-157.6779"/>
<text text-anchor="middle" x="127.5" y="-167" font-family="Helvetica,sans-Serif" font-size="10.00" fill="#000000"> +VarModel</text>
</g>
<!-- Node3 -->
<g id="node3" class="node">
<title>Node3</title>
<g id="a_node3"><a xlink:href="../../df/de8/structDCT__List.html" target="_top" xlink:title="General structure to represent list for DCT. ">
<polygon fill="#ffffff" stroke="#000000" points="0,-458 0,-537 83,-537 83,-458 0,-458"/>
<text text-anchor="middle" x="41.5" y="-525" font-family="Helvetica,sans-Serif" font-size="10.00" fill="#000000">DCT_List</text>
<polyline fill="none" stroke="#000000" points="0,-518 83,-518 "/>
<text text-anchor="start" x="8" y="-506" font-family="Helvetica,sans-Serif" font-size="10.00" fill="#000000">+ AddressData</text>
<text text-anchor="start" x="8" y="-495" font-family="Helvetica,sans-Serif" font-size="10.00" fill="#000000">+ NextData</text>
<text text-anchor="start" x="8" y="-484" font-family="Helvetica,sans-Serif" font-size="10.00" fill="#000000">+ DataType</text>
<polyline fill="none" stroke="#000000" points="0,-477 83,-477 "/>
<text text-anchor="middle" x="41.5" y="-465" font-family="Helvetica,sans-Serif" font-size="10.00" fill="#000000"> </text>
</a>
</g>
</g>
<!-- Node3&#45;&gt;Node2 -->
<g id="edge2" class="edge">
<title>Node3&#45;&gt;Node2</title>
<path fill="none" stroke="#404040" d="M40.5643,-457.9935C41.0073,-440.3132 42.7348,-419.3597 47.5,-401 48.094,-398.7113 48.735,-396.4131 49.418,-394.1104"/>
<polygon fill="none" stroke="#404040" points="49.455,-393.9961 47.502,-387.0545 53.1584,-382.5819 55.1115,-389.5235 49.455,-393.9961"/>
<text text-anchor="middle" x="93.5" y="-415" font-family="Helvetica,sans-Serif" font-size="10.00" fill="#000000"> +ModConsumeVars</text>
<text text-anchor="middle" x="93.5" y="-404" font-family="Helvetica,sans-Serif" font-size="10.00" fill="#000000">+ModProduceVars</text>
</g>
<!-- Node4 -->
<g id="node4" class="node">
<title>Node4</title>
<g id="a_node4"><a xlink:href="../../db/da4/structDCT__Model__Dom.html" target="_top" xlink:title="Data structure to represent the computational model domain in DCT_Model. ">
<polygon fill="#ffffff" stroke="#000000" points="101,-441.5 101,-553.5 232,-553.5 232,-441.5 101,-441.5"/>
<text text-anchor="middle" x="166.5" y="-541.5" font-family="Helvetica,sans-Serif" font-size="10.00" fill="#000000">DCT_Model_Dom</text>
<polyline fill="none" stroke="#000000" points="101,-534.5 232,-534.5 "/>
<text text-anchor="start" x="109" y="-522.5" font-family="Helvetica,sans-Serif" font-size="10.00" fill="#000000">+ ModDomDim</text>
<text text-anchor="start" x="109" y="-511.5" font-family="Helvetica,sans-Serif" font-size="10.00" fill="#000000">+ ModDomType</text>
<text text-anchor="start" x="109" y="-500.5" font-family="Helvetica,sans-Serif" font-size="10.00" fill="#000000">+ ModNumPts</text>
<text text-anchor="start" x="109" y="-489.5" font-family="Helvetica,sans-Serif" font-size="10.00" fill="#000000">+ ModValues</text>
<text text-anchor="start" x="109" y="-478.5" font-family="Helvetica,sans-Serif" font-size="10.00" fill="#000000">+ ModSubDomParLayout</text>
<text text-anchor="start" x="109" y="-467.5" font-family="Helvetica,sans-Serif" font-size="10.00" fill="#000000">+ ModSubDomLayoutDim</text>
<polyline fill="none" stroke="#000000" points="101,-460.5 232,-460.5 "/>
<text text-anchor="middle" x="166.5" y="-448.5" font-family="Helvetica,sans-Serif" font-size="10.00" fill="#000000"> </text>
</a>
</g>
</g>
<!-- Node4&#45;&gt;Node2 -->
<g id="edge3" class="edge">
<title>Node4&#45;&gt;Node2</title>
<path fill="none" stroke="#404040" d="M151.3537,-441.4809C147.6101,-428.1735 143.5176,-414.0522 139.5,-401 138.8036,-398.7375 138.0935,-396.4516 137.3724,-394.1488"/>
<polygon fill="none" stroke="#404040" points="137.3142,-393.9649 131.6878,-389.4544 133.6874,-382.5261 139.3137,-387.0365 137.3142,-393.9649"/>
<text text-anchor="middle" x="177" y="-409.5" font-family="Helvetica,sans-Serif" font-size="10.00" fill="#000000"> +ModDomain</text>
</g>
<!-- Node5 -->
<g id="node5" class="node">
<title>Node5</title>
<g id="a_node5"><a xlink:href="../../db/d34/structDCT__Data__SubDom.html" target="_top" xlink:title="The data type used to represent a model subdomain. ">
<polygon fill="#ffffff" stroke="#000000" points="112.5,-601.5 112.5,-680.5 220.5,-680.5 220.5,-601.5 112.5,-601.5"/>
<text text-anchor="middle" x="166.5" y="-668.5" font-family="Helvetica,sans-Serif" font-size="10.00" fill="#000000">DCT_Data_SubDom</text>
<polyline fill="none" stroke="#000000" points="112.5,-661.5 220.5,-661.5 "/>
<text text-anchor="start" x="120.5" y="-649.5" font-family="Helvetica,sans-Serif" font-size="10.00" fill="#000000">+ IniPos</text>
<text text-anchor="start" x="120.5" y="-638.5" font-family="Helvetica,sans-Serif" font-size="10.00" fill="#000000">+ EndPos</text>
<text text-anchor="start" x="120.5" y="-627.5" font-family="Helvetica,sans-Serif" font-size="10.00" fill="#000000">+ RankProc</text>
<polyline fill="none" stroke="#000000" points="112.5,-620.5 220.5,-620.5 "/>
<text text-anchor="middle" x="166.5" y="-608.5" font-family="Helvetica,sans-Serif" font-size="10.00" fill="#000000"> </text>
</a>
</g>
</g>
<!-- Node5&#45;&gt;Node4 -->
<g id="edge4" class="edge">
<title>Node5&#45;&gt;Node4</title>
<path fill="none" stroke="#404040" d="M166.5,-601.4081C166.5,-590.3331 166.5,-577.9691 166.5,-565.7414"/>
<polygon fill="none" stroke="#404040" points="166.5001,-565.6118 162.5,-559.6119 166.5,-553.6118 170.5,-559.6118 166.5001,-565.6118"/>
<text text-anchor="middle" x="200" y="-575" font-family="Helvetica,sans-Serif" font-size="10.00" fill="#000000"> +ModSubDom</text>
</g>
</g>
</svg>
