<?xml version="1.0" encoding="UTF-8" standalone="no"?>
<!DOCTYPE svg PUBLIC "-//W3C//DTD SVG 1.1//EN"
 "http://www.w3.org/Graphics/SVG/1.1/DTD/svg11.dtd">
<!-- Generated by graphviz version 2.40.1 (20161225.0304)
 -->
<!-- Title: DCT_Create_Field Pages: 1 -->
<svg width="243pt" height="66pt"
 viewBox="0.00 0.00 243.00 66.00" xmlns="http://www.w3.org/2000/svg" xmlns:xlink="http://www.w3.org/1999/xlink">
<g id="graph0" class="graph" transform="scale(1 1) rotate(0) translate(4 62)">
<title>DCT_Create_Field</title>
<polygon fill="#ffffff" stroke="transparent" points="-4,4 -4,-62 239,-62 239,4 -4,4"/>
<!-- Node2 -->
<g id="node1" class="node">
<title>Node2</title>
<polygon fill="#bfbfbf" stroke="#000000" points="0,-19.5 0,-38.5 79,-38.5 79,-19.5 0,-19.5"/>
<text text-anchor="middle" x="39.5" y="-26.5" font-family="Helvetica,sans-Serif" font-size="10.00" fill="#000000">DCT_Create_Field</text>
</g>
<!-- Node3 -->
<g id="node2" class="node">
<title>Node3</title>
<g id="a_node2"><a xlink:href="../../d2/d10/dct__model_8c.html#aab56e7e14f2936826ecf07bd05cfd47e" target="_top" xlink:title="DCT_Set_Model_Production">
<polygon fill="#ffffff" stroke="#000000" points="119,-38.5 119,-57.5 231,-57.5 231,-38.5 119,-38.5"/>
<text text-anchor="middle" x="175" y="-45.5" font-family="Helvetica,sans-Serif" font-size="10.00" fill="#000000">DCT_Set_Model_Production</text>
</a>
</g>
</g>
<!-- Node2&#45;&gt;Node3 -->
<g id="edge1" class="edge">
<title>Node2&#45;&gt;Node3</title>
<path fill="none" stroke="#191970" d="M89.2391,-35.9745C98.8489,-37.322 108.98,-38.7426 118.7795,-40.1167"/>
<polygon fill="#191970" stroke="#191970" points="89.4456,-32.4693 79.0565,-34.5467 88.4735,-39.4015 89.4456,-32.4693"/>
</g>
<!-- Node4 -->
<g id="node3" class="node">
<title>Node4</title>
<g id="a_node3"><a xlink:href="../../d2/d10/dct__model_8c.html#ab07afaee46ee6fa2bd31653c5b4351ed" target="_top" xlink:title="DCT_Set_Model_Consumption">
<polygon fill="#ffffff" stroke="#000000" points="115,-.5 115,-19.5 235,-19.5 235,-.5 115,-.5"/>
<text text-anchor="middle" x="175" y="-7.5" font-family="Helvetica,sans-Serif" font-size="10.00" fill="#000000">DCT_Set_Model_Consumption</text>
</a>
</g>
</g>
<!-- Node2&#45;&gt;Node4 -->
<g id="edge2" class="edge">
<title>Node2&#45;&gt;Node4</title>
<path fill="none" stroke="#191970" d="M89.0887,-22.0466C97.5094,-20.8658 106.3342,-19.6284 114.9883,-18.4149"/>
<polygon fill="#191970" stroke="#191970" points="88.4735,-18.5985 79.0565,-23.4533 89.4456,-25.5307 88.4735,-18.5985"/>
</g>
</g>
</svg>
