<?xml version="1.0" encoding="UTF-8" standalone="no"?>
<!DOCTYPE svg PUBLIC "-//W3C//DTD SVG 1.1//EN"
 "http://www.w3.org/Graphics/SVG/1.1/DTD/svg11.dtd">
<!-- Generated by graphviz version 2.40.1 (20161225.0304)
 -->
<!-- Title: dct_create_field_ Pages: 1 -->
<svg width="314pt" height="28pt"
 viewBox="0.00 0.00 314.00 28.00" xmlns="http://www.w3.org/2000/svg" xmlns:xlink="http://www.w3.org/1999/xlink">
<g id="graph0" class="graph" transform="scale(1 1) rotate(0) translate(4 24)">
<title>dct_create_field_</title>
<polygon fill="#ffffff" stroke="transparent" points="-4,4 -4,-24 310,-24 310,4 -4,4"/>
<!-- Node0 -->
<g id="node1" class="node">
<title>Node0</title>
<polygon fill="#bfbfbf" stroke="#000000" points="0,-.5 0,-19.5 74,-19.5 74,-.5 0,-.5"/>
<text text-anchor="middle" x="37" y="-7.5" font-family="Helvetica,sans-Serif" font-size="10.00" fill="#000000">dct_create_field_</text>
</g>
<!-- Node1 -->
<g id="node2" class="node">
<title>Node1</title>
<g id="a_node2"><a xlink:href="$df/d15/dct_8h.html#a3238ae7b6d71929ff38e15251f0e26bf" xlink:title="DCT_Create_Field">
<polygon fill="#ffffff" stroke="#000000" points="110,-.5 110,-19.5 189,-19.5 189,-.5 110,-.5"/>
<text text-anchor="middle" x="149.5" y="-7.5" font-family="Helvetica,sans-Serif" font-size="10.00" fill="#000000">DCT_Create_Field</text>
</a>
</g>
</g>
<!-- Node0&#45;&gt;Node1 -->
<g id="edge1" class="edge">
<title>Node0&#45;&gt;Node1</title>
<path fill="none" stroke="#191970" d="M74.1485,-10C82.2477,-10 90.9464,-10 99.4535,-10"/>
<polygon fill="#191970" stroke="#191970" points="99.6821,-13.5001 109.6821,-10 99.6821,-6.5001 99.6821,-13.5001"/>
</g>
<!-- Node2 -->
<g id="node3" class="node">
<title>Node2</title>
<g id="a_node3"><a xlink:href="$d4/dd3/dctsys_8h.html#ad197232b17e4222e490b391edbc2b57a" xlink:title="DCT_List_CHKAdd">
<polygon fill="#ffffff" stroke="#000000" points="225,-.5 225,-19.5 306,-19.5 306,-.5 225,-.5"/>
<text text-anchor="middle" x="265.5" y="-7.5" font-family="Helvetica,sans-Serif" font-size="10.00" fill="#000000">DCT_List_CHKAdd</text>
</a>
</g>
</g>
<!-- Node1&#45;&gt;Node2 -->
<g id="edge2" class="edge">
<title>Node1&#45;&gt;Node2</title>
<path fill="none" stroke="#191970" d="M189.0962,-10C197.3086,-10 206.0701,-10 214.6219,-10"/>
<polygon fill="#191970" stroke="#191970" points="214.8983,-13.5001 224.8983,-10 214.8982,-6.5001 214.8983,-13.5001"/>
</g>
</g>
</svg>
