<?xml version="1.0" encoding="UTF-8" standalone="no"?>
<!DOCTYPE svg PUBLIC "-//W3C//DTD SVG 1.1//EN"
 "http://www.w3.org/Graphics/SVG/1.1/DTD/svg11.dtd">
<!-- Generated by graphviz version 2.40.1 (20161225.0304)
 -->
<!-- Title: DCT_Recv_4d_Var Pages: 1 -->
<svg width="561pt" height="541pt"
 viewBox="0.00 0.00 561.00 541.00" xmlns="http://www.w3.org/2000/svg" xmlns:xlink="http://www.w3.org/1999/xlink">
<g id="graph0" class="graph" transform="scale(1 1) rotate(0) translate(4 537)">
<title>DCT_Recv_4d_Var</title>
<polygon fill="#ffffff" stroke="transparent" points="-4,4 -4,-537 557,-537 557,4 -4,4"/>
<!-- Node50 -->
<g id="node1" class="node">
<title>Node50</title>
<polygon fill="#bfbfbf" stroke="#000000" points="0,-190.5 0,-209.5 82,-209.5 82,-190.5 0,-190.5"/>
<text text-anchor="middle" x="41" y="-197.5" font-family="Helvetica,sans-Serif" font-size="10.00" fill="#000000">DCT_Recv_4d_Var</text>
</g>
<!-- Node51 -->
<g id="node2" class="node">
<title>Node51</title>
<g id="a_node2"><a xlink:href="$d4/dd3/dctsys_8h.html#abbde17d5b238ae359fbaa6c64c53a0e2" xlink:title="DCT_Perfom_Filter">
<polygon fill="#ffffff" stroke="#000000" points="134.5,-266.5 134.5,-285.5 215.5,-285.5 215.5,-266.5 134.5,-266.5"/>
<text text-anchor="middle" x="175" y="-273.5" font-family="Helvetica,sans-Serif" font-size="10.00" fill="#000000">DCT_Perfom_Filter</text>
</a>
</g>
</g>
<!-- Node50&#45;&gt;Node51 -->
<g id="edge1" class="edge">
<title>Node50&#45;&gt;Node51</title>
<path fill="none" stroke="#191970" d="M57.9712,-209.6255C81.0282,-222.7025 122.4502,-246.1957 149.3224,-261.4366"/>
<polygon fill="#191970" stroke="#191970" points="147.7415,-264.5637 158.1666,-266.4527 151.1949,-258.4748 147.7415,-264.5637"/>
</g>
<!-- Node63 -->
<g id="node14" class="node">
<title>Node63</title>
<g id="a_node14"><a xlink:href="$d4/dd3/dctsys_8h.html#a24c4ed0b8ab1ff8ea84da95746da4f08" xlink:title="DCT_Perfom_UnitConvertion">
<polygon fill="#ffffff" stroke="#000000" points="118,-133.5 118,-152.5 232,-152.5 232,-133.5 118,-133.5"/>
<text text-anchor="middle" x="175" y="-140.5" font-family="Helvetica,sans-Serif" font-size="10.00" fill="#000000">DCT_Perfom_UnitConvertion</text>
</a>
</g>
</g>
<!-- Node50&#45;&gt;Node63 -->
<g id="edge13" class="edge">
<title>Node50&#45;&gt;Node63</title>
<path fill="none" stroke="#191970" d="M63.4286,-190.4595C85.2655,-181.1706 118.6631,-166.9642 143.2296,-156.5143"/>
<polygon fill="#191970" stroke="#191970" points="144.6662,-159.7067 152.4982,-152.5716 141.9261,-153.2653 144.6662,-159.7067"/>
</g>
<!-- Node52 -->
<g id="node3" class="node">
<title>Node52</title>
<g id="a_node3"><a xlink:href="$da/df2/dct__data__utils_8c.html#a0e68c1d426c837ef219f1233376c3b75" xlink:title="DCT_Bilinear_Interp">
<polygon fill="#ffffff" stroke="#000000" points="288.5,-399.5 288.5,-418.5 372.5,-418.5 372.5,-399.5 288.5,-399.5"/>
<text text-anchor="middle" x="330.5" y="-406.5" font-family="Helvetica,sans-Serif" font-size="10.00" fill="#000000">DCT_Bilinear_Interp</text>
</a>
</g>
</g>
<!-- Node51&#45;&gt;Node52 -->
<g id="edge2" class="edge">
<title>Node51&#45;&gt;Node52</title>
<path fill="none" stroke="#191970" d="M186.1832,-285.565C212.3927,-307.9822 278.0525,-364.1414 311.0008,-392.3222"/>
<polygon fill="#191970" stroke="#191970" points="309.1242,-395.3227 318.9986,-399.1628 313.6741,-390.0031 309.1242,-395.3227"/>
</g>
<!-- Node59 -->
<g id="node10" class="node">
<title>Node59</title>
<g id="a_node10"><a xlink:href="$da/df2/dct__data__utils_8c.html#a16bd289e8f104900cc923d34ae274575" xlink:title="DCT_Trilinear_Interp">
<polygon fill="#ffffff" stroke="#000000" points="287,-266.5 287,-285.5 374,-285.5 374,-266.5 287,-266.5"/>
<text text-anchor="middle" x="330.5" y="-273.5" font-family="Helvetica,sans-Serif" font-size="10.00" fill="#000000">DCT_Trilinear_Interp</text>
</a>
</g>
</g>
<!-- Node51&#45;&gt;Node59 -->
<g id="edge9" class="edge">
<title>Node51&#45;&gt;Node59</title>
<path fill="none" stroke="#191970" d="M215.8558,-276C234.4762,-276 256.772,-276 276.7306,-276"/>
<polygon fill="#191970" stroke="#191970" points="276.9229,-279.5001 286.9228,-276 276.9228,-272.5001 276.9229,-279.5001"/>
</g>
<!-- Node53 -->
<g id="node4" class="node">
<title>Node53</title>
<g id="a_node4"><a xlink:href="$da/df2/dct__data__utils_8c.html#aa203eaf7a447bf07e19e2a22dab2b5c6" xlink:title="DCT_fBiLinIntSparseProd">
<polygon fill="#ffffff" stroke="#000000" points="439.5,-513.5 439.5,-532.5 542.5,-532.5 542.5,-513.5 439.5,-513.5"/>
<text text-anchor="middle" x="491" y="-520.5" font-family="Helvetica,sans-Serif" font-size="10.00" fill="#000000">DCT_fBiLinIntSparseProd</text>
</a>
</g>
</g>
<!-- Node52&#45;&gt;Node53 -->
<g id="edge3" class="edge">
<title>Node52&#45;&gt;Node53</title>
<path fill="none" stroke="#191970" d="M337.8133,-418.6059C352.8255,-437.6736 389.0822,-480.4859 429,-504 432.6557,-506.1535 436.5788,-508.0846 440.6113,-509.8123"/>
<polygon fill="#191970" stroke="#191970" points="439.5548,-513.156 450.1446,-513.4832 442.0702,-506.6235 439.5548,-513.156"/>
</g>
<!-- Node54 -->
<g id="node5" class="node">
<title>Node54</title>
<g id="a_node5"><a xlink:href="$da/df2/dct__data__utils_8c.html#a88df2ada5df2532d5de59dfd7b91db96" xlink:title="DCT_Msk_fBiLinIntSparseProd">
<polygon fill="#ffffff" stroke="#000000" points="430.5,-475.5 430.5,-494.5 551.5,-494.5 551.5,-475.5 430.5,-475.5"/>
<text text-anchor="middle" x="491" y="-482.5" font-family="Helvetica,sans-Serif" font-size="10.00" fill="#000000">DCT_Msk_fBiLinIntSparseProd</text>
</a>
</g>
</g>
<!-- Node52&#45;&gt;Node54 -->
<g id="edge4" class="edge">
<title>Node52&#45;&gt;Node54</title>
<path fill="none" stroke="#191970" d="M344.6436,-418.5707C363.3059,-430.8688 397.4845,-452.2656 429,-466 434.0958,-468.2207 439.5322,-470.2916 444.9884,-472.1878"/>
<polygon fill="#191970" stroke="#191970" points="444.1685,-475.6027 454.7615,-475.4071 446.3586,-468.9541 444.1685,-475.6027"/>
</g>
<!-- Node55 -->
<g id="node6" class="node">
<title>Node55</title>
<g id="a_node6"><a xlink:href="$da/df2/dct__data__utils_8c.html#a306c7c918943fb058ae10fe200610e60" xlink:title="DCT_dBiLinIntSparseProd">
<polygon fill="#ffffff" stroke="#000000" points="438.5,-437.5 438.5,-456.5 543.5,-456.5 543.5,-437.5 438.5,-437.5"/>
<text text-anchor="middle" x="491" y="-444.5" font-family="Helvetica,sans-Serif" font-size="10.00" fill="#000000">DCT_dBiLinIntSparseProd</text>
</a>
</g>
</g>
<!-- Node52&#45;&gt;Node55 -->
<g id="edge5" class="edge">
<title>Node52&#45;&gt;Node55</title>
<path fill="none" stroke="#191970" d="M371.0009,-418.589C392.1806,-423.6035 418.3022,-429.7881 440.7604,-435.1053"/>
<polygon fill="#191970" stroke="#191970" points="440.2529,-438.5818 450.7903,-437.4799 441.8657,-431.7701 440.2529,-438.5818"/>
</g>
<!-- Node56 -->
<g id="node7" class="node">
<title>Node56</title>
<g id="a_node7"><a xlink:href="$da/df2/dct__data__utils_8c.html#ac7ee399b3af11443e5c3dd6f90cb699f" xlink:title="DCT_Msk_dBiLinIntSparseProd">
<polygon fill="#ffffff" stroke="#000000" points="429.5,-399.5 429.5,-418.5 552.5,-418.5 552.5,-399.5 429.5,-399.5"/>
<text text-anchor="middle" x="491" y="-406.5" font-family="Helvetica,sans-Serif" font-size="10.00" fill="#000000">DCT_Msk_dBiLinIntSparseProd</text>
</a>
</g>
</g>
<!-- Node52&#45;&gt;Node56 -->
<g id="edge6" class="edge">
<title>Node52&#45;&gt;Node56</title>
<path fill="none" stroke="#191970" d="M372.6695,-409C386.9168,-409 403.2487,-409 419.1373,-409"/>
<polygon fill="#191970" stroke="#191970" points="419.488,-412.5001 429.4879,-409 419.4879,-405.5001 419.488,-412.5001"/>
</g>
<!-- Node57 -->
<g id="node8" class="node">
<title>Node57</title>
<g id="a_node8"><a xlink:href="$da/df2/dct__data__utils_8c.html#affd1a5ff63cad2cb62bcb3721b16e3ce" xlink:title="DCT_ldBiLinIntSparseProd">
<polygon fill="#ffffff" stroke="#000000" points="437.5,-361.5 437.5,-380.5 544.5,-380.5 544.5,-361.5 437.5,-361.5"/>
<text text-anchor="middle" x="491" y="-368.5" font-family="Helvetica,sans-Serif" font-size="10.00" fill="#000000">DCT_ldBiLinIntSparseProd</text>
</a>
</g>
</g>
<!-- Node52&#45;&gt;Node57 -->
<g id="edge7" class="edge">
<title>Node52&#45;&gt;Node57</title>
<path fill="none" stroke="#191970" d="M371.0009,-399.411C392.1806,-394.3965 418.3022,-388.2119 440.7604,-382.8947"/>
<polygon fill="#191970" stroke="#191970" points="441.8657,-386.2299 450.7903,-380.5201 440.2529,-379.4182 441.8657,-386.2299"/>
</g>
<!-- Node58 -->
<g id="node9" class="node">
<title>Node58</title>
<g id="a_node9"><a xlink:href="$da/df2/dct__data__utils_8c.html#a0bbb3f8409e5407e6b9221666ea96347" xlink:title="DCT_Msk_ldBiLinIntSparseProd">
<polygon fill="#ffffff" stroke="#000000" points="429,-323.5 429,-342.5 553,-342.5 553,-323.5 429,-323.5"/>
<text text-anchor="middle" x="491" y="-330.5" font-family="Helvetica,sans-Serif" font-size="10.00" fill="#000000">DCT_Msk_ldBiLinIntSparseProd</text>
</a>
</g>
</g>
<!-- Node52&#45;&gt;Node58 -->
<g id="edge8" class="edge">
<title>Node52&#45;&gt;Node58</title>
<path fill="none" stroke="#191970" d="M344.6436,-399.4293C363.3059,-387.1312 397.4845,-365.7344 429,-352 434.0958,-349.7793 439.5322,-347.7084 444.9884,-345.8122"/>
<polygon fill="#191970" stroke="#191970" points="446.3586,-349.0459 454.7615,-342.5929 444.1685,-342.3973 446.3586,-349.0459"/>
</g>
<!-- Node60 -->
<g id="node11" class="node">
<title>Node60</title>
<g id="a_node11"><a xlink:href="$da/df2/dct__data__utils_8c.html#a57e0d547eba3d7aeff032560f080dd18" xlink:title="DCT_fTriLinIntSparseProd">
<polygon fill="#ffffff" stroke="#000000" points="438.5,-285.5 438.5,-304.5 543.5,-304.5 543.5,-285.5 438.5,-285.5"/>
<text text-anchor="middle" x="491" y="-292.5" font-family="Helvetica,sans-Serif" font-size="10.00" fill="#000000">DCT_fTriLinIntSparseProd</text>
</a>
</g>
</g>
<!-- Node59&#45;&gt;Node60 -->
<g id="edge10" class="edge">
<title>Node59&#45;&gt;Node60</title>
<path fill="none" stroke="#191970" d="M374.3573,-281.1918C390.9606,-283.1573 410.2008,-285.435 428.2083,-287.5667"/>
<polygon fill="#191970" stroke="#191970" points="428.0069,-291.0672 438.3491,-288.7672 428.8299,-284.1158 428.0069,-291.0672"/>
</g>
<!-- Node61 -->
<g id="node12" class="node">
<title>Node61</title>
<g id="a_node12"><a xlink:href="$da/df2/dct__data__utils_8c.html#a764a28a1bdd57527f27048ef0651d256" xlink:title="DCT_dTriLinIntSparseProd">
<polygon fill="#ffffff" stroke="#000000" points="437.5,-247.5 437.5,-266.5 544.5,-266.5 544.5,-247.5 437.5,-247.5"/>
<text text-anchor="middle" x="491" y="-254.5" font-family="Helvetica,sans-Serif" font-size="10.00" fill="#000000">DCT_dTriLinIntSparseProd</text>
</a>
</g>
</g>
<!-- Node59&#45;&gt;Node61 -->
<g id="edge11" class="edge">
<title>Node59&#45;&gt;Node61</title>
<path fill="none" stroke="#191970" d="M374.3573,-270.8082C390.6506,-268.8794 409.4832,-266.65 427.1985,-264.5528"/>
<polygon fill="#191970" stroke="#191970" points="427.953,-267.988 437.4722,-263.3366 427.13,-261.0366 427.953,-267.988"/>
</g>
<!-- Node62 -->
<g id="node13" class="node">
<title>Node62</title>
<g id="a_node13"><a xlink:href="$da/df2/dct__data__utils_8c.html#a567e53014acb4587fb061cd3cb7b027e" xlink:title="DCT_ldTriLinIntSparseProd">
<polygon fill="#ffffff" stroke="#000000" points="436.5,-209.5 436.5,-228.5 545.5,-228.5 545.5,-209.5 436.5,-209.5"/>
<text text-anchor="middle" x="491" y="-216.5" font-family="Helvetica,sans-Serif" font-size="10.00" fill="#000000">DCT_ldTriLinIntSparseProd</text>
</a>
</g>
</g>
<!-- Node59&#45;&gt;Node62 -->
<g id="edge12" class="edge">
<title>Node59&#45;&gt;Node62</title>
<path fill="none" stroke="#191970" d="M366.2791,-266.4033C375.1285,-263.6814 384.5049,-260.4957 393,-257 409.7306,-250.1155 412.2771,-244.9032 429,-238 434.4665,-235.7434 440.3002,-233.6129 446.1202,-231.6517"/>
<polygon fill="#191970" stroke="#191970" points="447.3917,-234.9193 455.8347,-228.5187 445.2431,-228.2571 447.3917,-234.9193"/>
</g>
<!-- Node64 -->
<g id="node15" class="node">
<title>Node64</title>
<g id="a_node15"><a xlink:href="$da/df2/dct__data__utils_8c.html#a4d308c774adda7c0cbfb20d8b98f3e92" xlink:title="DCT_Convertion_Parameter">
<polygon fill="#ffffff" stroke="#000000" points="274.5,-228.5 274.5,-247.5 386.5,-247.5 386.5,-228.5 274.5,-228.5"/>
<text text-anchor="middle" x="330.5" y="-235.5" font-family="Helvetica,sans-Serif" font-size="10.00" fill="#000000">DCT_Convertion_Parameter</text>
</a>
</g>
</g>
<!-- Node63&#45;&gt;Node64 -->
<g id="edge14" class="edge">
<title>Node63&#45;&gt;Node64</title>
<path fill="none" stroke="#191970" d="M184.129,-152.5869C199.832,-168.5529 233.5984,-200.6447 268,-219 272.0492,-221.1605 276.3801,-223.1127 280.8024,-224.8686"/>
<polygon fill="#191970" stroke="#191970" points="279.9615,-228.2865 290.5557,-228.4032 282.3466,-221.7054 279.9615,-228.2865"/>
</g>
<!-- Node65 -->
<g id="node16" class="node">
<title>Node65</title>
<g id="a_node16"><a xlink:href="$da/df2/dct__data__utils_8c.html#afe5f6dae5eb9e5acfa6a1e16279d2d80" xlink:title="float_UnitConvertion">
<polygon fill="#ffffff" stroke="#000000" points="288.5,-190.5 288.5,-209.5 372.5,-209.5 372.5,-190.5 288.5,-190.5"/>
<text text-anchor="middle" x="330.5" y="-197.5" font-family="Helvetica,sans-Serif" font-size="10.00" fill="#000000">float_UnitConvertion</text>
</a>
</g>
</g>
<!-- Node63&#45;&gt;Node65 -->
<g id="edge15" class="edge">
<title>Node63&#45;&gt;Node65</title>
<path fill="none" stroke="#191970" d="M196.9504,-152.6431C215.6564,-160.6976 243.3484,-172.2379 268,-181 274.1011,-183.1686 280.5895,-185.3149 286.989,-187.341"/>
<polygon fill="#191970" stroke="#191970" points="286.3159,-190.7965 296.9038,-190.412 288.387,-184.1099 286.3159,-190.7965"/>
</g>
<!-- Node66 -->
<g id="node17" class="node">
<title>Node66</title>
<g id="a_node17"><a xlink:href="$da/df2/dct__data__utils_8c.html#a3c18b49028fe9150277a53054c254483" xlink:title="float_Msk_UnitConvertion">
<polygon fill="#ffffff" stroke="#000000" points="279.5,-152.5 279.5,-171.5 381.5,-171.5 381.5,-152.5 279.5,-152.5"/>
<text text-anchor="middle" x="330.5" y="-159.5" font-family="Helvetica,sans-Serif" font-size="10.00" fill="#000000">float_Msk_UnitConvertion</text>
</a>
</g>
</g>
<!-- Node63&#45;&gt;Node66 -->
<g id="edge16" class="edge">
<title>Node63&#45;&gt;Node66</title>
<path fill="none" stroke="#191970" d="M232.0195,-149.967C244.141,-151.4481 256.9877,-153.0178 269.2592,-154.5172"/>
<polygon fill="#191970" stroke="#191970" points="269.0528,-158.0179 279.4035,-155.7567 269.9018,-151.0696 269.0528,-158.0179"/>
</g>
<!-- Node67 -->
<g id="node18" class="node">
<title>Node67</title>
<g id="a_node18"><a xlink:href="$da/df2/dct__data__utils_8c.html#a547d7a8bb6e29372f5b64d5fc4918faf" xlink:title="double_UnitConvertion">
<polygon fill="#ffffff" stroke="#000000" points="284,-114.5 284,-133.5 377,-133.5 377,-114.5 284,-114.5"/>
<text text-anchor="middle" x="330.5" y="-121.5" font-family="Helvetica,sans-Serif" font-size="10.00" fill="#000000">double_UnitConvertion</text>
</a>
</g>
</g>
<!-- Node63&#45;&gt;Node67 -->
<g id="edge17" class="edge">
<title>Node63&#45;&gt;Node67</title>
<path fill="none" stroke="#191970" d="M232.0195,-136.033C245.5577,-134.3788 260.0005,-132.6141 273.5362,-130.9602"/>
<polygon fill="#191970" stroke="#191970" points="274.1785,-134.4078 283.6801,-129.7208 273.3294,-127.4595 274.1785,-134.4078"/>
</g>
<!-- Node68 -->
<g id="node19" class="node">
<title>Node68</title>
<g id="a_node19"><a xlink:href="$da/df2/dct__data__utils_8c.html#a4d77e352e4d7c6becdc642999fa23161" xlink:title="double_Msk_UnitConvertion">
<polygon fill="#ffffff" stroke="#000000" points="275,-76.5 275,-95.5 386,-95.5 386,-76.5 275,-76.5"/>
<text text-anchor="middle" x="330.5" y="-83.5" font-family="Helvetica,sans-Serif" font-size="10.00" fill="#000000">double_Msk_UnitConvertion</text>
</a>
</g>
</g>
<!-- Node63&#45;&gt;Node68 -->
<g id="edge18" class="edge">
<title>Node63&#45;&gt;Node68</title>
<path fill="none" stroke="#191970" d="M196.9504,-133.3569C215.6564,-125.3024 243.3484,-113.7621 268,-105 274.1011,-102.8314 280.5895,-100.6851 286.989,-98.659"/>
<polygon fill="#191970" stroke="#191970" points="288.387,-101.8901 296.9038,-95.588 286.3159,-95.2035 288.387,-101.8901"/>
</g>
<!-- Node69 -->
<g id="node20" class="node">
<title>Node69</title>
<g id="a_node20"><a xlink:href="$da/df2/dct__data__utils_8c.html#a4203b91db63c1088379f6d0538af4fe3" xlink:title="longdouble_UnitConvertion">
<polygon fill="#ffffff" stroke="#000000" points="277,-38.5 277,-57.5 384,-57.5 384,-38.5 277,-38.5"/>
<text text-anchor="middle" x="330.5" y="-45.5" font-family="Helvetica,sans-Serif" font-size="10.00" fill="#000000">longdouble_UnitConvertion</text>
</a>
</g>
</g>
<!-- Node63&#45;&gt;Node69 -->
<g id="edge19" class="edge">
<title>Node63&#45;&gt;Node69</title>
<path fill="none" stroke="#191970" d="M184.129,-133.4131C199.832,-117.4471 233.5984,-85.3553 268,-67 272.0492,-64.8395 276.3801,-62.8873 280.8024,-61.1314"/>
<polygon fill="#191970" stroke="#191970" points="282.3466,-64.2946 290.5557,-57.5968 279.9615,-57.7135 282.3466,-64.2946"/>
</g>
<!-- Node70 -->
<g id="node21" class="node">
<title>Node70</title>
<g id="a_node21"><a xlink:href="$da/df2/dct__data__utils_8c.html#a2c74eeefa8ac5884de4daa0035d2874b" xlink:title="longdouble_Msk_UnitConvertion">
<polygon fill="#ffffff" stroke="#000000" points="268,-.5 268,-19.5 393,-19.5 393,-.5 268,-.5"/>
<text text-anchor="middle" x="330.5" y="-7.5" font-family="Helvetica,sans-Serif" font-size="10.00" fill="#000000">longdouble_Msk_UnitConvertion</text>
</a>
</g>
</g>
<!-- Node63&#45;&gt;Node70 -->
<g id="edge20" class="edge">
<title>Node63&#45;&gt;Node70</title>
<path fill="none" stroke="#191970" d="M180.1294,-133.4351C192.3477,-111.5658 225.3631,-57.598 268,-29 271.0522,-26.9528 274.3332,-25.1194 277.7361,-23.4785"/>
<polygon fill="#191970" stroke="#191970" points="279.1147,-26.6957 286.9553,-19.57 276.3824,-20.251 279.1147,-26.6957"/>
</g>
</g>
</svg>
