<?xml version="1.0" encoding="UTF-8" standalone="no"?>
<!DOCTYPE svg PUBLIC "-//W3C//DTD SVG 1.1//EN"
 "http://www.w3.org/Graphics/SVG/1.1/DTD/svg11.dtd">
<!-- Generated by graphviz version 2.40.1 (20161225.0304)
 -->
<!-- Title: DCT_CPL_Vars Pages: 1 -->
<svg width="135pt" height="237pt"
 viewBox="0.00 0.00 134.50 237.00" xmlns="http://www.w3.org/2000/svg" xmlns:xlink="http://www.w3.org/1999/xlink">
<g id="graph0" class="graph" transform="scale(1 1) rotate(0) translate(4 233)">
<title>DCT_CPL_Vars</title>
<polygon fill="#ffffff" stroke="transparent" points="-4,4 -4,-233 130.5,-233 130.5,4 -4,4"/>
<!-- Node1 -->
<g id="node1" class="node">
<title>Node1</title>
<polygon fill="#bfbfbf" stroke="#000000" points="0,-.5 0,-90.5 95,-90.5 95,-.5 0,-.5"/>
<text text-anchor="middle" x="47.5" y="-78.5" font-family="Helvetica,sans-Serif" font-size="10.00" fill="#000000">DCT_CPL_Vars</text>
<polyline fill="none" stroke="#000000" points="0,-71.5 95,-71.5 "/>
<text text-anchor="start" x="8" y="-59.5" font-family="Helvetica,sans-Serif" font-size="10.00" fill="#000000">+ CPLVarLocal</text>
<text text-anchor="start" x="8" y="-48.5" font-family="Helvetica,sans-Serif" font-size="10.00" fill="#000000">+ CPLVarTypes</text>
<text text-anchor="start" x="8" y="-37.5" font-family="Helvetica,sans-Serif" font-size="10.00" fill="#000000">+ CPLVarProd</text>
<text text-anchor="start" x="8" y="-26.5" font-family="Helvetica,sans-Serif" font-size="10.00" fill="#000000">+ CPLDataComm</text>
<polyline fill="none" stroke="#000000" points="0,-19.5 95,-19.5 "/>
<text text-anchor="middle" x="47.5" y="-7.5" font-family="Helvetica,sans-Serif" font-size="10.00" fill="#000000"> </text>
</g>
<!-- Node2 -->
<g id="node2" class="node">
<title>Node2</title>
<g id="a_node2"><a xlink:href="$d0/d90/structDCT__Hollow__Var.html" xlink:title="{DCT_Hollow_Var\n|+ VarName\l+ VarTimeIni\l+ VarLastUpdate\l+ VarFrequency\l|}">
<polygon fill="#ffffff" stroke="#000000" points=".5,-138.5 .5,-228.5 94.5,-228.5 94.5,-138.5 .5,-138.5"/>
<text text-anchor="middle" x="47.5" y="-216.5" font-family="Helvetica,sans-Serif" font-size="10.00" fill="#000000">DCT_Hollow_Var</text>
<polyline fill="none" stroke="#000000" points=".5,-209.5 94.5,-209.5 "/>
<text text-anchor="start" x="8.5" y="-197.5" font-family="Helvetica,sans-Serif" font-size="10.00" fill="#000000">+ VarName</text>
<text text-anchor="start" x="8.5" y="-186.5" font-family="Helvetica,sans-Serif" font-size="10.00" fill="#000000">+ VarTimeIni</text>
<text text-anchor="start" x="8.5" y="-175.5" font-family="Helvetica,sans-Serif" font-size="10.00" fill="#000000">+ VarLastUpdate</text>
<text text-anchor="start" x="8.5" y="-164.5" font-family="Helvetica,sans-Serif" font-size="10.00" fill="#000000">+ VarFrequency</text>
<polyline fill="none" stroke="#000000" points=".5,-157.5 94.5,-157.5 "/>
<text text-anchor="middle" x="47.5" y="-145.5" font-family="Helvetica,sans-Serif" font-size="10.00" fill="#000000"> </text>
</a>
</g>
</g>
<!-- Node2&#45;&gt;Node1 -->
<g id="edge1" class="edge">
<title>Node2&#45;&gt;Node1</title>
<path fill="none" stroke="#404040" d="M47.5,-138.3136C47.5,-126.9955 47.5,-114.703 47.5,-102.8793"/>
<polygon fill="none" stroke="#404040" points="47.5001,-102.7879 43.5,-96.7879 47.5,-90.7879 51.5,-96.7878 47.5001,-102.7879"/>
<text text-anchor="middle" x="87" y="-112" font-family="Helvetica,sans-Serif" font-size="10.00" fill="#000000"> +CPLVarRemote</text>
</g>
</g>
</svg>
