<?xml version="1.0" encoding="UTF-8" standalone="no"?>
<!DOCTYPE svg PUBLIC "-//W3C//DTD SVG 1.1//EN"
 "http://www.w3.org/Graphics/SVG/1.1/DTD/svg11.dtd">
<!-- Generated by graphviz version 2.40.1 (20161225.0304)
 -->
<!-- Title: DCT_Broker_RegVar Pages: 1 -->
<svg width="206pt" height="28pt"
 viewBox="0.00 0.00 206.00 28.00" xmlns="http://www.w3.org/2000/svg" xmlns:xlink="http://www.w3.org/1999/xlink">
<g id="graph0" class="graph" transform="scale(1 1) rotate(0) translate(4 24)">
<title>DCT_Broker_RegVar</title>
<polygon fill="#ffffff" stroke="transparent" points="-4,4 -4,-24 202,-24 202,4 -4,4"/>
<!-- Node28 -->
<g id="node1" class="node">
<title>Node28</title>
<polygon fill="#bfbfbf" stroke="#000000" points="0,-.5 0,-19.5 88,-19.5 88,-.5 0,-.5"/>
<text text-anchor="middle" x="44" y="-7.5" font-family="Helvetica,sans-Serif" font-size="10.00" fill="#000000">DCT_Broker_RegVar</text>
</g>
<!-- Node29 -->
<g id="node2" class="node">
<title>Node29</title>
<g id="a_node2"><a xlink:href="$d4/dd3/dctsys_8h.html#aa3f33be5ff25055815c897afc748cf7a" xlink:title="DCT_List_ExtVar">
<polygon fill="#ffffff" stroke="#000000" points="124,-.5 124,-19.5 198,-19.5 198,-.5 124,-.5"/>
<text text-anchor="middle" x="161" y="-7.5" font-family="Helvetica,sans-Serif" font-size="10.00" fill="#000000">DCT_List_ExtVar</text>
</a>
</g>
</g>
<!-- Node28&#45;&gt;Node29 -->
<g id="edge1" class="edge">
<title>Node28&#45;&gt;Node29</title>
<path fill="none" stroke="#191970" d="M88.2327,-10C96.6058,-10 105.3941,-10 113.8531,-10"/>
<polygon fill="#191970" stroke="#191970" points="113.9579,-13.5001 123.9579,-10 113.9578,-6.5001 113.9579,-13.5001"/>
</g>
</g>
</svg>
