<?xml version="1.0" encoding="UTF-8" standalone="no"?>
<!DOCTYPE svg PUBLIC "-//W3C//DTD SVG 1.1//EN"
 "http://www.w3.org/Graphics/SVG/1.1/DTD/svg11.dtd">
<!-- Generated by graphviz version 2.40.1 (20161225.0304)
 -->
<!-- Title: /Users/dcecchis/DCT_Project/DCT/INCLUDE/dct_comm.h Pages: 1 -->
<svg width="148pt" height="162pt"
 viewBox="0.00 0.00 148.00 162.00" xmlns="http://www.w3.org/2000/svg" xmlns:xlink="http://www.w3.org/1999/xlink">
<g id="graph0" class="graph" transform="scale(1 1) rotate(0) translate(4 158)">
<title>/Users/dcecchis/DCT_Project/DCT/INCLUDE/dct_comm.h</title>
<polygon fill="#ffffff" stroke="transparent" points="-4,4 -4,-158 144,-158 144,4 -4,4"/>
<!-- Node0 -->
<g id="node1" class="node">
<title>Node0</title>
<polygon fill="#bfbfbf" stroke="#000000" points="0,-112.5 0,-153.5 123,-153.5 123,-112.5 0,-112.5"/>
<text text-anchor="start" x="8" y="-141.5" font-family="Helvetica,sans-Serif" font-size="10.00" fill="#000000">/Users/dcecchis/DCT</text>
<text text-anchor="start" x="8" y="-130.5" font-family="Helvetica,sans-Serif" font-size="10.00" fill="#000000">_Project/DCT/INCLUDE</text>
<text text-anchor="middle" x="61.5" y="-119.5" font-family="Helvetica,sans-Serif" font-size="10.00" fill="#000000">/dct_comm.h</text>
</g>
<!-- Node1 -->
<g id="node2" class="node">
<title>Node1</title>
<polygon fill="#ffffff" stroke="#bfbfbf" points="41,-.5 41,-19.5 82,-19.5 82,-.5 41,-.5"/>
<text text-anchor="middle" x="61.5" y="-7.5" font-family="Helvetica,sans-Serif" font-size="10.00" fill="#000000">mpi.h</text>
</g>
<!-- Node0&#45;&gt;Node1 -->
<g id="edge1" class="edge">
<title>Node0&#45;&gt;Node1</title>
<path fill="none" stroke="#191970" d="M52.9986,-112.4896C47.621,-97.0218 42.2474,-75.2518 45.5,-56 47.045,-46.8551 50.2034,-37.1019 53.309,-28.9405"/>
<polygon fill="#191970" stroke="#191970" points="56.5742,-30.2021 57.089,-19.6198 50.0873,-27.5713 56.5742,-30.2021"/>
</g>
<!-- Node2 -->
<g id="node3" class="node">
<title>Node2</title>
<g id="a_node3"><a xlink:href="$df/d42/dct__commdat_8h.html" xlink:title="Contains constants and data type definitions related with the communication library. ">
<polygon fill="#ffffff" stroke="#000000" points="55,-56.5 55,-75.5 140,-75.5 140,-56.5 55,-56.5"/>
<text text-anchor="middle" x="97.5" y="-63.5" font-family="Helvetica,sans-Serif" font-size="10.00" fill="#000000">dct_commdat.h</text>
</a>
</g>
</g>
<!-- Node0&#45;&gt;Node2 -->
<g id="edge2" class="edge">
<title>Node0&#45;&gt;Node2</title>
<path fill="none" stroke="#191970" d="M72.6933,-112.168C77.4322,-103.3484 82.9093,-93.155 87.5096,-84.5933"/>
<polygon fill="#191970" stroke="#191970" points="90.5947,-86.246 92.2448,-75.7805 84.4285,-82.9328 90.5947,-86.246"/>
</g>
<!-- Node2&#45;&gt;Node1 -->
<g id="edge3" class="edge">
<title>Node2&#45;&gt;Node1</title>
<path fill="none" stroke="#191970" d="M91.2293,-56.2455C86.2736,-48.5367 79.217,-37.5598 73.2224,-28.2348"/>
<polygon fill="#191970" stroke="#191970" points="76.0506,-26.1618 67.6989,-19.6427 70.1624,-29.9471 76.0506,-26.1618"/>
</g>
</g>
</svg>
