<?xml version="1.0" encoding="UTF-8" standalone="no"?>
<!DOCTYPE svg PUBLIC "-//W3C//DTD SVG 1.1//EN"
 "http://www.w3.org/Graphics/SVG/1.1/DTD/svg11.dtd">
<!-- Generated by graphviz version 2.40.1 (20161225.0304)
 -->
<!-- Title: /Users/dcecchis/DCT_Project/DCT/SRC/dct_3d_var.c Pages: 1 -->
<svg width="332pt" height="218pt"
 viewBox="0.00 0.00 331.50 218.00" xmlns="http://www.w3.org/2000/svg" xmlns:xlink="http://www.w3.org/1999/xlink">
<g id="graph0" class="graph" transform="scale(1 1) rotate(0) translate(4 214)">
<title>/Users/dcecchis/DCT_Project/DCT/SRC/dct_3d_var.c</title>
<polygon fill="#ffffff" stroke="transparent" points="-4,4 -4,-214 327.5,-214 327.5,4 -4,4"/>
<!-- Node0 -->
<g id="node1" class="node">
<title>Node0</title>
<polygon fill="#bfbfbf" stroke="#000000" points="145.5,-168.5 145.5,-209.5 262.5,-209.5 262.5,-168.5 145.5,-168.5"/>
<text text-anchor="start" x="153.5" y="-197.5" font-family="Helvetica,sans-Serif" font-size="10.00" fill="#000000">/Users/dcecchis/DCT</text>
<text text-anchor="start" x="153.5" y="-186.5" font-family="Helvetica,sans-Serif" font-size="10.00" fill="#000000">_Project/DCT/SRC/dct</text>
<text text-anchor="middle" x="204" y="-175.5" font-family="Helvetica,sans-Serif" font-size="10.00" fill="#000000">_3d_var.c</text>
</g>
<!-- Node1 -->
<g id="node2" class="node">
<title>Node1</title>
<polygon fill="#ffffff" stroke="#bfbfbf" points="0,-.5 0,-19.5 46,-19.5 46,-.5 0,-.5"/>
<text text-anchor="middle" x="23" y="-7.5" font-family="Helvetica,sans-Serif" font-size="10.00" fill="#000000">stdio.h</text>
</g>
<!-- Node0&#45;&gt;Node1 -->
<g id="edge1" class="edge">
<title>Node0&#45;&gt;Node1</title>
<path fill="none" stroke="#191970" d="M183.237,-168.4664C147.1315,-132.7599 73.4511,-59.8936 40.0901,-26.9012"/>
<polygon fill="#191970" stroke="#191970" points="42.4554,-24.318 32.8841,-19.7749 37.5332,-29.2952 42.4554,-24.318"/>
</g>
<!-- Node2 -->
<g id="node3" class="node">
<title>Node2</title>
<g id="a_node3"><a xlink:href="$df/d15/dct_8h.html" xlink:title="Header file containing the DCT definitions of data structures and functions available for the user...">
<polygon fill="#ffffff" stroke="#000000" points="162,-112.5 162,-131.5 200,-131.5 200,-112.5 162,-112.5"/>
<text text-anchor="middle" x="181" y="-119.5" font-family="Helvetica,sans-Serif" font-size="10.00" fill="#000000">dct.h</text>
</a>
</g>
</g>
<!-- Node0&#45;&gt;Node2 -->
<g id="edge2" class="edge">
<title>Node0&#45;&gt;Node2</title>
<path fill="none" stroke="#191970" d="M196.8487,-168.168C193.9188,-159.6329 190.5471,-149.8112 187.6689,-141.4268"/>
<polygon fill="#191970" stroke="#191970" points="190.9148,-140.1023 184.3575,-131.7805 184.294,-142.3751 190.9148,-140.1023"/>
</g>
<!-- Node7 -->
<g id="node8" class="node">
<title>Node7</title>
<g id="a_node8"><a xlink:href="$df/d42/dct__commdat_8h.html" xlink:title="Contains constants and data type definitions related with the communication library. ">
<polygon fill="#ffffff" stroke="#000000" points="238.5,-56.5 238.5,-75.5 323.5,-75.5 323.5,-56.5 238.5,-56.5"/>
<text text-anchor="middle" x="281" y="-63.5" font-family="Helvetica,sans-Serif" font-size="10.00" fill="#000000">dct_commdat.h</text>
</a>
</g>
</g>
<!-- Node0&#45;&gt;Node7 -->
<g id="edge13" class="edge">
<title>Node0&#45;&gt;Node7</title>
<path fill="none" stroke="#191970" d="M214.6268,-168.3202C222.9367,-152.5751 235.0482,-130.5278 247,-112 253.2328,-102.3379 260.7824,-92.0063 267.1828,-83.5872"/>
<polygon fill="#191970" stroke="#191970" points="269.9966,-85.6698 273.3334,-75.6141 264.4541,-81.3942 269.9966,-85.6698"/>
</g>
<!-- Node9 -->
<g id="node10" class="node">
<title>Node9</title>
<g id="a_node10"><a xlink:href="$d4/dd3/dctsys_8h.html" xlink:title="Contains all the DCT definitions that are not available for a DCT user (private to DCT)...">
<polygon fill="#ffffff" stroke="#000000" points="256.5,-112.5 256.5,-131.5 309.5,-131.5 309.5,-112.5 256.5,-112.5"/>
<text text-anchor="middle" x="283" y="-119.5" font-family="Helvetica,sans-Serif" font-size="10.00" fill="#000000">dctsys.h</text>
</a>
</g>
</g>
<!-- Node0&#45;&gt;Node9 -->
<g id="edge12" class="edge">
<title>Node0&#45;&gt;Node9</title>
<path fill="none" stroke="#191970" d="M228.563,-168.168C239.8569,-158.5897 253.0613,-147.3911 263.6368,-138.422"/>
<polygon fill="#191970" stroke="#191970" points="266.1051,-140.9179 271.4678,-131.7805 261.5774,-135.5793 266.1051,-140.9179"/>
</g>
<!-- Node3 -->
<g id="node4" class="node">
<title>Node3</title>
<polygon fill="#ffffff" stroke="#bfbfbf" points="198,-.5 198,-19.5 246,-19.5 246,-.5 198,-.5"/>
<text text-anchor="middle" x="222" y="-7.5" font-family="Helvetica,sans-Serif" font-size="10.00" fill="#000000">stdlib.h</text>
</g>
<!-- Node2&#45;&gt;Node3 -->
<g id="edge3" class="edge">
<title>Node2&#45;&gt;Node3</title>
<path fill="none" stroke="#191970" d="M184.4956,-112.4509C191.2432,-94.0186 206.1764,-53.2254 215.0289,-29.043"/>
<polygon fill="#191970" stroke="#191970" points="218.3622,-30.1187 218.5132,-19.5249 211.7888,-27.7123 218.3622,-30.1187"/>
</g>
<!-- Node4 -->
<g id="node5" class="node">
<title>Node4</title>
<polygon fill="#ffffff" stroke="#bfbfbf" points="64.5,-.5 64.5,-19.5 113.5,-19.5 113.5,-.5 64.5,-.5"/>
<text text-anchor="middle" x="89" y="-7.5" font-family="Helvetica,sans-Serif" font-size="10.00" fill="#000000">string.h</text>
</g>
<!-- Node2&#45;&gt;Node4 -->
<g id="edge4" class="edge">
<title>Node2&#45;&gt;Node4</title>
<path fill="none" stroke="#191970" d="M161.9173,-112.6818C147.331,-104.7117 127.6419,-91.9999 115,-76 104.2764,-62.4279 97.4934,-43.8816 93.5549,-29.9046"/>
<polygon fill="#191970" stroke="#191970" points="96.854,-28.6781 90.9853,-19.8572 90.0723,-30.4126 96.854,-28.6781"/>
</g>
<!-- Node5 -->
<g id="node6" class="node">
<title>Node5</title>
<g id="a_node6"><a xlink:href="$de/d3c/macros_8h.html" xlink:title="the header file contains all the DCT utility macros. ">
<polygon fill="#ffffff" stroke="#000000" points="124,-56.5 124,-75.5 182,-75.5 182,-56.5 124,-56.5"/>
<text text-anchor="middle" x="153" y="-63.5" font-family="Helvetica,sans-Serif" font-size="10.00" fill="#000000">macros.h</text>
</a>
</g>
</g>
<!-- Node2&#45;&gt;Node5 -->
<g id="edge5" class="edge">
<title>Node2&#45;&gt;Node5</title>
<path fill="none" stroke="#191970" d="M176.1228,-112.2455C172.3487,-104.6973 167.0079,-94.0158 162.4099,-84.8197"/>
<polygon fill="#191970" stroke="#191970" points="165.424,-83.0217 157.8213,-75.6427 159.163,-86.1522 165.424,-83.0217"/>
</g>
<!-- Node2&#45;&gt;Node7 -->
<g id="edge10" class="edge">
<title>Node2&#45;&gt;Node7</title>
<path fill="none" stroke="#191970" d="M198.4187,-112.2455C214.0485,-103.4928 237.2019,-90.527 255.0185,-80.5496"/>
<polygon fill="#191970" stroke="#191970" points="256.766,-83.5825 263.7809,-75.6427 253.3457,-77.475 256.766,-83.5825"/>
</g>
<!-- Node5&#45;&gt;Node1 -->
<g id="edge7" class="edge">
<title>Node5&#45;&gt;Node1</title>
<path fill="none" stroke="#191970" d="M130.6522,-56.3733C109.5967,-47.3032 77.8505,-33.6279 54.2825,-23.4755"/>
<polygon fill="#191970" stroke="#191970" points="55.625,-20.243 45.0562,-19.5011 52.8556,-26.6719 55.625,-20.243"/>
</g>
<!-- Node5&#45;&gt;Node3 -->
<g id="edge6" class="edge">
<title>Node5&#45;&gt;Node3</title>
<path fill="none" stroke="#191970" d="M165.0189,-56.2455C175.2098,-47.9746 190.0362,-35.9416 202.0107,-26.2232"/>
<polygon fill="#191970" stroke="#191970" points="204.5598,-28.662 210.1188,-19.6427 200.1486,-23.2268 204.5598,-28.662"/>
</g>
<!-- Node5&#45;&gt;Node4 -->
<g id="edge8" class="edge">
<title>Node5&#45;&gt;Node4</title>
<path fill="none" stroke="#191970" d="M141.8521,-56.2455C132.4913,-48.0549 118.9142,-36.1749 107.8651,-26.5069"/>
<polygon fill="#191970" stroke="#191970" points="109.8508,-23.5937 100.0202,-19.6427 105.2412,-28.8618 109.8508,-23.5937"/>
</g>
<!-- Node6 -->
<g id="node7" class="node">
<title>Node6</title>
<polygon fill="#ffffff" stroke="#bfbfbf" points="132,-.5 132,-19.5 180,-19.5 180,-.5 132,-.5"/>
<text text-anchor="middle" x="156" y="-7.5" font-family="Helvetica,sans-Serif" font-size="10.00" fill="#000000">errno.h</text>
</g>
<!-- Node5&#45;&gt;Node6 -->
<g id="edge9" class="edge">
<title>Node5&#45;&gt;Node6</title>
<path fill="none" stroke="#191970" d="M153.5226,-56.2455C153.914,-48.9382 154.4628,-38.6944 154.9444,-29.7046"/>
<polygon fill="#191970" stroke="#191970" points="158.4434,-29.8156 155.4834,-19.6427 151.4534,-29.4411 158.4434,-29.8156"/>
</g>
<!-- Node8 -->
<g id="node9" class="node">
<title>Node8</title>
<polygon fill="#ffffff" stroke="#bfbfbf" points="264.5,-.5 264.5,-19.5 305.5,-19.5 305.5,-.5 264.5,-.5"/>
<text text-anchor="middle" x="285" y="-7.5" font-family="Helvetica,sans-Serif" font-size="10.00" fill="#000000">mpi.h</text>
</g>
<!-- Node7&#45;&gt;Node8 -->
<g id="edge11" class="edge">
<title>Node7&#45;&gt;Node8</title>
<path fill="none" stroke="#191970" d="M281.6967,-56.2455C282.2187,-48.9382 282.9504,-38.6944 283.5925,-29.7046"/>
<polygon fill="#191970" stroke="#191970" points="287.0898,-29.8667 284.3112,-19.6427 280.1076,-29.3679 287.0898,-29.8667"/>
</g>
</g>
</svg>
