<?xml version="1.0" encoding="UTF-8" standalone="no"?>
<!DOCTYPE svg PUBLIC "-//W3C//DTD SVG 1.1//EN"
 "http://www.w3.org/Graphics/SVG/1.1/DTD/svg11.dtd">
<!-- Generated by graphviz version 2.40.1 (20161225.0304)
 -->
<!-- Title: /Users/dcecchis/DCT_Project/DCT/TEST/getargs.c Pages: 1 -->
<svg width="332pt" height="207pt"
 viewBox="0.00 0.00 331.50 207.00" xmlns="http://www.w3.org/2000/svg" xmlns:xlink="http://www.w3.org/1999/xlink">
<g id="graph0" class="graph" transform="scale(1 1) rotate(0) translate(4 203)">
<title>/Users/dcecchis/DCT_Project/DCT/TEST/getargs.c</title>
<polygon fill="#ffffff" stroke="transparent" points="-4,4 -4,-203 327.5,-203 327.5,4 -4,4"/>
<!-- Node0 -->
<g id="node1" class="node">
<title>Node0</title>
<polygon fill="#bfbfbf" stroke="#000000" points="82.5,-168.5 82.5,-198.5 231.5,-198.5 231.5,-168.5 82.5,-168.5"/>
<text text-anchor="start" x="90.5" y="-186.5" font-family="Helvetica,sans-Serif" font-size="10.00" fill="#000000">/Users/dcecchis/DCT</text>
<text text-anchor="middle" x="157" y="-175.5" font-family="Helvetica,sans-Serif" font-size="10.00" fill="#000000">_Project/DCT/TEST/getargs.c</text>
</g>
<!-- Node1 -->
<g id="node2" class="node">
<title>Node1</title>
<polygon fill="#ffffff" stroke="#bfbfbf" points="0,-.5 0,-19.5 46,-19.5 46,-.5 0,-.5"/>
<text text-anchor="middle" x="23" y="-7.5" font-family="Helvetica,sans-Serif" font-size="10.00" fill="#000000">stdio.h</text>
</g>
<!-- Node0&#45;&gt;Node1 -->
<g id="edge1" class="edge">
<title>Node0&#45;&gt;Node1</title>
<path fill="none" stroke="#191970" d="M141.8482,-168.2657C122.2155,-148.1164 87.4874,-111.0502 62,-76 50.9144,-60.7551 40.1583,-42.1782 32.7599,-28.6218"/>
<polygon fill="#191970" stroke="#191970" points="35.8179,-26.9182 28.0094,-19.7573 29.648,-30.2247 35.8179,-26.9182"/>
</g>
<!-- Node2 -->
<g id="node3" class="node">
<title>Node2</title>
<polygon fill="#ffffff" stroke="#bfbfbf" points="194.5,-112.5 194.5,-131.5 243.5,-131.5 243.5,-112.5 194.5,-112.5"/>
<text text-anchor="middle" x="219" y="-119.5" font-family="Helvetica,sans-Serif" font-size="10.00" fill="#000000">ctype.h</text>
</g>
<!-- Node0&#45;&gt;Node2 -->
<g id="edge2" class="edge">
<title>Node0&#45;&gt;Node2</title>
<path fill="none" stroke="#191970" d="M172.3258,-168.2977C181.2907,-159.4052 192.6288,-148.1586 201.8851,-138.9769"/>
<polygon fill="#191970" stroke="#191970" points="204.4382,-141.3742 209.073,-131.8469 199.5085,-136.4045 204.4382,-141.3742"/>
</g>
<!-- Node3 -->
<g id="node4" class="node">
<title>Node3</title>
<g id="a_node4"><a xlink:href="$df/d15/dct_8h.html" xlink:title="Header file containing the DCT definitions of data structures and functions available for the user...">
<polygon fill="#ffffff" stroke="#000000" points="138,-112.5 138,-131.5 176,-131.5 176,-112.5 138,-112.5"/>
<text text-anchor="middle" x="157" y="-119.5" font-family="Helvetica,sans-Serif" font-size="10.00" fill="#000000">dct.h</text>
</a>
</g>
</g>
<!-- Node0&#45;&gt;Node3 -->
<g id="edge3" class="edge">
<title>Node0&#45;&gt;Node3</title>
<path fill="none" stroke="#191970" d="M157,-168.2977C157,-160.3834 157,-150.6043 157,-142.0759"/>
<polygon fill="#191970" stroke="#191970" points="160.5001,-141.8469 157,-131.8469 153.5001,-141.847 160.5001,-141.8469"/>
</g>
<!-- Node4 -->
<g id="node5" class="node">
<title>Node4</title>
<polygon fill="#ffffff" stroke="#bfbfbf" points="130,-.5 130,-19.5 178,-19.5 178,-.5 130,-.5"/>
<text text-anchor="middle" x="154" y="-7.5" font-family="Helvetica,sans-Serif" font-size="10.00" fill="#000000">stdlib.h</text>
</g>
<!-- Node3&#45;&gt;Node4 -->
<g id="edge4" class="edge">
<title>Node3&#45;&gt;Node4</title>
<path fill="none" stroke="#191970" d="M156.7442,-112.4509C156.2549,-94.184 155.1774,-53.9553 154.5276,-29.6976"/>
<polygon fill="#191970" stroke="#191970" points="158.0217,-29.4276 154.2551,-19.5249 151.0242,-29.6151 158.0217,-29.4276"/>
</g>
<!-- Node5 -->
<g id="node6" class="node">
<title>Node5</title>
<polygon fill="#ffffff" stroke="#bfbfbf" points="196.5,-.5 196.5,-19.5 245.5,-19.5 245.5,-.5 196.5,-.5"/>
<text text-anchor="middle" x="221" y="-7.5" font-family="Helvetica,sans-Serif" font-size="10.00" fill="#000000">string.h</text>
</g>
<!-- Node3&#45;&gt;Node5 -->
<g id="edge5" class="edge">
<title>Node3&#45;&gt;Node5</title>
<path fill="none" stroke="#191970" d="M162.4566,-112.4509C173.0838,-93.8533 196.7189,-52.4919 210.4878,-28.3964"/>
<polygon fill="#191970" stroke="#191970" points="213.6346,-29.9438 215.5572,-19.5249 207.5569,-26.4708 213.6346,-29.9438"/>
</g>
<!-- Node6 -->
<g id="node7" class="node">
<title>Node6</title>
<g id="a_node7"><a xlink:href="$de/d3c/macros_8h.html" xlink:title="the header file contains all the DCT utility macros. ">
<polygon fill="#ffffff" stroke="#000000" points="71,-56.5 71,-75.5 129,-75.5 129,-56.5 71,-56.5"/>
<text text-anchor="middle" x="100" y="-63.5" font-family="Helvetica,sans-Serif" font-size="10.00" fill="#000000">macros.h</text>
</a>
</g>
</g>
<!-- Node3&#45;&gt;Node6 -->
<g id="edge6" class="edge">
<title>Node3&#45;&gt;Node6</title>
<path fill="none" stroke="#191970" d="M147.0714,-112.2455C138.8162,-104.1352 126.8791,-92.4075 117.0918,-82.7919"/>
<polygon fill="#191970" stroke="#191970" points="119.4011,-80.1542 109.8149,-75.6427 114.4954,-85.1476 119.4011,-80.1542"/>
</g>
<!-- Node8 -->
<g id="node9" class="node">
<title>Node8</title>
<g id="a_node9"><a xlink:href="$df/d42/dct__commdat_8h.html" xlink:title="Contains constants and data type definitions related with the communication library. ">
<polygon fill="#ffffff" stroke="#000000" points="238.5,-56.5 238.5,-75.5 323.5,-75.5 323.5,-56.5 238.5,-56.5"/>
<text text-anchor="middle" x="281" y="-63.5" font-family="Helvetica,sans-Serif" font-size="10.00" fill="#000000">dct_commdat.h</text>
</a>
</g>
</g>
<!-- Node3&#45;&gt;Node8 -->
<g id="edge11" class="edge">
<title>Node3&#45;&gt;Node8</title>
<path fill="none" stroke="#191970" d="M176.1033,-113.3727C195.8385,-104.46 226.9476,-90.4108 250.1706,-79.9229"/>
<polygon fill="#191970" stroke="#191970" points="251.9112,-82.9773 259.5844,-75.6716 249.0301,-76.5977 251.9112,-82.9773"/>
</g>
<!-- Node6&#45;&gt;Node1 -->
<g id="edge8" class="edge">
<title>Node6&#45;&gt;Node1</title>
<path fill="none" stroke="#191970" d="M86.5876,-56.2455C74.9943,-47.814 58.0252,-35.4729 44.5322,-25.6598"/>
<polygon fill="#191970" stroke="#191970" points="46.4047,-22.6938 36.2587,-19.6427 42.2874,-28.355 46.4047,-22.6938"/>
</g>
<!-- Node6&#45;&gt;Node4 -->
<g id="edge7" class="edge">
<title>Node6&#45;&gt;Node4</title>
<path fill="none" stroke="#191970" d="M109.4061,-56.2455C117.1493,-48.2155 128.312,-36.6394 137.5318,-27.0781"/>
<polygon fill="#191970" stroke="#191970" points="140.2798,-29.2706 144.7017,-19.6427 135.2409,-24.4117 140.2798,-29.2706"/>
</g>
<!-- Node6&#45;&gt;Node5 -->
<g id="edge9" class="edge">
<title>Node6&#45;&gt;Node5</title>
<path fill="none" stroke="#191970" d="M120.8006,-56.3733C140.2243,-47.3838 169.4224,-33.8706 191.2964,-23.7471"/>
<polygon fill="#191970" stroke="#191970" points="192.8656,-26.8776 200.4708,-19.5011 189.9255,-20.5249 192.8656,-26.8776"/>
</g>
<!-- Node7 -->
<g id="node8" class="node">
<title>Node7</title>
<polygon fill="#ffffff" stroke="#bfbfbf" points="64,-.5 64,-19.5 112,-19.5 112,-.5 64,-.5"/>
<text text-anchor="middle" x="88" y="-7.5" font-family="Helvetica,sans-Serif" font-size="10.00" fill="#000000">errno.h</text>
</g>
<!-- Node6&#45;&gt;Node7 -->
<g id="edge10" class="edge">
<title>Node6&#45;&gt;Node7</title>
<path fill="none" stroke="#191970" d="M97.9098,-56.2455C96.3439,-48.9382 94.1488,-38.6944 92.2224,-29.7046"/>
<polygon fill="#191970" stroke="#191970" points="95.584,-28.6873 90.0663,-19.6427 88.7393,-30.1541 95.584,-28.6873"/>
</g>
<!-- Node9 -->
<g id="node10" class="node">
<title>Node9</title>
<polygon fill="#ffffff" stroke="#bfbfbf" points="263.5,-.5 263.5,-19.5 304.5,-19.5 304.5,-.5 263.5,-.5"/>
<text text-anchor="middle" x="284" y="-7.5" font-family="Helvetica,sans-Serif" font-size="10.00" fill="#000000">mpi.h</text>
</g>
<!-- Node8&#45;&gt;Node9 -->
<g id="edge12" class="edge">
<title>Node8&#45;&gt;Node9</title>
<path fill="none" stroke="#191970" d="M281.5226,-56.2455C281.914,-48.9382 282.4628,-38.6944 282.9444,-29.7046"/>
<polygon fill="#191970" stroke="#191970" points="286.4434,-29.8156 283.4834,-19.6427 279.4534,-29.4411 286.4434,-29.8156"/>
</g>
</g>
</svg>
