<?xml version="1.0" encoding="UTF-8" standalone="no"?>
<!DOCTYPE svg PUBLIC "-//W3C//DTD SVG 1.1//EN"
 "http://www.w3.org/Graphics/SVG/1.1/DTD/svg11.dtd">
<!-- Generated by graphviz version 2.40.1 (20161225.0304)
 -->
<!-- Title: DCT_VarNode_List_Set Pages: 1 -->
<svg width="235pt" height="66pt"
 viewBox="0.00 0.00 235.00 66.00" xmlns="http://www.w3.org/2000/svg" xmlns:xlink="http://www.w3.org/1999/xlink">
<g id="graph0" class="graph" transform="scale(1 1) rotate(0) translate(4 62)">
<title>DCT_VarNode_List_Set</title>
<polygon fill="#ffffff" stroke="transparent" points="-4,4 -4,-62 231,-62 231,4 -4,4"/>
<!-- Node43 -->
<g id="node1" class="node">
<title>Node43</title>
<polygon fill="#bfbfbf" stroke="#000000" points="0,-19.5 0,-38.5 97,-38.5 97,-19.5 0,-19.5"/>
<text text-anchor="middle" x="48.5" y="-26.5" font-family="Helvetica,sans-Serif" font-size="10.00" fill="#000000">DCT_VarNode_List_Set</text>
</g>
<!-- Node44 -->
<g id="node2" class="node">
<title>Node44</title>
<g id="a_node2"><a xlink:href="../../d4/dd3/dctsys_8h.html#afa8cedf621ae65eb6f78033324ad336b" target="_top" xlink:title="DCT_List_Ext">
<polygon fill="#ffffff" stroke="#000000" points="148.5,-38.5 148.5,-57.5 211.5,-57.5 211.5,-38.5 148.5,-38.5"/>
<text text-anchor="middle" x="180" y="-45.5" font-family="Helvetica,sans-Serif" font-size="10.00" fill="#000000">DCT_List_Ext</text>
</a>
</g>
</g>
<!-- Node43&#45;&gt;Node44 -->
<g id="edge1" class="edge">
<title>Node43&#45;&gt;Node44</title>
<path fill="none" stroke="#191970" d="M97.0921,-36.0209C110.601,-37.9728 125.1488,-40.0747 138.2294,-41.9647"/>
<polygon fill="#191970" stroke="#191970" points="137.9596,-45.462 148.3574,-43.4281 138.9607,-38.5339 137.9596,-45.462"/>
</g>
<!-- Node45 -->
<g id="node3" class="node">
<title>Node45</title>
<g id="a_node3"><a xlink:href="../../d4/dd3/dctsys_8h.html#add4b002754a970caeb0f91319ba8ac0d" target="_top" xlink:title="DCT_Var_Node_Comp">
<polygon fill="#ffffff" stroke="#000000" points="133,-.5 133,-19.5 227,-19.5 227,-.5 133,-.5"/>
<text text-anchor="middle" x="180" y="-7.5" font-family="Helvetica,sans-Serif" font-size="10.00" fill="#000000">DCT_Var_Node_Comp</text>
</a>
</g>
</g>
<!-- Node43&#45;&gt;Node45 -->
<g id="edge2" class="edge">
<title>Node43&#45;&gt;Node45</title>
<path fill="none" stroke="#191970" d="M97.0921,-21.9791C105.5059,-20.7634 114.3227,-19.4895 122.937,-18.2449"/>
<polygon fill="#191970" stroke="#191970" points="123.5234,-21.6965 132.9201,-16.8024 122.5223,-14.7685 123.5234,-21.6965"/>
</g>
</g>
</svg>
