<?xml version="1.0" encoding="UTF-8" standalone="no"?>
<!DOCTYPE svg PUBLIC "-//W3C//DTD SVG 1.1//EN"
 "http://www.w3.org/Graphics/SVG/1.1/DTD/svg11.dtd">
<!-- Generated by graphviz version 2.40.1 (20161225.0304)
 -->
<!-- Title: DCT_Arrange_SD Pages: 1 -->
<svg width="489pt" height="230pt"
 viewBox="0.00 0.00 489.00 229.50" xmlns="http://www.w3.org/2000/svg" xmlns:xlink="http://www.w3.org/1999/xlink">
<g id="graph0" class="graph" transform="scale(1 1) rotate(0) translate(4 225.5)">
<title>DCT_Arrange_SD</title>
<polygon fill="#ffffff" stroke="transparent" points="-4,4 -4,-225.5 485,-225.5 485,4 -4,4"/>
<!-- Node8 -->
<g id="node1" class="node">
<title>Node8</title>
<polygon fill="#bfbfbf" stroke="#000000" points="0,-107 0,-126 77,-126 77,-107 0,-107"/>
<text text-anchor="middle" x="38.5" y="-114" font-family="Helvetica,sans-Serif" font-size="10.00" fill="#000000">DCT_Arrange_SD</text>
</g>
<!-- Node9 -->
<g id="node2" class="node">
<title>Node9</title>
<g id="a_node2"><a xlink:href="../../d4/dd3/dctsys_8h.html#ad9074c95efebaf048664321131c7ecda" target="_top" xlink:title="DCT_Return_DomBoundVals">
<polygon fill="#ffffff" stroke="#000000" points="115.5,-202 115.5,-221 230.5,-221 230.5,-202 115.5,-202"/>
<text text-anchor="middle" x="173" y="-209" font-family="Helvetica,sans-Serif" font-size="10.00" fill="#000000">DCT_Return_DomBoundVals</text>
</a>
</g>
</g>
<!-- Node8&#45;&gt;Node9 -->
<g id="edge1" class="edge">
<title>Node8&#45;&gt;Node9</title>
<path fill="none" stroke="#191970" d="M45.4035,-126.1448C57.3794,-142.1962 83.5628,-174.4105 113,-192.5 116.411,-194.5961 120.0747,-196.4814 123.8489,-198.1733"/>
<polygon fill="#191970" stroke="#191970" points="122.7927,-201.5205 133.3771,-201.9904 125.3959,-195.0226 122.7927,-201.5205"/>
</g>
<!-- Node10 -->
<g id="node3" class="node">
<title>Node10</title>
<g id="a_node3"><a xlink:href="../../d4/dd3/dctsys_8h.html#adf7bbe22a6e55547e9cfb60abd71245e" target="_top" xlink:title="DCT_Return_SDBoundaryVals">
<polygon fill="#ffffff" stroke="#000000" points="113,-164 113,-183 233,-183 233,-164 113,-164"/>
<text text-anchor="middle" x="173" y="-171" font-family="Helvetica,sans-Serif" font-size="10.00" fill="#000000">DCT_Return_SDBoundaryVals</text>
</a>
</g>
</g>
<!-- Node8&#45;&gt;Node10 -->
<g id="edge2" class="edge">
<title>Node8&#45;&gt;Node10</title>
<path fill="none" stroke="#191970" d="M55.2863,-126.0729C70.1453,-134.2999 92.5808,-146.1263 113,-154.5 118.3754,-156.7044 124.1062,-158.8127 129.813,-160.7698"/>
<polygon fill="#191970" stroke="#191970" points="128.7341,-164.0994 139.3272,-163.9109 130.9286,-157.4523 128.7341,-164.0994"/>
</g>
<!-- Node11 -->
<g id="node4" class="node">
<title>Node11</title>
<g id="a_node4"><a xlink:href="../../d4/dd3/dctsys_8h.html#afcaaea8a3b5e9ab60fbdf0cb04c10fcb" target="_top" xlink:title="DCT_Return_SubDom_Interc">
<polygon fill="#ffffff" stroke="#000000" points="115.5,-126 115.5,-145 230.5,-145 230.5,-126 115.5,-126"/>
<text text-anchor="middle" x="173" y="-133" font-family="Helvetica,sans-Serif" font-size="10.00" fill="#000000">DCT_Return_SubDom_Interc</text>
</a>
</g>
</g>
<!-- Node8&#45;&gt;Node11 -->
<g id="edge3" class="edge">
<title>Node8&#45;&gt;Node11</title>
<path fill="none" stroke="#191970" d="M77.0423,-121.9446C85.9147,-123.198 95.6078,-124.5673 105.3131,-125.9383"/>
<polygon fill="#191970" stroke="#191970" points="105.0062,-129.4296 115.3975,-127.3628 105.9854,-122.4984 105.0062,-129.4296"/>
</g>
<!-- Node14 -->
<g id="node7" class="node">
<title>Node14</title>
<g id="a_node7"><a xlink:href="../../d4/dd3/dctsys_8h.html#ab55ec527a12f04bb382ced2e675dbc86" target="_top" xlink:title="DCT_SearchIndex">
<polygon fill="#ffffff" stroke="#000000" points="275.5,-88 275.5,-107 353.5,-107 353.5,-88 275.5,-88"/>
<text text-anchor="middle" x="314.5" y="-95" font-family="Helvetica,sans-Serif" font-size="10.00" fill="#000000">DCT_SearchIndex</text>
</a>
</g>
</g>
<!-- Node8&#45;&gt;Node14 -->
<g id="edge6" class="edge">
<title>Node8&#45;&gt;Node14</title>
<path fill="none" stroke="#191970" d="M77.1672,-113.8381C126.3666,-110.4512 211.3997,-104.5975 265.2064,-100.8934"/>
<polygon fill="#191970" stroke="#191970" points="265.4667,-104.3839 275.2027,-100.2052 264.9859,-97.4004 265.4667,-104.3839"/>
</g>
<!-- Node15 -->
<g id="node8" class="node">
<title>Node15</title>
<g id="a_node8"><a xlink:href="../../d4/dd3/dctsys_8h.html#a2475b5c055386d6380a6ca05d9e6be67" target="_top" xlink:title="DCT_IncludeNeighbor">
<polygon fill="#ffffff" stroke="#000000" points="127.5,-50 127.5,-69 218.5,-69 218.5,-50 127.5,-50"/>
<text text-anchor="middle" x="173" y="-57" font-family="Helvetica,sans-Serif" font-size="10.00" fill="#000000">DCT_IncludeNeighbor</text>
</a>
</g>
</g>
<!-- Node8&#45;&gt;Node15 -->
<g id="edge8" class="edge">
<title>Node8&#45;&gt;Node15</title>
<path fill="none" stroke="#191970" d="M59.6052,-106.9057C74.473,-100.2072 94.8795,-91.1344 113,-83.5 121.4133,-79.9554 130.5405,-76.2392 139.0775,-72.8187"/>
<polygon fill="#191970" stroke="#191970" points="140.4007,-76.0592 148.3959,-69.1074 137.8106,-69.556 140.4007,-76.0592"/>
</g>
<!-- Node16 -->
<g id="node9" class="node">
<title>Node16</title>
<g id="a_node9"><a xlink:href="../../d4/dd3/dctsys_8h.html#aebad4acba0d4b312ff6997eea1d10324" target="_top" xlink:title="DCT_Calculate_PerProc\l_Neighbors">
<polygon fill="#ffffff" stroke="#000000" points="123.5,-.5 123.5,-30.5 222.5,-30.5 222.5,-.5 123.5,-.5"/>
<text text-anchor="start" x="131.5" y="-18.5" font-family="Helvetica,sans-Serif" font-size="10.00" fill="#000000">DCT_Calculate_PerProc</text>
<text text-anchor="middle" x="173" y="-7.5" font-family="Helvetica,sans-Serif" font-size="10.00" fill="#000000">_Neighbors</text>
</a>
</g>
</g>
<!-- Node8&#45;&gt;Node16 -->
<g id="edge9" class="edge">
<title>Node8&#45;&gt;Node16</title>
<path fill="none" stroke="#191970" d="M45.781,-106.8816C58.1085,-91.1553 84.5411,-59.7649 113,-40.5 115.71,-38.6655 118.576,-36.9258 121.5279,-35.283"/>
<polygon fill="#191970" stroke="#191970" points="123.2687,-38.3237 130.5709,-30.6472 120.0754,-32.0945 123.2687,-38.3237"/>
</g>
<!-- Node12 -->
<g id="node5" class="node">
<title>Node12</title>
<g id="a_node5"><a xlink:href="../../da/df2/dct__data__utils_8c.html#adfa8197f7b8a37bbb641ed09e67246bf" target="_top" xlink:title="DCT_SearchIndex">
<polygon fill="#ffffff" stroke="#000000" points="275.5,-126 275.5,-145 353.5,-145 353.5,-126 275.5,-126"/>
<text text-anchor="middle" x="314.5" y="-133" font-family="Helvetica,sans-Serif" font-size="10.00" fill="#000000">DCT_SearchIndex</text>
</a>
</g>
</g>
<!-- Node11&#45;&gt;Node12 -->
<g id="edge4" class="edge">
<title>Node11&#45;&gt;Node12</title>
<path fill="none" stroke="#191970" d="M230.5535,-135.5C242.0353,-135.5 253.9979,-135.5 265.1731,-135.5"/>
<polygon fill="#191970" stroke="#191970" points="265.1784,-139.0001 275.1783,-135.5 265.1783,-132.0001 265.1784,-139.0001"/>
</g>
<!-- Node13 -->
<g id="node6" class="node">
<title>Node13</title>
<g id="a_node6"><a xlink:href="../../da/df2/dct__data__utils_8c.html#ab4c2668ba72029a38c2a6ad100c8a897" target="_top" xlink:title="DCT_index_bsearch">
<polygon fill="#ffffff" stroke="#000000" points="396,-107 396,-126 481,-126 481,-107 396,-107"/>
<text text-anchor="middle" x="438.5" y="-114" font-family="Helvetica,sans-Serif" font-size="10.00" fill="#000000">DCT_index_bsearch</text>
</a>
</g>
</g>
<!-- Node12&#45;&gt;Node13 -->
<g id="edge5" class="edge">
<title>Node12&#45;&gt;Node13</title>
<path fill="none" stroke="#191970" d="M353.7344,-129.4883C363.843,-127.9394 374.8893,-126.2468 385.5686,-124.6105"/>
<polygon fill="#191970" stroke="#191970" points="386.2981,-128.0396 395.6526,-123.0653 385.2378,-121.1204 386.2981,-128.0396"/>
</g>
<!-- Node14&#45;&gt;Node13 -->
<g id="edge7" class="edge">
<title>Node14&#45;&gt;Node13</title>
<path fill="none" stroke="#191970" d="M353.7344,-103.5117C363.843,-105.0606 374.8893,-106.7532 385.5686,-108.3895"/>
<polygon fill="#191970" stroke="#191970" points="385.2378,-111.8796 395.6526,-109.9347 386.2981,-104.9604 385.2378,-111.8796"/>
</g>
<!-- Node17 -->
<g id="node10" class="node">
<title>Node17</title>
<g id="a_node10"><a xlink:href="../../da/df2/dct__data__utils_8c.html#a0c9f95d0bba8d5065dc47cf3bc85aca2" target="_top" xlink:title="DCT_IncludeNeighbor">
<polygon fill="#ffffff" stroke="#000000" points="269,-6 269,-25 360,-25 360,-6 269,-6"/>
<text text-anchor="middle" x="314.5" y="-13" font-family="Helvetica,sans-Serif" font-size="10.00" fill="#000000">DCT_IncludeNeighbor</text>
</a>
</g>
</g>
<!-- Node16&#45;&gt;Node17 -->
<g id="edge10" class="edge">
<title>Node16&#45;&gt;Node17</title>
<path fill="none" stroke="#191970" d="M222.8876,-15.5C234.4573,-15.5 246.8443,-15.5 258.6514,-15.5"/>
<polygon fill="#191970" stroke="#191970" points="258.8429,-19.0001 268.8429,-15.5 258.8429,-12.0001 258.8429,-19.0001"/>
</g>
</g>
</svg>
