<?xml version="1.0" encoding="UTF-8" standalone="no"?>
<!DOCTYPE svg PUBLIC "-//W3C//DTD SVG 1.1//EN"
 "http://www.w3.org/Graphics/SVG/1.1/DTD/svg11.dtd">
<!-- Generated by graphviz version 2.40.1 (20161225.0304)
 -->
<!-- Title: DCT_ProduceVar_Comm Pages: 1 -->
<!--zoomable 162 -->
<svg id="main" version="1.1" xmlns="http://www.w3.org/2000/svg" xmlns:xlink="http://www.w3.org/1999/xlink" xml:space="preserve" onload="init(evt)">
<style type="text/css"><![CDATA[
.edge:hover path { stroke: red; }
.edge:hover polygon { stroke: red; fill: red; }
]]></style>
<script type="text/javascript"><![CDATA[
var edges = document.getElementsByTagName('g');
if (edges && edges.length) {
  for (var i=0;i<edges.length;i++) {
    if (edges[i].id.substr(0,4)=='edge') {
      edges[i].setAttribute('class','edge');
    }
  }
}
]]></script>
        <defs>
                <circle id="rim" cx="0" cy="0" r="7"/>
                <circle id="rim2" cx="0" cy="0" r="3.5"/>
                <g id="zoomPlus">
                        <use xlink:href="#rim" fill="#404040">
                                <set attributeName="fill" to="#808080" begin="zoomplus.mouseover" end="zoomplus.mouseout"/>
                        </use>
                        <path d="M-4,0h8M0,-4v8" fill="none" stroke="white" stroke-width="1.5" pointer-events="none"/>
                </g>
                <g id="zoomMin">
                        <use xlink:href="#rim" fill="#404040">
                                <set attributeName="fill" to="#808080" begin="zoomminus.mouseover" end="zoomminus.mouseout"/>
                        </use>
                        <path d="M-4,0h8" fill="none" stroke="white" stroke-width="1.5" pointer-events="none"/>
                </g>
                <g id="dirArrow">
                        <path fill="none" stroke="white" stroke-width="1.5" d="M0,-3.0v7 M-2.5,-0.5L0,-3.0L2.5,-0.5"/>
                </g>
               <g id="resetDef">
                       <use xlink:href="#rim2" fill="#404040">
                               <set attributeName="fill" to="#808080" begin="reset.mouseover" end="reset.mouseout"/>
                       </use>
               </g>
        </defs>

<script type="text/javascript">
var viewWidth = 654;
var viewHeight = 162;
var sectionId = 'dynsection-4';
</script>
<script xlink:href="../../svgpan.js"/>
<svg id="graph" class="graph">
<g id="viewport">
<title>DCT_ProduceVar_Comm</title>
<polygon fill="#ffffff" stroke="transparent" points="-4,4 -4,-157.5 650,-157.5 650,4 -4,4"/>
<!-- Node8 -->
<g id="node1" class="node">
<title>Node8</title>
<polygon fill="#bfbfbf" stroke="#000000" points="0,-96 0,-115 102,-115 102,-96 0,-96"/>
<text text-anchor="middle" x="51" y="-103" font-family="Helvetica,sans-Serif" font-size="10.00" fill="#000000">DCT_ProduceVar_Comm</text>
</g>
<!-- Node9 -->
<g id="node2" class="node">
<title>Node9</title>
<g id="a_node2"><a xlink:href="../../dc/d6c/dct__mpi__comm_8c.html#ae236a3d691f2fd77b900e78c54b0f2f5" target="_top" xlink:title="DCT_Post_RecvVarComm">
<polygon fill="#ffffff" stroke="#000000" points="138,-134 138,-153 244,-153 244,-134 138,-134"/>
<text text-anchor="middle" x="191" y="-141" font-family="Helvetica,sans-Serif" font-size="10.00" fill="#000000">DCT_Post_RecvVarComm</text>
</a>
</g>
</g>
<!-- Node8&#45;&gt;Node9 -->
<g id="edge1" class="edge">
<title>Node8&#45;&gt;Node9</title>
<path fill="none" stroke="#191970" d="M86.3279,-115.089C104.4006,-119.9944 126.5984,-126.0196 145.8945,-131.2571"/>
<polygon fill="#191970" stroke="#191970" points="145.1157,-134.6723 155.6834,-133.9141 146.9494,-127.9167 145.1157,-134.6723"/>
</g>
<!-- Node10 -->
<g id="node3" class="node">
<title>Node10</title>
<g id="a_node3"><a xlink:href="../../d4/dd3/dctsys_8h.html#a44e0fb3ffc82ceb78b9be1af98318a0f" target="_top" xlink:title="DCT_IncludedValues_GC">
<polygon fill="#ffffff" stroke="#000000" points="139.5,-96 139.5,-115 242.5,-115 242.5,-96 139.5,-96"/>
<text text-anchor="middle" x="191" y="-103" font-family="Helvetica,sans-Serif" font-size="10.00" fill="#000000">DCT_IncludedValues_GC</text>
</a>
</g>
</g>
<!-- Node8&#45;&gt;Node10 -->
<g id="edge2" class="edge">
<title>Node8&#45;&gt;Node10</title>
<path fill="none" stroke="#191970" d="M102.3359,-105.5C111.0677,-105.5 120.2175,-105.5 129.1856,-105.5"/>
<polygon fill="#191970" stroke="#191970" points="129.2017,-109.0001 139.2017,-105.5 129.2017,-102.0001 129.2017,-109.0001"/>
</g>
<!-- Node12 -->
<g id="node5" class="node">
<title>Node12</title>
<g id="a_node5"><a xlink:href="../../d4/dd3/dctsys_8h.html#ac79fcb4d9b5157a30ee687ac84b15480" target="_top" xlink:title="DCT_IncludedValues">
<polygon fill="#ffffff" stroke="#000000" points="147.5,-55 147.5,-74 234.5,-74 234.5,-55 147.5,-55"/>
<text text-anchor="middle" x="191" y="-62" font-family="Helvetica,sans-Serif" font-size="10.00" fill="#000000">DCT_IncludedValues</text>
</a>
</g>
</g>
<!-- Node8&#45;&gt;Node12 -->
<g id="edge4" class="edge">
<title>Node8&#45;&gt;Node12</title>
<path fill="none" stroke="#191970" d="M83.4707,-95.9907C102.8564,-90.3135 127.6941,-83.0396 148.6134,-76.9132"/>
<polygon fill="#191970" stroke="#191970" points="149.6072,-80.2693 158.2204,-74.0997 147.6398,-73.5514 149.6072,-80.2693"/>
</g>
<!-- Node11 -->
<g id="node4" class="node">
<title>Node11</title>
<g id="a_node4"><a xlink:href="../../da/df2/dct__data__utils_8c.html#ae6bc571c3206b76d862d5034ac958b46" target="_top" xlink:title="DCT_GC_index_bsearch">
<polygon fill="#ffffff" stroke="#000000" points="280,-99 280,-118 380,-118 380,-99 280,-99"/>
<text text-anchor="middle" x="330" y="-106" font-family="Helvetica,sans-Serif" font-size="10.00" fill="#000000">DCT_GC_index_bsearch</text>
</a>
</g>
</g>
<!-- Node10&#45;&gt;Node11 -->
<g id="edge3" class="edge">
<title>Node10&#45;&gt;Node11</title>
<path fill="none" stroke="#191970" d="M242.7585,-106.6171C251.413,-106.8039 260.461,-106.9992 269.3149,-107.1903"/>
<polygon fill="#191970" stroke="#191970" points="269.5112,-110.6952 279.5844,-107.4119 269.6623,-103.6968 269.5112,-110.6952"/>
</g>
<!-- Node13 -->
<g id="node6" class="node">
<title>Node13</title>
<g id="a_node6"><a xlink:href="../../da/df2/dct__data__utils_8c.html#a74b531fae5465d65f94203c1ce8811ad" target="_top" xlink:title="DCT_IncludedValues\l_Cartes">
<polygon fill="#ffffff" stroke="#000000" points="286.5,-49.5 286.5,-79.5 373.5,-79.5 373.5,-49.5 286.5,-49.5"/>
<text text-anchor="start" x="294.5" y="-67.5" font-family="Helvetica,sans-Serif" font-size="10.00" fill="#000000">DCT_IncludedValues</text>
<text text-anchor="middle" x="330" y="-56.5" font-family="Helvetica,sans-Serif" font-size="10.00" fill="#000000">_Cartes</text>
</a>
</g>
</g>
<!-- Node12&#45;&gt;Node13 -->
<g id="edge5" class="edge">
<title>Node12&#45;&gt;Node13</title>
<path fill="none" stroke="#191970" d="M234.5991,-64.5C247.6688,-64.5 262.1645,-64.5 275.8284,-64.5"/>
<polygon fill="#191970" stroke="#191970" points="276.0777,-68.0001 286.0777,-64.5 276.0776,-61.0001 276.0777,-68.0001"/>
</g>
<!-- Node15 -->
<g id="node8" class="node">
<title>Node15</title>
<g id="a_node8"><a xlink:href="../../da/df2/dct__data__utils_8c.html#abffb29683692372a756b8ee1e35fc836" target="_top" xlink:title="DCT_IncludedValues\l_Rectil">
<polygon fill="#ffffff" stroke="#000000" points="286.5,-.5 286.5,-30.5 373.5,-30.5 373.5,-.5 286.5,-.5"/>
<text text-anchor="start" x="294.5" y="-18.5" font-family="Helvetica,sans-Serif" font-size="10.00" fill="#000000">DCT_IncludedValues</text>
<text text-anchor="middle" x="330" y="-7.5" font-family="Helvetica,sans-Serif" font-size="10.00" fill="#000000">_Rectil</text>
</a>
</g>
</g>
<!-- Node12&#45;&gt;Node15 -->
<g id="edge7" class="edge">
<title>Node12&#45;&gt;Node15</title>
<path fill="none" stroke="#191970" d="M218.1306,-54.936C235.1137,-48.9491 257.555,-41.0382 277.8779,-33.874"/>
<polygon fill="#191970" stroke="#191970" points="279.0766,-37.1626 287.3441,-30.537 276.7493,-30.5608 279.0766,-37.1626"/>
</g>
<!-- Node14 -->
<g id="node7" class="node">
<title>Node14</title>
<g id="a_node7"><a xlink:href="../../da/df2/dct__data__utils_8c.html#a7b21bfcd675a7e8eeb06960ccfc03ff4" target="_top" xlink:title="DCT_IncludedIndex_Cartes">
<polygon fill="#ffffff" stroke="#000000" points="416,-55 416,-74 525,-74 525,-55 416,-55"/>
<text text-anchor="middle" x="470.5" y="-62" font-family="Helvetica,sans-Serif" font-size="10.00" fill="#000000">DCT_IncludedIndex_Cartes</text>
</a>
</g>
</g>
<!-- Node13&#45;&gt;Node14 -->
<g id="edge6" class="edge">
<title>Node13&#45;&gt;Node14</title>
<path fill="none" stroke="#191970" d="M373.6849,-64.5C383.8185,-64.5 394.8169,-64.5 405.6435,-64.5"/>
<polygon fill="#191970" stroke="#191970" points="405.9371,-68.0001 415.9371,-64.5 405.937,-61.0001 405.9371,-68.0001"/>
</g>
<!-- Node16 -->
<g id="node9" class="node">
<title>Node16</title>
<g id="a_node9"><a xlink:href="../../da/df2/dct__data__utils_8c.html#ae30066cfcde99cbac1faaca5685124fb" target="_top" xlink:title="DCT_IncludedIndex_Rectil">
<polygon fill="#ffffff" stroke="#000000" points="417.5,-6 417.5,-25 523.5,-25 523.5,-6 417.5,-6"/>
<text text-anchor="middle" x="470.5" y="-13" font-family="Helvetica,sans-Serif" font-size="10.00" fill="#000000">DCT_IncludedIndex_Rectil</text>
</a>
</g>
</g>
<!-- Node15&#45;&gt;Node16 -->
<g id="edge8" class="edge">
<title>Node15&#45;&gt;Node16</title>
<path fill="none" stroke="#191970" d="M373.6849,-15.5C384.293,-15.5 395.8488,-15.5 407.1631,-15.5"/>
<polygon fill="#191970" stroke="#191970" points="407.4518,-19.0001 417.4518,-15.5 407.4518,-12.0001 407.4518,-19.0001"/>
</g>
<!-- Node17 -->
<g id="node10" class="node">
<title>Node17</title>
<g id="a_node10"><a xlink:href="../../da/df2/dct__data__utils_8c.html#ab4c2668ba72029a38c2a6ad100c8a897" target="_top" xlink:title="DCT_index_bsearch">
<polygon fill="#ffffff" stroke="#000000" points="561,-6 561,-25 646,-25 646,-6 561,-6"/>
<text text-anchor="middle" x="603.5" y="-13" font-family="Helvetica,sans-Serif" font-size="10.00" fill="#000000">DCT_index_bsearch</text>
</a>
</g>
</g>
<!-- Node16&#45;&gt;Node17 -->
<g id="edge9" class="edge">
<title>Node16&#45;&gt;Node17</title>
<path fill="none" stroke="#191970" d="M523.8298,-15.5C532.6602,-15.5 541.8133,-15.5 550.6322,-15.5"/>
<polygon fill="#191970" stroke="#191970" points="550.7919,-19.0001 560.7919,-15.5 550.7918,-12.0001 550.7919,-19.0001"/>
</g>
</g>
</svg>
        <g id="navigator" transform="translate(0 0)" fill="#404254">
                <rect fill="#f2f5e9" fill-opacity="0.5" stroke="#606060" stroke-width=".5" x="0" y="0" width="60" height="60"/>
                <use id="zoomplus" xlink:href="#zoomPlus" x="17" y="9" onmousedown="handleZoom(evt,'in')"/>
                <use id="zoomminus" xlink:href="#zoomMin" x="42" y="9" onmousedown="handleZoom(evt,'out')"/>
                <use id="reset" xlink:href="#resetDef" x="30" y="36" onmousedown="handleReset()"/>
                <g id="arrowUp" xlink:href="#dirArrow" transform="translate(30 24)" onmousedown="handlePan(0,-1)">
                  <use xlink:href="#rim" fill="#404040">
                        <set attributeName="fill" to="#808080" begin="arrowUp.mouseover" end="arrowUp.mouseout"/>
                  </use>
                  <path fill="none" stroke="white" stroke-width="1.5" d="M0,-3.0v7 M-2.5,-0.5L0,-3.0L2.5,-0.5"/>
                </g>
                <g id="arrowRight" xlink:href="#dirArrow" transform="rotate(90) translate(36 -43)" onmousedown="handlePan(1,0)">
                  <use xlink:href="#rim" fill="#404040">
                        <set attributeName="fill" to="#808080" begin="arrowRight.mouseover" end="arrowRight.mouseout"/>
                  </use>
                  <path fill="none" stroke="white" stroke-width="1.5" d="M0,-3.0v7 M-2.5,-0.5L0,-3.0L2.5,-0.5"/>
                </g>
                <g id="arrowDown" xlink:href="#dirArrow" transform="rotate(180) translate(-30 -48)" onmousedown="handlePan(0,1)">
                  <use xlink:href="#rim" fill="#404040">
                        <set attributeName="fill" to="#808080" begin="arrowDown.mouseover" end="arrowDown.mouseout"/>
                  </use>
                  <path fill="none" stroke="white" stroke-width="1.5" d="M0,-3.0v7 M-2.5,-0.5L0,-3.0L2.5,-0.5"/>
                </g>
                <g id="arrowLeft" xlink:href="#dirArrow" transform="rotate(270) translate(-36 17)" onmousedown="handlePan(-1,0)">
                  <use xlink:href="#rim" fill="#404040">
                        <set attributeName="fill" to="#808080" begin="arrowLeft.mouseover" end="arrowLeft.mouseout"/>
                  </use>
                  <path fill="none" stroke="white" stroke-width="1.5" d="M0,-3.0v7 M-2.5,-0.5L0,-3.0L2.5,-0.5"/>
                </g>
        </g>
        <svg viewBox="0 0 15 15" width="100%" height="30px" preserveAspectRatio="xMaxYMin meet">
         <g id="arrow_out" transform="scale(0.3 0.3)">
          <a xlink:href="dct__comm_8h_ad4a27762ce55addfbd0314a9230c121b_cgraph_org.svg" target="_base">
           <rect id="button" ry="5" rx="5" y="6" x="6" height="38" width="38"
                fill="#f2f5e9" fill-opacity="0.5" stroke="#606060" stroke-width="1.0"/>
           <path id="arrow"
             d="M 11.500037,31.436501 C 11.940474,20.09759 22.043105,11.32322 32.158766,21.979434 L 37.068811,17.246167 C 37.068811,17.246167 37.088388,32 37.088388,32 L 22.160133,31.978069 C 22.160133,31.978069 26.997745,27.140456 26.997745,27.140456 C 18.528582,18.264221 13.291696,25.230495 11.500037,31.436501 z"
             style="fill:#404040;"/>
          </a>
         </g>
        </svg>
</svg>
