<?xml version="1.0" encoding="UTF-8" standalone="no"?>
<!DOCTYPE svg PUBLIC "-//W3C//DTD SVG 1.1//EN"
 "http://www.w3.org/Graphics/SVG/1.1/DTD/svg11.dtd">
<!-- Generated by graphviz version 2.40.1 (20161225.0304)
 -->
<!-- Title: /Users/dcecchis/DCT_Project/DCT/SRC/dct_model.c Pages: 1 -->
<svg width="385pt" height="218pt"
 viewBox="0.00 0.00 384.50 218.00" xmlns="http://www.w3.org/2000/svg" xmlns:xlink="http://www.w3.org/1999/xlink">
<g id="graph0" class="graph" transform="scale(1 1) rotate(0) translate(4 214)">
<title>/Users/dcecchis/DCT_Project/DCT/SRC/dct_model.c</title>
<polygon fill="#ffffff" stroke="transparent" points="-4,4 -4,-214 380.5,-214 380.5,4 -4,4"/>
<!-- Node0 -->
<g id="node1" class="node">
<title>Node0</title>
<polygon fill="#bfbfbf" stroke="#000000" points="111.5,-168.5 111.5,-209.5 228.5,-209.5 228.5,-168.5 111.5,-168.5"/>
<text text-anchor="start" x="119.5" y="-197.5" font-family="Helvetica,sans-Serif" font-size="10.00" fill="#000000">/Users/dcecchis/DCT</text>
<text text-anchor="start" x="119.5" y="-186.5" font-family="Helvetica,sans-Serif" font-size="10.00" fill="#000000">_Project/DCT/SRC/dct</text>
<text text-anchor="middle" x="170" y="-175.5" font-family="Helvetica,sans-Serif" font-size="10.00" fill="#000000">_model.c</text>
</g>
<!-- Node1 -->
<g id="node2" class="node">
<title>Node1</title>
<polygon fill="#ffffff" stroke="#bfbfbf" points="0,-.5 0,-19.5 46,-19.5 46,-.5 0,-.5"/>
<text text-anchor="middle" x="23" y="-7.5" font-family="Helvetica,sans-Serif" font-size="10.00" fill="#000000">stdio.h</text>
</g>
<!-- Node0&#45;&gt;Node1 -->
<g id="edge1" class="edge">
<title>Node0&#45;&gt;Node1</title>
<path fill="none" stroke="#191970" d="M149.8924,-168.3077C139.781,-157.6709 127.4804,-144.3731 117,-132 86.6581,-96.1786 53.7215,-52.1086 36.0205,-27.9527"/>
<polygon fill="#191970" stroke="#191970" points="38.7413,-25.7436 30.0195,-19.7285 33.0866,-29.8697 38.7413,-25.7436"/>
</g>
<!-- Node2 -->
<g id="node3" class="node">
<title>Node2</title>
<polygon fill="#ffffff" stroke="#bfbfbf" points="64.5,-.5 64.5,-19.5 113.5,-19.5 113.5,-.5 64.5,-.5"/>
<text text-anchor="middle" x="89" y="-7.5" font-family="Helvetica,sans-Serif" font-size="10.00" fill="#000000">string.h</text>
</g>
<!-- Node0&#45;&gt;Node2 -->
<g id="edge2" class="edge">
<title>Node0&#45;&gt;Node2</title>
<path fill="none" stroke="#191970" d="M154.9673,-168.4041C139.6955,-146.5276 116.4335,-110.4191 103,-76 97.1442,-60.9965 93.54,-43.0699 91.458,-29.6886"/>
<polygon fill="#191970" stroke="#191970" points="94.9093,-29.0966 90.0512,-19.6813 87.9775,-30.0712 94.9093,-29.0966"/>
</g>
<!-- Node3 -->
<g id="node4" class="node">
<title>Node3</title>
<g id="a_node4"><a xlink:href="../../df/d15/dct_8h.html" target="_top" xlink:title="Header file containing the DCT definitions of data structures and functions available for the user...">
<polygon fill="#ffffff" stroke="#000000" points="151,-112.5 151,-131.5 189,-131.5 189,-112.5 151,-112.5"/>
<text text-anchor="middle" x="170" y="-119.5" font-family="Helvetica,sans-Serif" font-size="10.00" fill="#000000">dct.h</text>
</a>
</g>
</g>
<!-- Node0&#45;&gt;Node3 -->
<g id="edge3" class="edge">
<title>Node0&#45;&gt;Node3</title>
<path fill="none" stroke="#191970" d="M170,-168.168C170,-159.8226 170,-150.2471 170,-141.9879"/>
<polygon fill="#191970" stroke="#191970" points="173.5001,-141.7804 170,-131.7805 166.5001,-141.7805 173.5001,-141.7804"/>
</g>
<!-- Node9 -->
<g id="node10" class="node">
<title>Node9</title>
<g id="a_node10"><a xlink:href="../../d4/dd3/dctsys_8h.html" target="_top" xlink:title="Contains all the DCT definitions that are not available for a DCT user (private to DCT)...">
<polygon fill="#ffffff" stroke="#000000" points="323.5,-112.5 323.5,-131.5 376.5,-131.5 376.5,-112.5 323.5,-112.5"/>
<text text-anchor="middle" x="350" y="-119.5" font-family="Helvetica,sans-Serif" font-size="10.00" fill="#000000">dctsys.h</text>
</a>
</g>
</g>
<!-- Node0&#45;&gt;Node9 -->
<g id="edge13" class="edge">
<title>Node0&#45;&gt;Node9</title>
<path fill="none" stroke="#191970" d="M225.4747,-168.3511C254.4738,-157.557 289.1096,-144.6647 314.4825,-135.2204"/>
<polygon fill="#191970" stroke="#191970" points="315.9113,-138.4232 324.0622,-131.6546 313.4694,-131.863 315.9113,-138.4232"/>
</g>
<!-- Node10 -->
<g id="node11" class="node">
<title>Node10</title>
<g id="a_node11"><a xlink:href="../../d4/d4a/dct__comm_8h.html" target="_top" xlink:title="Contains all definitions and functions headers related with the communication library used in the imp...">
<polygon fill="#ffffff" stroke="#000000" points="234.5,-112.5 234.5,-131.5 305.5,-131.5 305.5,-112.5 234.5,-112.5"/>
<text text-anchor="middle" x="270" y="-119.5" font-family="Helvetica,sans-Serif" font-size="10.00" fill="#000000">dct_comm.h</text>
</a>
</g>
</g>
<!-- Node0&#45;&gt;Node10 -->
<g id="edge14" class="edge">
<title>Node0&#45;&gt;Node10</title>
<path fill="none" stroke="#191970" d="M200.8193,-168.3511C215.7893,-158.3212 233.4632,-146.4797 247.1997,-137.2762"/>
<polygon fill="#191970" stroke="#191970" points="249.2305,-140.1285 255.5901,-131.6546 245.3342,-134.3131 249.2305,-140.1285"/>
</g>
<!-- Node3&#45;&gt;Node2 -->
<g id="edge5" class="edge">
<title>Node3&#45;&gt;Node2</title>
<path fill="none" stroke="#191970" d="M156.1177,-112.3838C144.6769,-103.8885 128.6556,-90.606 118,-76 107.6398,-61.7988 99.9184,-43.3137 95.0588,-29.5201"/>
<polygon fill="#191970" stroke="#191970" points="98.2502,-28.0243 91.7793,-19.6352 91.6063,-30.2286 98.2502,-28.0243"/>
</g>
<!-- Node4 -->
<g id="node5" class="node">
<title>Node4</title>
<polygon fill="#ffffff" stroke="#bfbfbf" points="198,-.5 198,-19.5 246,-19.5 246,-.5 198,-.5"/>
<text text-anchor="middle" x="222" y="-7.5" font-family="Helvetica,sans-Serif" font-size="10.00" fill="#000000">stdlib.h</text>
</g>
<!-- Node3&#45;&gt;Node4 -->
<g id="edge4" class="edge">
<title>Node3&#45;&gt;Node4</title>
<path fill="none" stroke="#191970" d="M175.3793,-112.2434C180.4014,-103.0091 188.0012,-88.7073 194,-76 201.3791,-60.3687 208.9922,-42.2739 214.4138,-28.9885"/>
<polygon fill="#191970" stroke="#191970" points="217.7448,-30.0869 218.2456,-19.5039 211.2545,-27.4647 217.7448,-30.0869"/>
</g>
<!-- Node5 -->
<g id="node6" class="node">
<title>Node5</title>
<g id="a_node6"><a xlink:href="../../de/d3c/macros_8h.html" target="_top" xlink:title="the header file contains all the DCT utility macros. ">
<polygon fill="#ffffff" stroke="#000000" points="127,-56.5 127,-75.5 185,-75.5 185,-56.5 127,-56.5"/>
<text text-anchor="middle" x="156" y="-63.5" font-family="Helvetica,sans-Serif" font-size="10.00" fill="#000000">macros.h</text>
</a>
</g>
</g>
<!-- Node3&#45;&gt;Node5 -->
<g id="edge6" class="edge">
<title>Node3&#45;&gt;Node5</title>
<path fill="none" stroke="#191970" d="M167.5614,-112.2455C165.7145,-104.8579 163.1172,-94.4689 160.8522,-85.4087"/>
<polygon fill="#191970" stroke="#191970" points="164.2316,-84.4952 158.4107,-75.6427 157.4406,-86.193 164.2316,-84.4952"/>
</g>
<!-- Node7 -->
<g id="node8" class="node">
<title>Node7</title>
<g id="a_node8"><a xlink:href="../../df/d42/dct__commdat_8h.html" target="_top" xlink:title="Contains constants and data type definitions related with the communication library. ">
<polygon fill="#ffffff" stroke="#000000" points="241.5,-56.5 241.5,-75.5 326.5,-75.5 326.5,-56.5 241.5,-56.5"/>
<text text-anchor="middle" x="284" y="-63.5" font-family="Helvetica,sans-Serif" font-size="10.00" fill="#000000">dct_commdat.h</text>
</a>
</g>
</g>
<!-- Node3&#45;&gt;Node7 -->
<g id="edge11" class="edge">
<title>Node3&#45;&gt;Node7</title>
<path fill="none" stroke="#191970" d="M189.081,-112.6269C207.22,-103.7165 234.735,-90.2003 255.4784,-80.0106"/>
<polygon fill="#191970" stroke="#191970" points="257.0422,-83.142 264.4746,-75.5914 253.9559,-76.8591 257.0422,-83.142"/>
</g>
<!-- Node5&#45;&gt;Node1 -->
<g id="edge8" class="edge">
<title>Node5&#45;&gt;Node1</title>
<path fill="none" stroke="#191970" d="M133.1365,-56.3733C111.595,-47.3032 79.1162,-33.6279 55.0044,-23.4755"/>
<polygon fill="#191970" stroke="#191970" points="56.1397,-20.156 45.5652,-19.5011 53.4233,-26.6075 56.1397,-20.156"/>
</g>
<!-- Node5&#45;&gt;Node2 -->
<g id="edge9" class="edge">
<title>Node5&#45;&gt;Node2</title>
<path fill="none" stroke="#191970" d="M144.3295,-56.2455C134.4339,-47.9746 120.0373,-35.9416 108.4099,-26.2232"/>
<polygon fill="#191970" stroke="#191970" points="110.4542,-23.3703 100.5368,-19.6427 105.965,-28.7413 110.4542,-23.3703"/>
</g>
<!-- Node5&#45;&gt;Node4 -->
<g id="edge7" class="edge">
<title>Node5&#45;&gt;Node4</title>
<path fill="none" stroke="#191970" d="M167.4963,-56.2455C177.2442,-47.9746 191.4259,-35.9416 202.8798,-26.2232"/>
<polygon fill="#191970" stroke="#191970" points="205.2747,-28.7813 210.6354,-19.6427 200.7459,-23.4437 205.2747,-28.7813"/>
</g>
<!-- Node6 -->
<g id="node7" class="node">
<title>Node6</title>
<polygon fill="#ffffff" stroke="#bfbfbf" points="132,-.5 132,-19.5 180,-19.5 180,-.5 132,-.5"/>
<text text-anchor="middle" x="156" y="-7.5" font-family="Helvetica,sans-Serif" font-size="10.00" fill="#000000">errno.h</text>
</g>
<!-- Node5&#45;&gt;Node6 -->
<g id="edge10" class="edge">
<title>Node5&#45;&gt;Node6</title>
<path fill="none" stroke="#191970" d="M156,-56.2455C156,-48.9382 156,-38.6944 156,-29.7046"/>
<polygon fill="#191970" stroke="#191970" points="159.5001,-29.6426 156,-19.6427 152.5001,-29.6427 159.5001,-29.6426"/>
</g>
<!-- Node8 -->
<g id="node9" class="node">
<title>Node8</title>
<polygon fill="#ffffff" stroke="#bfbfbf" points="299.5,-.5 299.5,-19.5 340.5,-19.5 340.5,-.5 299.5,-.5"/>
<text text-anchor="middle" x="320" y="-7.5" font-family="Helvetica,sans-Serif" font-size="10.00" fill="#000000">mpi.h</text>
</g>
<!-- Node7&#45;&gt;Node8 -->
<g id="edge12" class="edge">
<title>Node7&#45;&gt;Node8</title>
<path fill="none" stroke="#191970" d="M290.2707,-56.2455C295.2264,-48.5367 302.283,-37.5598 308.2776,-28.2348"/>
<polygon fill="#191970" stroke="#191970" points="311.3376,-29.9471 313.8011,-19.6427 305.4494,-26.1618 311.3376,-29.9471"/>
</g>
<!-- Node10&#45;&gt;Node7 -->
<g id="edge16" class="edge">
<title>Node10&#45;&gt;Node7</title>
<path fill="none" stroke="#191970" d="M272.4386,-112.2455C274.2855,-104.8579 276.8828,-94.4689 279.1478,-85.4087"/>
<polygon fill="#191970" stroke="#191970" points="282.5594,-86.193 281.5893,-75.6427 275.7684,-84.4952 282.5594,-86.193"/>
</g>
<!-- Node10&#45;&gt;Node8 -->
<g id="edge15" class="edge">
<title>Node10&#45;&gt;Node8</title>
<path fill="none" stroke="#191970" d="M293.7859,-112.4178C308.8669,-104.9442 327.1462,-92.9629 336,-76 343.7263,-61.1972 338.007,-42.5732 331.3542,-28.8865"/>
<polygon fill="#191970" stroke="#191970" points="334.3474,-27.0627 326.5239,-19.9182 328.1845,-30.3821 334.3474,-27.0627"/>
</g>
</g>
</svg>
